"","name","key","decimalLatitude","decimalLongitude","issues","sp","cells","bio_01","bio_02","bio_03","bio_04","bio_05","bio_06","bio_07","bio_08","bio_09","bio_10","bio_11","bio_12","bio_13","bio_14","bio_15","bio_16","bio_17","bio_18","bio_19"
"1","Collaea speciosa",1944851411,-26.26333,-49.29639,"cdround,gass84","Collaea speciosa",773493,173.985366821289,212.760284423828,132.176116943359,1726.08154296875,212.270599365234,93.6637878417969,24.356294631958,619.486267089844,312.267761230469,619.486267089844,376.382507324219,72.306884765625,453.8623046875,2956.37329101562,248.037963867188,88.8761520385742,159.176651000977,212.760284423828,143.656204223633
"2","Collaea speciosa",1851288666,-22.47194,-43.11667,"cdround,gass84","Collaea speciosa",728855,186.893981933594,214.962036132812,156.919250488281,1558.41638183594,261.441223144531,40.3114013671875,59.2862281799316,773.648742675781,127.096633911133,636.350708007812,127.593200683594,68.9240036010742,496.640960693359,2062.76196289062,253.022033691406,114.228012084961,138.766891479492,209.310348510742,157.716247558594
"3","Collaea speciosa",1840911743,-26.46,-49.41,"gass84","Collaea speciosa",775436,179.367630004883,218.486343383789,136.977645874023,1899.13879394531,238.48779296875,105.033012390137,28.2043170928955,701.560241699219,331.664337158203,701.560241699219,353.911895751953,72.9076995849609,454.264556884766,2988.94946289062,254.118591308594,93.4834365844727,160.668090820312,218.486343383789,146.605697631836
"4","Collaea speciosa",1913603995,-21.5615,-44.6313,"gass84","Collaea speciosa",718145,191.28971862793,214.911743164062,158.165069580078,1481.79846191406,278.387664794922,17.2697257995605,76.6123352050781,826.814331054688,55.121452331543,696.365966796875,56.969856262207,79.1730041503906,541.771911621094,1997.60925292969,255.101593017578,108.453033447266,146.818725585938,210.420394897461,163.445449829102
"5","Collaea speciosa",1835181421,-15.72,-48.93944,"gass84","Collaea speciosa",650053,224.995697021484,241.479537963867,208.042251586914,1773.17883300781,339.985870361328,8.04822540283203,82.6867523193359,989.509643554688,27.2913780212402,363.403289794922,27.2913780212402,81,576.839599609375,1011.73205566406,296.037170410156,155.595260620117,140.467132568359,223.435241699219,208.042251586914
"6","Collaea speciosa",1837438537,-20.41361,-41.83222,"gass84","Collaea speciosa",704571,170.041320800781,194.432983398438,141.932403564453,1607.66638183594,318.767364501953,22.842622756958,75.9730377197266,891.425842285156,80.9150619506836,619.86376953125,82.6707305908203,69.9849243164062,517.719543457031,1871.3310546875,235.983749389648,101.128463745117,134.814300537109,184.818664550781,144.768005371094
"7","Collaea speciosa",1929242690,-21.89889,-41.91194,"cdround,gass84","Collaea speciosa",722066,199.840576171875,226.297286987305,173.235305786133,1312.17138671875,230.794021606445,30.5961132049561,60.7399787902832,654.605285644531,97.2281036376953,447.012603759766,107.050407409668,60.5481033325195,481.759490966797,1914.48596191406,262.091766357422,136.423080444336,125.649925231934,213.563415527344,175.562683105469
"8","Collaea speciosa",1264707161,-25.25389,-49.57833,"gass84","Collaea speciosa",761826,180.481109619141,216.50065612793,139.280548095703,1473.60180664062,193.856887817383,81.8786849975586,24.1678104400635,529.773132324219,272.752166748047,509.329406738281,330.193664550781,75.5694732666016,480.094970703125,2832.97314453125,251.540054321289,94.3533325195312,157.181488037109,213.396820068359,148.822891235352
"9","Collaea speciosa",1563169531,-22.66972,-45.54444,"gass84","Collaea speciosa",731742,156.907409667969,182.802215576172,123.016860961914,1806.99694824219,310.725433349609,38.5926666259766,64.2466506958008,910.359497070312,124.983604431152,843.839538574219,126.78271484375,78.15576171875,528.907165527344,2139.29760742188,221.84553527832,74.1240081787109,147.889602661133,179.094055175781,125.567596435547
"10","Collaea speciosa",1423909251,-22.35556,-44.62444,"cdround,gass84","Collaea speciosa",727865,148.146560668945,174.254150390625,115.408790588379,2059.47485351562,357.61181640625,31.8396739959717,68.8485488891602,1051.81604003906,100.060852050781,934.570617675781,100.108428955078,76.5778427124023,523.074340820312,2100.38745117188,213.633743286133,67.3051605224609,146.403732299805,170.352340698242,115.485260009766
"11","Collaea speciosa",1455708187,-15.74056,-47.93222,"cdround,gass84","Collaea speciosa",650065,215.029281616211,230.597595214844,194.741287231445,1392.998046875,230.983947753906,7.1147837638855,75.1412811279297,677.168518066406,22.4423542022705,321.917572021484,22.4423542022705,80,576.390563964844,1090.11401367188,282.614196777344,143.196914672852,139.186874389648,217.153610229492,194.741287231445
"12","Collaea speciosa",1676485160,-21.19583,-43.84083,"cdround,gass84","Collaea speciosa",714266,194.904724121094,219.351058959961,162.797439575195,1344.32971191406,255.863723754883,14.6073503494263,77.6549987792969,764.455383300781,47.3690948486328,613.409240722656,47.3690948486328,77.6729125976562,532.290466308594,1978.68127441406,260.468719482422,114.72240447998,145.696884155273,214.436401367188,162.797439575195
"13","Collaea speciosa",1837839648,-20.40694,-41.83694,"gass84","Collaea speciosa",704570,191.67008972168,216.607330322266,163.050384521484,1258.6083984375,261.648590087891,17.2601871490479,78.973388671875,724.948364257812,60.143741607666,504.474151611328,60.9743576049805,70,514.104431152344,1896.06311035156,258.338806152344,122.060050964355,136.266296386719,209.501358032227,164.94026184082
"14","Collaea speciosa",1455395492,-23.13694,-44.90667,"gass84","Collaea speciosa",736610,170.787658691406,197.707122802734,140.128082275391,1903.39172363281,284.378234863281,58.7399406433105,50.5431785583496,836.95703125,179.321105957031,770.462219238281,185.888031005859,62.9814529418945,482.461151123047,2061.755859375,230.481216430664,99.9905776977539,130.538772583008,193.188659667969,143.070892333984
"15","Collaea speciosa",1848248966,-22.41389,-44.84833,"gass84","Collaea speciosa",727862,167.650695800781,193.440719604492,134.406875610352,1687.98510742188,316.147369384766,30.8172168731689,71.1854782104492,933.789367675781,101.11994934082,800.630249023438,101.578071594238,77.8311996459961,527.396301269531,2097.19653320312,233.06135559082,85.5320816040039,147.575729370117,189.3759765625,135.546524047852
"16","Collaea speciosa",1499618539,-20.48539,-41.82331,"gass84","Collaea speciosa",705543,156.421173095703,180.70133972168,128.490783691406,1580.42065429688,294.831573486328,23.4568462371826,71.7908172607422,838.744812011719,84.9107666015625,589.243591308594,85.9721755981445,69.9190139770508,518.801452636719,1867.06469726562,222.149856567383,87.6808547973633,134.43571472168,171.100128173828,130.600112915039
"17","Collaea speciosa",1423937641,-22.35417,-42.76056,"cdround,gass84","Collaea speciosa",727887,183.339096069336,210.981262207031,154.157684326172,1687.73718261719,275.079895019531,45.5596885681152,56.7801322937012,802.149353027344,139.95149230957,663.737121582031,139.95149230957,67.187126159668,494.705169677734,2026.00402832031,248.558853149414,112.817886352539,135.756042480469,204.424255371094,154.157684326172
"18","Collaea speciosa",1563169524,-23.22778,-45.01611,"gass84","Collaea speciosa",737580,174.837341308594,201.990844726562,143.788146972656,1859.09265136719,289.199645996094,58.179615020752,51.9950141906738,840.5859375,178.97216796875,778.694213867188,182.987274169922,64.1168975830078,484.515716552734,2082.7822265625,235.319641113281,102.982292175293,132.334365844727,197.404479980469,146.42317199707
"19","Collaea speciosa",1424513464,-21.94306,-41.99305,"cdround,gass84","Collaea speciosa",723037,212.327529907227,239.001495361328,185.764953613281,1275.58728027344,215.779403686523,31.1372337341309,58.3130226135254,616.267761230469,98.5973358154297,426.945373535156,106.942520141602,59.4615173339844,477.2333984375,1916.53442382812,273.989105224609,149.454391479492,124.572341918945,225.730346679688,188.113418579102
"20","Collaea speciosa",1585200894,-25.21094,-49.118,"gass84","Collaea speciosa",760859,169.89990234375,205.91471862793,129.952362060547,1591.20373535156,217.200164794922,71.4856948852539,31.9009170532227,604.319396972656,232.02392578125,576.935302734375,272.917358398438,72.5434417724609,471.337219238281,2787.7236328125,240.259094238281,86.2799224853516,154.028411865234,202.380355834961,135.849884033203
"21","Collaea speciosa",1424508796,-22.45389,-44.90444,"cdround,gass84","Collaea speciosa",728834,164.41584777832,190.462478637695,131.330169677734,1653.68103027344,279.928100585938,28.0829296112061,65.9179000854492,830.389770507812,90.3551025390625,708.807067871094,90.7558746337891,77.0351791381836,524.488708496094,2101.89868164062,229.784057617188,82.8820343017578,146.874786376953,186.368881225586,131.935775756836
"22","Collaea speciosa",1503030313,-22.12833,-44.72472,"gass84","Collaea speciosa",724948,157.01985168457,182.303436279297,123.752380371094,1827.02355957031,333.060852050781,26.7655811309814,71.6549758911133,981.145141601562,87.4007949829102,836.398498535156,87.6537475585938,79,532.707885742188,2081.42749023438,222.454895019531,74.1791152954102,148.17741394043,178.300888061523,124.692916870117
"23","Collaea speciosa",1211323728,-15.91667,-47.89167,"gass84","Collaea speciosa",652982,214.831314086914,230.257583618164,193.385726928711,1548.87451171875,276.595489501953,6.15584230422974,77.5901031494141,781.505187988281,23.0425319671631,333.585083007812,23.0425319671631,80,576.169982910156,1141.93371582031,281.472503662109,142.091873168945,139.338088989258,218.093444824219,193.385726928711
"24","Collaea speciosa",1303588704,-21.6425,-43.66306,"gass84","Collaea speciosa",719129,205.231536865234,231.756942749023,172.91471862793,1567.21752929688,299.303741455078,17.9277973175049,75.8873519897461,876.470153808594,60.2154350280762,735.187133789062,60.5385513305664,78,522.585388183594,2054.52685546875,273.928527832031,124.87964630127,149.064178466797,226.387786865234,174.751373291016
"25","Collaea speciosa",1427529447,-20.3,-41.4,"gass84","Collaea speciosa",703604,195.98551940918,220.548004150391,168.679428100586,1325.939453125,236.640426635742,23.9518375396729,67.2284698486328,681.717895507812,80.2776184082031,454.224487304688,84.8175201416016,67.5516128540039,513.05078125,1858.05480957031,261.029479980469,129.433792114258,131.592071533203,208.71240234375,171.486312866211
"26","Collaea speciosa",1427529655,-20.29,-41.4937,"gass84","Collaea speciosa",703603,193.979339599609,218.59733581543,166.482223510742,1305.86059570312,244.546401977539,22.4616794586182,70.6602478027344,692.917236328125,74.3648223876953,458.199798583984,79.8382034301758,68.0816879272461,514.017333984375,1864.86254882812,259.474548339844,126.827545166016,132.666244506836,206.833847045898,169.460205078125
"27","Collaea speciosa",1915274327,-14.74556,-68.34917,"gass84","Collaea speciosa",638156,185.620910644531,199.078521728516,162.337921142578,1155.77355957031,174.724258422852,23.1179618835449,55.5539169311523,512.981079101562,74.752815246582,448.111083984375,74.752815246582,64.3693008422852,575.843383789062,1329.57666015625,231.387313842773,119.615531921387,111.787147521973,197.892532348633,162.337921142578
"28","Collaea speciosa",1423906488,-14.75528,-68.32944,"cdround,gass84","Collaea speciosa",639129,180.276748657227,193.799285888672,156.818130493164,1167.70654296875,176.868026733398,24.1775512695312,55.3820419311523,518.193298339844,78.1182327270508,450.669494628906,78.1182327270508,63.9468002319336,573.074462890625,1343.70385742188,226.000732421875,114.381362915039,111.614212036133,192.80322265625,156.818130493164
"29","Collaea speciosa",1424481594,-22.74972,-44.61361,"cdround,gass84","Collaea speciosa",731753,173.592895507812,200.340682983398,142.005355834961,1975.87390136719,333.93408203125,41.0655097961426,63.702766418457,973.24560546875,131.099731445312,900.791931152344,131.531021118164,69.6668319702148,502.292816162109,2074.6787109375,236.566207885742,97.8883590698242,138.636596679688,195.81071472168,142.779510498047
"30","Collaea speciosa",1423894382,-21.97556,-46.37056,"cdround,gass84","Collaea speciosa",722984,186.378952026367,208.344161987305,151.455490112305,1639.98901367188,283.429992675781,29.924919128418,66.7816543579102,845.453674316406,93.6998519897461,743.279296875,95.673225402832,81.2707290649414,555.976196289062,2064.69091796875,246.773666381836,100.274787902832,146.262191772461,205.080474853516,158.358764648438
"31","Collaea speciosa",1086917261,-22.52667,-45.26639,"gass84","Collaea speciosa",729801,164.796539306641,190.437683105469,131.058212280273,1569.57556152344,267.88330078125,31.3967475891113,65.0166397094727,796.855041503906,103.162666320801,707.111328125,103.78303527832,78.4915084838867,530.093627929688,2116.30712890625,229.85693359375,81.8774337768555,147.995483398438,186.576904296875,132.756942749023
"32","Collaea speciosa",1427529837,-22.4143,-45.3134,"gass84","Collaea speciosa",727857,175.17497253418,200.294784545898,141.347457885742,1473.14794921875,251.377593994141,26.4675045013428,65.6932067871094,744.731079101562,87.1739654541016,663.422241210938,87.87353515625,79.001106262207,534.283264160156,2096.91137695312,239.874801635742,91.6402359008789,148.009872436523,196.272583007812,142.889724731445
"33","Collaea speciosa",1258005093,-16.19222,-67.72361,"cdround,gass84","Collaea speciosa",655660,182.54753112793,198.093292236328,157.1845703125,1154.14892578125,187.807113647461,25.3738498687744,56.3553466796875,539.611145019531,77.3365325927734,443.369537353516,77.3365325927734,66.5054397583008,556.124877929688,1496.86047363281,232.300582885742,112.703750610352,119.54719543457,196.899932861328,157.1845703125
"34","Collaea speciosa",1844893459,-22.50167,-45.13611,"cdround,gass84","Collaea speciosa",729803,182.694641113281,208.671569824219,149.179290771484,1557.13989257812,256.013763427734,28.5257263183594,63.2467041015625,749.943298339844,92.1370010375977,652.280944824219,92.1684646606445,77.7441482543945,526.466491699219,2106.0205078125,248.072021484375,100.413307189941,147.883071899414,204.442291259766,149.317718505859
"35","Collaea speciosa",1086915815,-22.46444,-45.07944,"gass84","Collaea speciosa",728832,170.468231201172,196.194213867188,136.957321166992,1735.75012207031,296.564697265625,31.8087120056152,65.7490844726562,877.896179199219,102.910270690918,763.199096679688,103.090286254883,77.9108581542969,527.848327636719,2103.3623046875,235.690963745117,87.9835891723633,147.887786865234,192.128158569336,137.372467041016
"36","Collaea speciosa",1913598369,-24.58222,-50.25694,"gass84","Collaea speciosa",753069,179.689682006836,212.682632446289,137.152572631836,1547.81701660156,192.127639770508,74.1201782226562,25.2213611602783,549.068664550781,241.844543457031,524.037536621094,310.610443115234,80,505.374359130859,2796.18237304688,248.551116943359,90.5766983032227,158.021759033203,211.30615234375,146.723617553711
"37","Collaea speciosa",1324596790,-24.41861,-49.97111,"gass84","Collaea speciosa",752101,169.612411499023,202.436340332031,128.122116088867,1623.66015625,202.707382202148,75.552375793457,27.5456047058105,584.343933105469,239.708114624023,546.634460449219,289.830169677734,79.1095123291016,507.823059082031,2749.32836914062,237.913497924805,81.7244338989258,156.1328125,200.707092285156,136.945571899414
"38","Collaea speciosa",1829093339,-14.13064,-47.68733,"gass84","Collaea speciosa",631600,211.440383911133,227.592056274414,198.619995117188,1653.77026367188,329.8828125,3.44111943244934,84.4631576538086,929.219299316406,12.1673679351807,381.725616455078,12.1673679351807,78,574.246398925781,892.695922851562,282.734039306641,147.13200378418,135.605026245117,207.824722290039,198.619995117188
"39","Collaea speciosa",1095630905,-25.51611,-49.01389,"gass84","Collaea speciosa",764748,170.425277709961,207.51203918457,130.520721435547,1631.22778320312,223.430648803711,77.2307434082031,29.3704967498779,612.639038085938,256.416320800781,594.91796875,311.569793701172,70.1194610595703,456.826507568359,2827.49389648438,241.335693359375,87.7950592041016,153.509780883789,203.469512939453,135.663696289062
"40","Collaea speciosa",1086604659,-25.4283,-49.4843,"gass84","Collaea speciosa",763771,172.704833984375,209.362258911133,131.54557800293,1470.70544433594,191.138580322266,76.2918548583984,25.8425006866455,530.587463378906,250.41227722168,498.684204101562,290.443115234375,74.7506408691406,474.454803466797,2852.33715820312,244.448883056641,86.9378662109375,157.559341430664,205.962829589844,138.325927734375
"41","Collaea speciosa",1094926327,-15.37639,-47.46389,"gass84","Collaea speciosa",646183,219.828308105469,236.016387939453,199.206558227539,1776.70324707031,315.608795166016,6.74706935882568,80.2851943969727,931.002685546875,21.6850757598877,414.16259765625,21.6850757598877,80,568.276000976562,1112.04650878906,288.042633056641,147.471908569336,140.534439086914,222.076171875,199.206558227539
"42","Collaea speciosa",1089281215,-25.24853,-49.99203,"gass84","Collaea speciosa",760849,174.168182373047,209.908340454102,131.690460205078,1495.47045898438,177.853363037109,77.1834030151367,22.409553527832,504.343688964844,251.936019897461,502.584106445312,311.371307373047,78,488.245697021484,2875.86865234375,245.297485351562,85.8619995117188,159.398773193359,208.994094848633,139.971633911133
"43","Collaea speciosa",1077425378,-26.24833,-49.38639,"cdround,gass84","Collaea speciosa",772520,173.022445678711,211.574325561523,131.135284423828,1648.6123046875,197.456420898438,94.3249969482422,22.4955291748047,581.614440917969,313.616607666016,581.614440917969,377.280731201172,73.1014938354492,458.078277587891,2950.81884765625,247.056427001953,87.4873123168945,159.560913085938,211.574325561523,151.795272827148
"44","Collaea speciosa",1915274420,-14.69194,-69.05806,"gass84","Collaea speciosa",638148,73.1894683837891,86.9557113647461,49.5425910949707,1339.41259765625,220.5185546875,12.4126043319702,65.8064193725586,653.70556640625,47.0850715637207,526.552429199219,47.0850715637207,73.4851226806641,595.246765136719,1378.59631347656,122.79175567627,-0.72923344373703,123.474945068359,85.3423309326172,49.5425910949707
"45","Collaea speciosa",1257859878,-18.30444,-64.38861,"cdround,gass84","Collaea speciosa",680000,157.837158203125,178.998458862305,124.710693359375,629.109985351562,127.903823852539,7.0852746963501,81.6571884155273,361.609832763672,23.0193748474121,361.353363037109,23.0193748474121,70.3393783569336,528.370422363281,1987.58361816406,213.98860168457,80.8374252319336,133.118530273438,178.593353271484,124.710693359375
"46","Collaea speciosa",1089114818,-22.0914,-42.5227,"gass84","Collaea speciosa",724974,196.396209716797,223.950271606445,167.366668701172,1515.728515625,270.494201660156,31.795726776123,67.6266403198242,798.313659667969,97.1695022583008,626.268737792969,98.5525512695312,67.6383743286133,495.473754882812,2011.23559570312,262.502502441406,126.022323608398,136.541473388672,218.445434570312,169.084259033203
"47","Collaea speciosa",1077476476,-25.2555,-51.28281,"gass84","Collaea speciosa",761805,162.006942749023,197.718124389648,116.687805175781,1889.72509765625,202.827774047852,96.4046630859375,19.0382499694824,586.164001464844,319.533538818359,554.130554199219,392.407562255859,80.9918441772461,490.669830322266,3011.74389648438,234.600875854492,70.0204391479492,164.720703125,186.959228515625,126.778930664062
"48","Collaea speciosa",1424451169,-20,-41,"gass84","Collaea speciosa",700693,199.792053222656,223.31852722168,173.828521728516,1293.34741210938,246.109771728516,25.0768623352051,70.9453201293945,700.348510742188,86.6101455688477,443.841979980469,86.9157485961914,64.6438903808594,514.685363769531,1790.45642089844,262.011962890625,136.441970825195,125.570701599121,211.908508300781,175.328857421875
"49","Collaea speciosa",1135942168,-20.39713,-41.73517,"gass84","Collaea speciosa",704572,192.227447509766,217.152038574219,163.968688964844,1501.39367675781,281.496673583984,22.9037227630615,71.6518783569336,799.183959960938,80.371223449707,553.069641113281,83.5085525512695,69.3319396972656,513.659545898438,1889.13403320312,258.652618408203,123.453132629395,135.18701171875,205.366195678711,167.38525390625
"50","Collaea speciosa",1090162407,-25.76011,-49.36542,"gass84","Collaea speciosa",767660,172.133804321289,209.735397338867,130.869140625,1559.72277832031,194.951873779297,85.4246978759766,24.0765190124512,546.1904296875,282.551025390625,543.421325683594,331.375,73.5888214111328,465.315002441406,2892.18505859375,244.917907714844,86.7758483886719,158.172073364258,207.330322265625,137.122116088867
"51","Collaea speciosa",1089104874,-22.22435,-44.48932,"gass84","Collaea speciosa",725923,179.860229492188,206.138671875,146.853988647461,1692.69799804688,304.424224853516,24.1768646240234,71.7142105102539,893.381774902344,78.1276397705078,800.273071289062,78.1279220581055,77.9639205932617,524.868347167969,2090.41625976562,246.504119873047,98.0185241699219,148.274780273438,201.688201904297,146.854843139648
"52","Collaea speciosa",1424429581,-22.37889,-44.82583,"cdround,gass84","Collaea speciosa",727863,153.431900024414,179.323059082031,120.342636108398,1720.75329589844,313.756164550781,29.5306529998779,70.0297775268555,927.759704589844,95.92138671875,794.017883300781,96.7027130126953,77.4677047729492,526.330871582031,2100.46850585938,218.831466674805,71.6792755126953,147.168304443359,175.398300170898,121.716651916504
"53","Collaea speciosa",1087652730,-22.60897,-45.34633,"gass84","Collaea speciosa",730772,155.953170776367,181.771957397461,122.130989074707,1856.24743652344,315.882598876953,38.4127502441406,65.1527862548828,934.529357910156,123.879211425781,852.807250976562,124.912185668945,78.2215347290039,529.147766113281,2128.71313476562,220.964553833008,73.1309432983398,147.993850708008,177.953842163086,123.249732971191
"54","Collaea speciosa",1094902115,-22.58722,-45.315,"gass84","Collaea speciosa",730773,173.018859863281,198.939880371094,139.397094726562,1676.30053710938,272.01318359375,32.0629806518555,62.907527923584,801.91943359375,103.149192810059,719.58740234375,103.439064025879,77.9107131958008,527.392700195312,2119.72998046875,238.258865356445,90.4504776000977,147.993804931641,194.927215576172,140.095428466797
"55","Collaea speciosa",1077414764,-26.64,-51.66,"gass84","Collaea speciosa",777353,154.680221557617,194.046981811523,106.502914428711,1773.80151367188,188.492477416992,118.221664428711,14.2635374069214,528.932312011719,367.060943603516,524.493530273438,403.210083007812,79.9634628295898,465.152923583984,3257.99951171875,232.253051757812,60.8007431030273,171.429931640625,160.666717529297,121.328353881836
"56","Collaea speciosa",1585200242,-25.5527,-49.8071,"gass84","Collaea speciosa",764739,174.685836791992,211.358276367188,132.428283691406,1326.83557128906,155.389877319336,72.05712890625,21.1543426513672,441.640899658203,235.662902832031,432.705963134766,284.991607666016,76.4442749023438,478.918090820312,2899.80200195312,246.812713623047,87.1011276245117,159.90690612793,208.514083862305,140.055023193359
"57","Collaea speciosa",1086603855,-25.4651,-49.7677,"gass84","Collaea speciosa",763767,170.730697631836,207.281433105469,128.522476196289,1422.81384277344,168.041656494141,75.2767105102539,21.9576110839844,477.460174560547,246.407852172852,467.002380371094,299.745086669922,76.8396453857422,480.628265380859,2890.20288085938,242.578887939453,83.2342681884766,159.407287597656,204.589385986328,136.234588623047
"58","Collaea speciosa",1094927425,-22.41833,-43.27639,"gass84","Collaea speciosa",728853,185.034454345703,213.054046630859,154.571640014648,1636.40124511719,274.899261474609,36.4424095153809,60.8170204162598,812.31005859375,116.213432312012,682.835876464844,117.294189453125,69.930778503418,498.658020019531,2075.39379882812,251.447982788086,111.235786437988,140.211807250977,207.804550170898,155.860504150391
"59","Collaea speciosa",1095253170,-15.75833,-47.63555,"gass84","Collaea speciosa",651041,219.717071533203,235.555313110352,197.95295715332,1389.31713867188,249.025329589844,5.85691118240356,78.1957397460938,714.394714355469,20.0129909515381,305.809814453125,20.0129909515381,80,571.321960449219,1159.94567871094,286.777618408203,146.661056518555,139.997283935547,223.097213745117,197.95295715332
"60","Collaea speciosa",1913598323,-22.69056,-45.47533,"gass84","Collaea speciosa",731743,162.02278137207,187.987335205078,128.229034423828,1702.78552246094,287.905578613281,34.8093872070312,63.7858085632324,843.268859863281,110.619293212891,767.033203125,114.275932312012,77.9306259155273,527.656921386719,2135.06494140625,227.127258300781,79.4201736450195,147.890426635742,184.178680419922,131.309661865234
"61","Collaea speciosa",1213676228,-25.24194,-50.00806,"gass84","Collaea speciosa",760848,179.865570068359,215.604629516602,137.14143371582,1386.64733886719,162.648422241211,69.7906036376953,22.0441093444824,462.041442871094,229.081939697266,457.969055175781,288.599822998047,78.0303573608398,489.139953613281,2884.86767578125,251.053314208984,91.2049713134766,159.953887939453,213.854751586914,145.700119018555
"62","Collaea speciosa",1257709460,-15.133,-68.89142,"cdround,gass84","Collaea speciosa",643010,88.2851104736328,103.318740844727,62.6837387084961,970.550964355469,173.077651977539,9.59789562225342,68.3252716064453,486.67626953125,33.4928741455078,383.160278320312,33.4928741455078,76.5587005615234,582.795104980469,1489.10961914062,140.690139770508,9.28523254394531,131.386245727539,102.652786254883,62.6837387084961
"63","Collaea speciosa",1089112923,-22.19229,-42.31519,"gass84","Collaea speciosa",725949,201.446838378906,228.086318969727,174.454940795898,1528.84606933594,267.544647216797,41.7872123718262,61.6115379333496,769.343994140625,127.338111877441,604.182250976562,128.051712036133,59.394718170166,477.194366455078,1929.58642578125,262.363647460938,137.85334777832,124.47900390625,222.541091918945,175.224975585938
"64","Collaea speciosa",1077504359,-26.64028,-49.95056,"gass84","Collaea speciosa",777373,183.157363891602,222.215118408203,138.822738647461,1704.48132324219,192.518600463867,95.8996353149414,20.7640819549561,575.588073730469,324.663116455078,575.588073730469,377.373596191406,75,460.464569091797,3061.95092773438,257.888549804688,95.2194290161133,162.855117797852,222.215118408203,188.605117797852
"65","Collaea speciosa",1257698673,-14.79621,-69.03028,"cdround,gass84","Collaea speciosa",639120,66.9041137695312,80.9092483520508,42.7770156860352,1161.18725585938,193.957611083984,9.78683280944824,67.7837066650391,576.723266601562,37.2756690979004,470.272399902344,37.2756690979004,74.8522567749023,593.700622558594,1409.06677246094,117.363304138184,-8.6845531463623,126.078117370605,79.4705810546875,42.7770156860352
"66","Collaea speciosa",1257705700,-14.75556,-68.95703,"cdround,gass84","Collaea speciosa",639121,107.216636657715,121.272613525391,83.2337036132812,1195.82763671875,194.37109375,12.1153564453125,65.2346267700195,576.67138671875,43.8677673339844,457.162567138672,43.8677673339844,73.8033981323242,591.1103515625,1391.09045410156,157.423065185547,32.5843772888184,124.839767456055,119.186340332031,83.2337036132812
"67","Collaea speciosa",1077411413,-26.73222,-50.31278,"cdround,gass84","Collaea speciosa",778341,171.065490722656,210.406387329102,125.707717895508,1915.45812988281,226.377258300781,106.548370361328,22.5978202819824,669.023132324219,360.737976074219,669.023132324219,405.684326171875,75.8396072387695,461.678619384766,3117.64819335938,245.820602416992,81.8688659667969,163.941360473633,210.406387329102,167.76399230957
"68","Collaea speciosa",1077411419,-26.16528,-50.11056,"cdround,gass84","Collaea speciosa",771539,178.071258544922,215.994964599609,134.479446411133,1622.07092285156,178.415817260742,98.0382843017578,17.6437244415283,518.103210449219,318.612213134766,518.103210449219,377.148315429688,75.9979553222656,470.616088867188,2998.48120117188,251.449951171875,90.4441604614258,161,215.994964599609,167.706207275391
"69","Collaea speciosa",1077409643,-26.8175,-50.22333,"cdround,gass84","Collaea speciosa",779314,168.946258544922,208.446655273438,123.573364257812,1952.23071289062,231.93733215332,108.081649780273,22.1344432830811,684.364135742188,368.650573730469,684.364135742188,422.203277587891,75.3931503295898,459.802612304688,3122.40283203125,243.963821411133,79.8580017089844,164.0390625,208.446655273438,179.752532958984
"70","Collaea speciosa",1086912896,-24.04861,-49.11139,"gass84","Collaea speciosa",747251,193.860504150391,225.010375976562,154.454940795898,1388.81311035156,194.360305786133,61.3180770874023,35.9541549682617,563.666137695312,191.934692382812,519.53369140625,227.194030761719,79.4452285766602,519.785583496094,2594.25952148438,260.676727294922,107.801696777344,153,222.572540283203,162.766998291016
"71","Collaea speciosa",1424271728,-20.51944,-41.0875,"cdround,gass84","Collaea speciosa",706523,208.096572875977,232.735046386719,182.030136108398,1273.6640625,207.579528808594,31.8918571472168,56.4220390319824,603.014526367188,109.544021606445,399.900543212891,114.947128295898,61.6535682678223,497.527099609375,1831.20458984375,269.9228515625,146.006942749023,123.902435302734,220.304885864258,184.063079833984
"72","Collaea speciosa",1090161578,-26.01669,-51.35608,"gass84","Collaea speciosa",770552,177.159973144531,214.542434692383,130.594039916992,1597.990234375,165.748168945312,95.2881317138672,14.9659175872803,473.855560302734,303.62255859375,454.672088623047,355.11181640625,79,475.136199951172,3111.74243164062,251.927490234375,85.4501724243164,166.354202270508,175.569458007812,141.320709228516
"73","Collaea speciosa",1257666266,-14.74951,-68.94925,"cdround,gass84","Collaea speciosa",638149,102.984367370605,116.700576782227,79.420051574707,1320.55773925781,208.663970947266,14.7439613342285,62.9004669189453,622.254089355469,52.7491302490234,501.278900146484,52.7491302490234,72.4520797729492,592.785949707031,1366.7744140625,152.218017578125,29.97340965271,122.228569030762,114.770713806152,79.420051574707
"74","Collaea speciosa",1257610664,-14.61667,-68.66667,"cdround,gass84","Collaea speciosa",637180,192.431518554688,205.850845336914,169.316452026367,1143.06811523438,175.344451904297,19.7992382049561,58.1150207519531,516.354736328125,60.3319931030273,439.948760986328,60.3319931030273,67.7892456054688,585.206726074219,1311.77099609375,239.652084350586,123.84302520752,115.831695556641,203.680603027344,169.316452026367
"75","Collaea speciosa",1272061786,-15.92972,-48.08333,"gass84","Collaea speciosa",652980,210.612854003906,225.820388793945,189.81282043457,1508.34521484375,270.595062255859,6.4728889465332,78.1936569213867,767.272644042969,22.931884765625,323.077178955078,22.931884765625,80.6394119262695,579.252502441406,1111.33251953125,277.413665771484,138.318405151367,139.039260864258,213.426864624023,189.81282043457
"76","Collaea speciosa",1123830681,-25.48056,-49.64444,"gass84","Collaea speciosa",763769,173.589157104492,210.143280029297,131.942337036133,1543.34802246094,193.412139892578,84.7537078857422,23.7223625183105,540.039855957031,277.369781494141,520.720031738281,324.58837890625,75.8809051513672,477.933532714844,2869.66040039062,245.449569702148,86.8859252929688,158.594268798828,207.167587280273,139.217239379883
"77","Collaea speciosa",1077397693,-27.63,-49.5,"gass84","Collaea speciosa",789043,180.082229614258,221.267700195312,134.401153564453,1502.86120605469,174.814956665039,87.8798141479492,21.1063842773438,515.104614257812,275.898712158203,515.104614257812,353.251525878906,75.245475769043,447.047760009766,3168.17578125,258.150024414062,89.8777465820312,168.237442016602,221.267700195312,175.127487182617
"78","Collaea speciosa",1257624059,-12.96528,-72.61583,"cdround,gass84","Collaea speciosa",617693,163.633850097656,172.64973449707,146.108459472656,1240.34838867188,209.069595336914,21.9437637329102,65.0844573974609,617.625732421875,75.444221496582,492.149108886719,75.7101669311523,63.541561126709,609.2734375,972.364318847656,204.02131652832,99.7646102905273,104.220008850098,171.688598632812,147.868911743164
"79","Collaea speciosa",1257877477,-17.14389,-65.97361,"cdround,gass84","Collaea speciosa",666373,132.494583129883,148.965286254883,104.291923522949,1847.43884277344,325.102874755859,37.2294578552246,62.2610664367676,892.793273925781,113.885238647461,715.411926269531,113.885238647461,65.7611236572266,541.626831054688,1643.29504394531,181.099472045898,59.6807556152344,121.399154663086,148.311828613281,104.291923522949
"80","Collaea speciosa",1094861577,-21.9675,-42.0175,"gass84","Collaea speciosa",723036,218.137496948242,245.190216064453,191.063400268555,1243.84655761719,223.978363037109,29.7399253845215,62.3778915405273,625.438781738281,93.1510620117188,455.089202880859,101.177505493164,61.056468963623,479.833953857422,1938.203125,281.013488769531,153.790542602539,127.225166320801,234.868072509766,193.742111206055
"81","Collaea speciosa",1094861550,-22.27333,-42.54778,"gass84","Collaea speciosa",726918,183.045120239258,210.096969604492,154.954437255859,1839.80212402344,311.068328857422,47.7520561218262,61.2112274169922,914.440734863281,145.740219116211,749.110473632812,145.740219116211,63.755802154541,488.524444580078,1977.33508300781,246.253967285156,115.722267150879,130.535064697266,204.783157348633,154.954437255859
"82","Collaea speciosa",1257884580,-19.71139,-64.47694,"cdround,gass84","Collaea speciosa",696523,154.331954956055,179.740188598633,114.214744567871,694.573974609375,129.354995727539,4.59295034408569,81.1823043823242,378.375396728516,15.7492923736572,366.723937988281,15.7492923736572,93.3285675048828,540.047607421875,2406.74145507812,223.425704956055,50.5749206542969,172.843154907227,176.629837036133,114.214744567871
"83","Collaea speciosa",1077471956,-25.49142,-48.99667,"gass84","Collaea speciosa",763777,171.277923583984,208.132507324219,131.772964477539,1974.20690917969,275.823211669922,89.1803741455078,35.1090507507324,763.818481445312,283.482269287109,759.98095703125,313.802825927734,69.0549240112305,454.442504882812,2807.64721679688,241.48095703125,89.6504898071289,151.892822265625,206.419052124023,136.175720214844
"84","Collaea speciosa",1095338213,-25.47667,-49.88417,"gass84","Collaea speciosa",763766,175.367385864258,211.838897705078,132.837829589844,1386.27160644531,162.394882202148,75.3019485473633,20.454273223877,459.260467529297,249.080200195312,451.841125488281,312.305206298828,77.0014724731445,481.668243408203,2899.07202148438,247.265472412109,87.4565505981445,159.986755371094,209.303344726562,140.801818847656
"85","Collaea speciosa",1424290060,-22.70944,-45.94472,"cdround,gass84","Collaea speciosa",731737,160.846160888672,186.225311279297,126.496925354004,1680.01965332031,278.557556152344,36.3234443664551,60.9906806945801,826.791931152344,115.697555541992,758.939086914062,127.188209533691,78.6200332641602,533.767395019531,2144.87719726562,224.865661621094,77.5143737792969,147.074661254883,182.733123779297,134.407577514648
"86","Collaea speciosa",1090517527,-25.44083,-49.06278,"gass84,txmatfuz","Collaea speciosa",763776,170.183166503906,207.054565429688,130.372772216797,1596.30517578125,219.670654296875,75.8109588623047,29.0796318054199,601.204895019531,253.138793945312,582.791442871094,313.279418945312,70.4737014770508,459.373138427734,2816.3310546875,240.959976196289,87.5500411987305,153.405212402344,203.152465820312,135.645416259766
"87","Collaea speciosa",1077389984,-28.03472,-50.84972,"cdround,gass84","Collaea speciosa",793886,171.647888183594,214.156204223633,121.647735595703,1570.37072753906,158.027496337891,98.5768051147461,13.7300758361816,462.589080810547,300.746643066406,462.571350097656,403.249481201172,78.4140243530273,447.959167480469,3401.76953125,251.690292358398,76.5541915893555,175.217407226562,213.730911254883,186.58283996582
"88","Collaea speciosa",1095329352,-25.01917,-49.07444,"gass84","Collaea speciosa",758916,167.376403808594,202.977081298828,127.800788879395,1603.35083007812,227.787963867188,74.9652938842773,32.6410751342773,627.173645019531,243.957366943359,604.529113769531,294.499908447266,72.5512466430664,474.453796386719,2758.55932617188,237.126281738281,84.1777496337891,153.017593383789,199.400680541992,133.602584838867
"89","Collaea speciosa",1095329690,-25.56056,-50.12278,"gass84","Collaea speciosa",764735,178.564163208008,215.172180175781,135.349395751953,1556.791015625,177.739456176758,85.454963684082,19.7527656555176,504.694091796875,278.826934814453,500.885925292969,336.723846435547,77.7322235107422,482.413513183594,2936.0439453125,250.730255126953,89.818473815918,161,213.878479003906,143.892791748047
"90","Collaea speciosa",1260906036,-12.97944,-72.03583,"cdround,gass84","Collaea speciosa",617700,88.3993530273438,98.1414260864258,70.0648574829102,1282.43383789062,219.229034423828,28.565465927124,63.2734603881836,635.163269042969,90.9903335571289,610.006652832031,90.9903335571289,63.9145622253418,608.763671875,1026.2275390625,128.119659423828,23.0452690124512,105.106323242188,97.6516647338867,70.0648574829102
"91","Collaea speciosa",1089098730,-20.2413,-41.50022,"gass84","Collaea speciosa",702630,207.750427246094,232.619552612305,179.73681640625,1265.3193359375,261.344848632812,18.440975189209,77.2379150390625,724.022277832031,61.5644721984863,469.874389648438,64.2463989257812,68.9986953735352,513.64990234375,1879.74169921875,273.890808105469,139.690292358398,134.256301879883,220.604949951172,182.651794433594
"92","Collaea speciosa",1086906446,-22.66389,-45.44972,"gass84","Collaea speciosa",730771,164.980667114258,190.656799316406,131.079681396484,1676.62194824219,300.691253662109,36.6083984375,66.7459030151367,881.955139160156,117.254539489746,806.330932617188,121.257011413574,78.4915008544922,530.209289550781,2126.7431640625,229.914794921875,81.9354095458984,147.995544433594,186.823272705078,134.516662597656
"93","Collaea speciosa",1260907719,-10.64722,-75.505,"gass84","Collaea speciosa",590442,136.851135253906,144.462295532227,120.842391967773,1664.84606933594,249.913482666016,39.1618003845215,51.135009765625,728.770446777344,133.931732177734,660.214782714844,133.931732177734,68.5228805541992,641.701477050781,873.151306152344,180.302841186523,73.4708633422852,106.902549743652,144.112197875977,120.842391967773
"94","Collaea speciosa",1087679938,-10.77306,-37.35583,"gass84","Collaea speciosa",592844,252.527282714844,266.119415283203,232.947296142578,1351.15979003906,227.372024536133,44.5152816772461,58.0484733581543,631.377136230469,134.510116577148,261.783355712891,432.395721435547,54.4216156005859,586.551574707031,1241.765625,299.50244140625,206.717346191406,92.8105926513672,249.949142456055,264.777435302734
"95","Collaea speciosa",1913570083,-26.13447,-49.80603,"gass84","Collaea speciosa",771543,177.272689819336,215.360595703125,134.366394042969,1484.77124023438,166.874496459961,85.6123504638672,19.2318439483643,488.646911621094,288.943328857422,488.646911621094,335.263275146484,75.0077514648438,467.842010498047,2970.6337890625,251.104888916016,90.2092132568359,161,215.360595703125,170.218887329102
"96","Collaea speciosa",1257859577,-17.08583,-66.82222,"cdround,gass84","Collaea speciosa",666363,113.074172973633,131.00390625,83.7064514160156,959.254821777344,199.300018310547,12.6063365936279,79.3237609863281,551.055969238281,38.3457069396973,380.520812988281,38.3457069396973,76.1341094970703,553.634521484375,1732.07653808594,168.98844909668,31.4973335266113,137.479522705078,128.559341430664,83.7064514160156
"97","Collaea speciosa",1089085461,-22.86,-46.29,"gass84","Collaea speciosa",733677,185.972808837891,211.683929443359,151.53466796875,1637.81994628906,263.750213623047,41.2051544189453,56.1769256591797,770.906311035156,126.264266967773,711.84228515625,145.24348449707,77.5602111816406,530.94140625,2157.66015625,249.565872192383,103.455978393555,146.104965209961,207.946746826172,159.493591308594
"98","Collaea speciosa",1424475532,-22.69306,-45.59056,"cdround,gass84","Collaea speciosa",731741,163.280899047852,189.091918945312,129.287780761719,1636.78466796875,280.274383544922,35.0472526550293,63.379467010498,825.096496582031,113.744689941406,761.292846679688,117.450721740723,78.274787902832,529.848815917969,2138.091796875,228.125427246094,80.3791809082031,147.954727172852,185.350234985352,133.922805786133
"99","Collaea speciosa",1260461459,-15.18194,-68.95028,"cdround,gass84","Collaea speciosa",643981,75.1302490234375,90.3615951538086,49.1248435974121,1137.04064941406,210.740447998047,10.1188926696777,70.6814727783203,587.669921875,36.3166275024414,440.198547363281,36.3166275024414,78.1736526489258,582.702575683594,1511.90087890625,128.461196899414,-5.64959239959717,134.124893188477,89.8716430664062,49.1248435974121
"100","Collaea speciosa",1095329722,-27.70083,-49.34667,"gass84","Collaea speciosa",790016,173.148315429688,214.40705871582,127.872863769531,1555.3447265625,185.177612304688,88.2699661254883,22.8752555847168,549.729431152344,276.553466796875,549.729431152344,352.46630859375,73.7501449584961,442.533233642578,3154.26879882812,250.632461547852,84.0221176147461,166.660903930664,214.40705871582,163.693878173828
"101","Collaea speciosa",1095329783,-26.335,-52.11694,"gass84","Collaea speciosa",774431,169.659255981445,208.838485717773,121.191375732422,2034.06774902344,213.396697998047,126.306610107422,14.0189485549927,597.417602539062,402.690826416016,547.707092285156,477.11376953125,81.123046875,470.993347167969,3255.72412109375,247.36604309082,74.8094253540039,172.550094604492,167.874374389648,132.299575805664
"102","Collaea speciosa",1260495184,-13.1,-72.26666,"gass84","Collaea speciosa",619641,53.5949096679688,63.750617980957,34.8363647460938,1426.93579101562,257.622406005859,22.0104198455811,71.5135116577148,763.134094238281,70.0129776000977,712.392211914062,70.0129776000977,65.528678894043,604.276245117188,1060.39221191406,94.5165176391602,-13.8997430801392,108.417518615723,63.3432083129883,34.8363647460938
"103","Collaea speciosa",1260118302,-15.20777,-68.81972,"gass84","Collaea speciosa",643983,129.06787109375,144.276763916016,103.373443603516,969.515075683594,172.976913452148,10.6725416183472,67.227409362793,484.949066162109,36.6159515380859,369.016967773438,36.6159515380859,76.0784225463867,578.5673828125,1482.91918945312,181.719512939453,50.1673164367676,131.499816894531,143.197341918945,103.373443603516
"104","Collaea speciosa",1260496424,-13.08333,-72.38333,"gass84","Collaea speciosa",618668,94.1281814575195,103.809844970703,75.9779968261719,1452.23461914062,253.598648071289,24.3747081756592,67.8099517822266,754.485473632812,80.3031997680664,682.051086425781,80.3031997680664,64.5574417114258,607.120361328125,1021.33911132812,134.579925537109,28.3443832397461,106.268074035645,103.152587890625,75.9779968261719
"105","Collaea speciosa",1260496756,-12.5,-71.58333,"gass84","Collaea speciosa",612846,212.363006591797,221.486053466797,194.449432373047,1541.84509277344,212.032485961914,60.625617980957,42.1186027526855,617.830383300781,189.343231201172,483.038238525391,189.343231201172,62.6844711303711,611.627990722656,954.273681640625,253.425811767578,151.212677001953,102.278480529785,219.288757324219,194.449432373047
"106","Collaea speciosa",1090694983,-21.86222,-44.11194,"gass84","Collaea speciosa",722039,184.577911376953,210.525360107422,151.720169067383,1625.46105957031,296.112915039062,20.3640823364258,72.7586517333984,868.234558105469,68.4330291748047,761.686584472656,68.995491027832,79,528.450744628906,2067.60302734375,251.957595825195,102.655311584473,149.209320068359,205.852172851562,153.434753417969
"107","Collaea speciosa",1260768618,-18.98917,-64.29361,"cdround,gass84","Collaea speciosa",687777,164.589065551758,188.026260375977,128.742874145508,733.905151367188,153.241989135742,5.29624557495117,86.7670974731445,435.448913574219,16.520622253418,429.66015625,16.520622253418,80.2791976928711,533.936401367188,2167.85620117188,227.697677612305,77.3798217773438,150.36213684082,185.559127807617,128.742874145508
"108","Collaea speciosa",1260768591,-19.01722,-64.28694,"gass84","Collaea speciosa",688749,193.841644287109,217.385864257812,157.745162963867,613.812438964844,125.584266662598,5.61530590057373,83.3873901367188,355.532836914062,17.3549709320068,354.238525390625,17.3549709320068,79.334114074707,530.1337890625,2176.8076171875,257.212493896484,107.582725524902,149.668334960938,216.070846557617,157.745162963867
"109","Collaea speciosa",1260743593,-12.90861,-72.8125,"gass84","Collaea speciosa",616719,141.2373046875,149.992965698242,124.259643554688,1552.10168457031,250.221832275391,28.5351104736328,62.639820098877,747.755004882812,96.9501419067383,665.035949707031,97.1167297363281,62.6161918640137,614.841491699219,953.431396484375,180.804443359375,78.9049377441406,101.917388916016,149.386795043945,125.10432434082
"110","Collaea speciosa",1424102611,-22.27306,-42.46417,"cdround,gass84,muluriiv","Collaea speciosa",726919,186.053939819336,212.796585083008,158.491394042969,1840.39990234375,314.258361816406,49.7148590087891,61.1339797973633,921.524291992188,152.194366455078,748.460510253906,152.194366455078,61.5600547790527,483.415069580078,1953.80432128906,247.80632019043,120.559577941895,127.331565856934,207.430191040039,158.491394042969
"111","Collaea speciosa",1260717308,-19.4225,-64.19333,"gass84","Collaea speciosa",693610,149.157119750977,174.876693725586,110.027603149414,745.038635253906,148.091751098633,6.86866331100464,81.721061706543,420.067474365234,21.7673110961914,419.919128417969,21.7673110961914,85.8898773193359,528.041748046875,2370.63940429688,216.691177368164,54.0268478393555,162.65380859375,174.500091552734,110.027603149414
"112","Collaea speciosa",1260717337,-20.32916,-64.04194,"gass84","Collaea speciosa",703332,178.98876953125,209.007446289062,134.125015258789,896.034851074219,176.735748291016,6.59585952758789,85.410026550293,508.369598388672,22.7892608642578,508.348937988281,23.8772525787354,89.4034957885742,504.286102294922,2729.02563476562,252.815078735352,75.6323394775391,177.221084594727,208.958435058594,141.08610534668
"113","Collaea speciosa",1123805925,-19.74139,-40.98111,"gass84","Collaea speciosa",696805,221.82275390625,245.405151367188,195.254272460938,1137.93518066406,215.740081787109,20.539005279541,73.4952087402344,624.286804199219,66.8379516601562,385.380004882812,66.8400268554688,66.8924560546875,519.661743164062,1804.25659179688,285.410247802734,156.699722290039,128.707321166992,234.033966064453,195.260498046875
"114","Collaea speciosa",1260084635,-13.00527,-72.63527,"gass84","Collaea speciosa",618665,158.847625732422,168.157028198242,140.824600219727,1249.82995605469,215.800552368164,19.7306976318359,68.2433090209961,639.699645996094,66.0676193237305,495.453063964844,66.0676193237305,64.5425033569336,604.936828613281,1000.86383056641,200.203384399414,93.4962539672852,106.653778076172,167.191482543945,140.838348388672
"115","Collaea speciosa",1086664868,-24.16667,-49.65,"gass84","Collaea speciosa",749189,184.887832641602,216.581924438477,144.384368896484,1471.01171875,207.269485473633,66.8344345092773,33.8656539916992,596.265747070312,211.802673339844,534.076477050781,262.342590332031,79.3251800537109,515.182556152344,2663.91552734375,252.102294921875,97.9506607055664,154,214.594161987305,153.275543212891
"116","Collaea speciosa",1260093559,-12.91027,-72.83694,"gass84","Collaea speciosa",616718,120.613807678223,129.504653930664,103.656707763672,1931.78540039062,310.037200927734,35.5688171386719,62.2484436035156,926.249877929688,119.551292419434,862.560302734375,119.553375244141,62.7583618164062,615.544189453125,963.304260253906,160.194793701172,58.2488136291504,102.016777038574,129.07536315918,103.712043762207
"117","Collaea speciosa",1087241728,-14.16333,-47.59306,"gass84","Collaea speciosa",631601,208.68603515625,224.72998046875,195.646957397461,1503.05725097656,285.611145019531,3.65471863746643,81.1731338500977,801.012817382812,12.7031135559082,375.201171875,12.7031135559082,78,574.906555175781,888.613952636719,279.785736083984,144.117568969727,135.611587524414,205.880935668945,195.646957397461
"118","Collaea speciosa",1260081410,-13.49277,-70.89694,"elmms,gass84","Collaea speciosa",623546,169.308151245117,180.628570556641,147.239242553711,5004.8486328125,783.687072753906,228.837005615234,44.9100570678711,2180.5888671875,692.552978515625,1706.0595703125,700.442504882812,64.373046875,576.291076660156,1199.80322265625,211.247039794922,99.4937973022461,111.902099609375,180.172836303711,151.330581665039
"119","Collaea speciosa",1090733540,-25.14306,-48.19389,"gass84","Collaea speciosa",759898,213.316680908203,248.878601074219,177.049041748047,2133.90966796875,318.800476074219,76.1080703735352,44.1612586975098,907.700378417969,242.751281738281,907.659118652344,283.301086425781,52.9830322265625,400.938690185547,2660.67407226562,275.138214111328,143.025314331055,132.154022216797,248.866806030273,179.201721191406
"120","Collaea speciosa",1260569041,-21.42527,-64.22277,"gass84","Collaea speciosa",716938,165.407501220703,200.826202392578,114.048973083496,1010.19317626953,212.501327514648,2.45101237297058,93.7439346313477,612.190612792969,10.4281873703003,612.190612792969,10.4281873703003,94.1352615356445,483.736206054688,3161.62744140625,245.258865356445,50.5845565795898,194.676483154297,200.826202392578,114.048973083496
"121","Collaea speciosa",1259157584,-14.56083,-68.33444,"gass84","Collaea speciosa",636212,165.034637451172,177.972091674805,142.4248046875,1362.52453613281,203.057815551758,28.5265331268311,54.5459175109863,597.524353027344,93.9197158813477,525.276672363281,93.9197158813477,63.0204887390137,580.725402832031,1291.10607910156,209.571472167969,101.006767272949,108.510192871094,177.010467529297,142.4248046875
"122","Collaea speciosa",1259497542,-13.05,-72.93333,"cdround,gass84","Collaea speciosa",618661,94.9416351318359,104.698997497559,77.0504989624023,1435.06945800781,238.645950317383,22.7988338470459,66.5067977905273,710.82666015625,74.9838562011719,660.283203125,74.9838562011719,65.1759872436523,608.765563964844,1027.94787597656,136.736602783203,29.6648292541504,107.076614379883,104.30638885498,77.0504989624023
"123","Collaea speciosa",1259495835,-13.15,-72.51666,"gass84","Collaea speciosa",619638,129.677307128906,139.412948608398,111.160415649414,1165.015625,205.75080871582,17.6305656433105,70.6896286010742,611.980224609375,57.8459892272949,509.386993408203,57.8459892272949,65.536735534668,601.938659667969,1034.64306640625,171.61994934082,62.736629486084,108.855506896973,138.513076782227,111.160415649414
"124","Collaea speciosa",1316181310,-30.00917,-51.30667,"gass84","Collaea speciosa",817209,201.602478027344,249.429107666016,148.792037963867,1324,135.559967041016,85.3399810791016,14.6559991836548,403.948944091797,276.503387451172,318.122985839844,392.839141845703,73.3405990600586,412.000732421875,3675.19409179688,284.675323486328,106.653167724609,178.009887695312,156.344879150391,228.499404907227
"125","Collaea speciosa",1423990009,-21.70306,-43.94167,"cdround,gass84,muluriiv","Collaea speciosa",720097,187.266906738281,213.093795776367,154.715789794922,1469.73327636719,280.035705566406,16.7170372009277,75.7110748291016,822.360290527344,57.1335372924805,695.335144042969,58.4784507751465,78.9093780517578,528.402893066406,2049.51538085938,254.62922668457,105.878303527832,148.845260620117,208.244186401367,158.882217407227
"126","Collaea speciosa",1259001147,-14.5,-68.23277,"gass84","Collaea speciosa",636214,166.275924682617,179.085510253906,143.662078857422,1680.45727539062,247.194488525391,36.8314247131348,54.7899017333984,729.510986328125,123.8662109375,630.828063964844,123.8662109375,61.7173004150391,578.034423828125,1285.59606933594,210.198303222656,103.448265075684,106.841239929199,177.129852294922,143.662078857422
"127","Collaea speciosa",1318996200,-16.1316,-68.1085,"gass84","Collaea speciosa",654683,81.3624954223633,97.9683380126953,54.0267066955566,1141.7861328125,230.072036743164,12.3191967010498,75.2648391723633,635.049194335938,39.6744270324707,546.750610351562,39.6744270324707,75.2457885742188,565.410949707031,1634.34875488281,135.369003295898,2.23625922203064,133.100769042969,97.7580184936523,54.0267066955566
"128","Collaea speciosa",1259124807,-14.51138,-68.25472,"gass84","Collaea speciosa",636213,157.65641784668,170.53483581543,135.11003112793,1552.92663574219,228.968460083008,33.3333320617676,54.4087524414062,673.82421875,111.00365447998,589.254821777344,111.00365447998,62.3443717956543,579.8251953125,1289.65368652344,201.777053833008,94.3054656982422,107.480430603027,169.320831298828,135.11003112793
"129","Collaea speciosa",1423984534,-22.25222,-44.68528,"cdround,gass84","Collaea speciosa",726892,151.968246459961,177.719573974609,118.871536254883,1827.00732421875,342.192199707031,29.8577575683594,72.2828140258789,1001.59838867188,96.4226226806641,875.369689941406,96.9043807983398,77.9203033447266,527.738952636719,2096.60595703125,217.511795043945,69.9191055297852,147.58903503418,173.808547973633,119.956100463867
"130","Collaea speciosa",1423984531,-22.24583,-44.69722,"cdround,gass84","Collaea speciosa",725920,161.662338256836,187.308517456055,128.499557495117,1765.02136230469,312.497772216797,26.4673728942871,70.4815368652344,921.888671875,84.4149169921875,812.611633300781,84.4400253295898,78.5822982788086,530.066955566406,2088.57250976562,227.351089477539,79.1597900390625,148.091354370117,183.238052368164,128.63117980957
"131","Collaea speciosa",1089116479,-22.4323,-46.0007,"gass84","Collaea speciosa",728820,193.052749633789,217.191818237305,158.46484375,1568.41760253906,251.595947265625,29.1629161834717,61.6961517333984,746.520874023438,95.6457672119141,685.287719726562,96.4190826416016,79.9385681152344,541.542419433594,2103.77294921875,256.02685546875,108.843353271484,147,213.458343505859,160.43864440918
"132","Collaea speciosa",1090566198,-22.7553,-46.1447,"gass84","Collaea speciosa",732707,177.799255371094,203.349304199219,143.485931396484,1551.25939941406,265.964233398438,36.143238067627,60.1985321044922,774.072998046875,111.898536682129,714.969543457031,135.138244628906,78.1874847412109,532.491638183594,2148.00634765625,241.645751953125,94.9171524047852,146.865325927734,199.649322509766,151.379058837891
"133","Collaea speciosa",1123795266,-19.89778,-40.81472,"gass84","Collaea speciosa",698751,224.579681396484,248.112121582031,198.921234130859,1152.22729492188,202.204116821289,26.5268363952637,65.4919128417969,589.711853027344,89.1404495239258,377.077667236328,94.4823532104492,63.1907157897949,510.961364746094,1781.53735351562,286.096466064453,162.375503540039,123.714263916016,236.392074584961,203.685577392578
"134","Collaea speciosa",1258965349,-17.85138,-64.25111,"gass84","Collaea speciosa",675141,155.6181640625,175.604827880859,123.059761047363,848.193786621094,156.574600219727,15.550986289978,70.6982650756836,449.415863037109,50.8090171813965,449.09228515625,50.8090171813965,65.1213607788086,519.921020507812,1930.31420898438,208.605728149414,83.3338317871094,125.255653381348,175.428039550781,123.059761047363
"135","Collaea speciosa",1915274438,-15.86667,-68.11667,"gass84","Collaea speciosa",651767,138.961700439453,154.577850341797,113.055778503418,1343.1689453125,244.842803955078,19.3434352874756,66.7816314697266,685.779907226562,61.9288330078125,529.787536621094,61.9288330078125,70.9205169677734,564.244506835938,1521.95397949219,190.116439819336,64.4673614501953,125.673637390137,153.675247192383,113.055778503418
"136","Collaea speciosa",1123795645,-20.60361,-41.18472,"gass84","Collaea speciosa",707494,239.465240478516,265.278259277344,212.756805419922,1238.18481445312,202.347961425781,30.1178321838379,57.0408477783203,590.903259277344,103.810134887695,386.445556640625,108.109252929688,62.5464134216309,492.275115966797,1882.47839355469,303.140533447266,176.109359741211,127.046760559082,251.900726318359,215.015228271484
"137","Collaea speciosa",1089116454,-22.42,-45.56,"gass84","Collaea speciosa",728826,197.433868408203,222.414291381836,163.229598999023,1473.84350585938,257.883178710938,28.7990474700928,66.1725158691406,761.308044433594,95.0417404174805,690.910217285156,96.0964813232422,79.0518951416016,535.060424804688,2098.18701171875,261.835418701172,113.674812316895,148,218.260726928711,166.100936889648
"138","Collaea speciosa",1090572120,-23.6564,-47.2225,"gass84","Collaea speciosa",742414,185.893768310547,215.674118041992,150.755828857422,1505.39489746094,236.260559082031,48.311408996582,47.4670829772949,676.59814453125,151.634735107422,616.294677734375,181.50373840332,71.9235610961914,501.400451660156,2360.94360351562,249.589385986328,106.130950927734,143.409362792969,211.808059692383,156.200164794922
"139","Collaea speciosa",1928850907,-16.08,-68.05,"gass84","Collaea speciosa",653712,137.699798583984,153.637115478516,111.44709777832,1120.73315429688,207.811492919922,16.8035297393799,67.6461334228516,581.277954101562,52.3403167724609,448.880828857422,52.3403167724609,71.5586547851562,562.804382324219,1549.94299316406,189.693435668945,62.5273132324219,127.132995605469,152.85693359375,111.44709777832
"140","Collaea speciosa",1316183925,-20.1767,-43.5,"gass84","Collaea speciosa",702607,206.080596923828,229.129272460938,175.036376953125,1691.21911621094,386.329193115234,13.9406499862671,86.9327697753906,1017.63305664062,43.5098037719727,752.005798339844,43.5098037719727,75.3436508178711,531.139831542969,1889.56286621094,270.847564697266,128.878402709961,141.835556030273,219.147109985352,175.036376953125
"141","Collaea speciosa",1929819314,-20.52462,-43.6919,"cdrep","Collaea speciosa",706492,196.667877197266,219.58740234375,165.286834716797,1286.65734863281,270.778045654297,11.7101640701294,82.5659332275391,759.789672851562,37.7773971557617,578.645080566406,37.7773971557617,76.4482116699219,535.575317382812,1904.23693847656,260.742065429688,117.951812744141,142.872009277344,214.638214111328,165.286834716797
"142","Collaea speciosa",1094848674,-16.23333,-67.8,"gass84","Collaea speciosa",655659,178.658172607422,194.497665405273,152.859756469727,1047.22131347656,187.678451538086,18.2320976257324,64.8408813476562,529.330749511719,55.2319602966309,410.653778076172,55.2319602966309,68.4349365234375,557.667846679688,1518.63903808594,229.53547668457,106.83863067627,122.676574707031,193.227478027344,152.859756469727
"143","Collaea speciosa",1675903917,-16.33,-67.83,"gass84","Collaea speciosa",656631,140.407348632812,156.674652099609,114.000068664551,1297.34814453125,235.564224243164,21.1518688201904,66.0590286254883,663.598266601562,64.4252777099609,514.599731445312,64.4252777099609,70.1954650878906,558.553283691406,1574.70764160156,192.330200195312,66.6678848266602,125.654472351074,155.931854248047,114.000068664551
"144","Collaea speciosa",1086599830,-24.574,-50.2388,"gass84","Collaea speciosa",753070,171.344497680664,204.43766784668,129.037338256836,1633.21435546875,202.048233032227,78.5525283813477,25.4202861785889,578.387390136719,254.706756591797,553.159118652344,322.020751953125,79.9994812011719,505.588958740234,2791.69604492188,240.181427001953,82.4545440673828,157.887496948242,202.961380004883,138.274490356445
"145","Collaea speciosa",1930250825,-24.23,-49.68,"gass84","Collaea speciosa",749188,186.331451416016,217.951904296875,145.662811279297,1524.94091796875,208.599761962891,70.5470199584961,32.6438522338867,601.690856933594,221.02734375,547.965637207031,263.252532958984,79.5727386474609,515.096374511719,2670.57055664062,253.65461730957,99.0960388183594,154.392715454102,216.075393676758,154.649459838867
"146","Collaea speciosa",1424416450,-22.25,-44.56667,"cdround,gass84","Collaea speciosa",726894,177.140487670898,203.375854492188,144.204116821289,1808.71130371094,302.252899169922,25.7414398193359,68.5356826782227,893.590148925781,80.3125305175781,802.619018554688,80.3407592773438,77.2281723022461,523.307983398438,2092.9794921875,243.327041625977,95.7265014648438,147.730911254883,198.956741333008,144.248016357422
"147","Collaea speciosa",1260565419,-17.23333,-65.81667,"cdround,gass84","Collaea speciosa",667347,135.081558227539,151.656600952148,106.573341369629,1723.13537597656,310.298156738281,30.9442195892334,66.9211196899414,867.069519042969,96.1969680786133,677.705200195312,96.1969680786133,65.5269012451172,539.909423828125,1655.61975097656,183.564514160156,62.1594123840332,121.367286682129,149.859268188477,106.573341369629
"148","Collaea speciosa",1413712482,-21.34139,-46.72028,"gass84","Collaea speciosa",716176,207.946334838867,227.8466796875,173.1572265625,1373.9521484375,253.773132324219,19.9418201446533,69.84423828125,733.769897460938,64.5930862426758,609.886779785156,70.1161193847656,83.6283493041992,557.462036132812,2009.18493652344,269.719512939453,119.890800476074,149.904251098633,224.603454589844,185.286407470703
"149","Collaea speciosa",1087359575,-21.84972,-46.72028,"gass84","Collaea speciosa",722008,185.563934326172,207.037872314453,150.463836669922,1646.24426269531,279.151184082031,30.1475963592529,64.0055313110352,819.794006347656,96.521598815918,713.643676757812,100.985656738281,82,561.222595214844,2066.31372070312,245.231582641602,98.709846496582,146.466674804688,203.99104309082,159.99348449707
"150","Collaea speciosa",1915274460,-16.98333,-64.30389,"gass84","Collaea speciosa",664449,249.38444519043,268.007415771484,216.391052246094,2303.75244140625,365.919494628906,68.0518417358398,53.0787582397461,1072.43737792969,228.071029663086,590.708129882812,233.394058227539,65.0345001220703,497.971038818359,1848.63781738281,307.120422363281,176.446975708008,130.702392578125,264.611846923828,229.392883300781
"151","Collaea speciosa",1423985837,-24.16667,-49.25,"cdround,gass84","Collaea speciosa",749194,178.080459594727,210.055725097656,138.495376586914,1570.34167480469,225.441696166992,72.8080139160156,35.3293533325195,649.295959472656,227.573516845703,578.426574707031,272.172546386719,78.4753265380859,513.063232421875,2635.6083984375,245.382598876953,92.344596862793,153,207.626861572266,146.313522338867
"152","Collaea speciosa",1413712410,-23.9,-46.77444,"gass84","Collaea speciosa",745335,192.892349243164,221.798919677734,161.126205444336,1570.31640625,249.80891418457,50.7387199401855,48.2474517822266,694.715698242188,157.082061767578,676.510803222656,180.059829711914,56.7845115661621,453.156921386719,2205.28784179688,249.986099243164,124.691871643066,125.266639709473,217.171005249023,164.643630981445
"153","Collaea speciosa",1089040873,-23.54,-46.4628,"gass84","Collaea speciosa",741451,193.85986328125,222.363220214844,161.887893676758,1599.44372558594,263.453887939453,51.1108436584473,51.1747360229492,729.579650878906,157.074340820312,716.378967285156,178.31282043457,59.2275543212891,463.686187744141,2189.40649414062,251.801422119141,124.094062805176,127.700736999512,217.782043457031,165.916717529297
"154","Collaea speciosa",1089039428,-24.64,-49.1758,"gass84","Collaea speciosa",754054,195.975692749023,229.574554443359,156.113067626953,1448.71325683594,189.286712646484,72.3651351928711,31.0405807495117,550.06982421875,221.049835205078,507.486053466797,236.736511230469,75.9231796264648,495.409057617188,2692.82055664062,264.408843994141,111.241989135742,153.020843505859,226.620819091797,163.458541870117
"155","Collaea speciosa",1260566068,-16.25,-68.11666,"gass84","Collaea speciosa",656627,25.7091045379639,43.700496673584,-2.94188380241394,949.43310546875,194.947875976562,9.60346984863281,75.9790954589844,536.689697265625,30.9236240386963,536.689697265625,30.9236240386963,78.8400115966797,566.6923828125,1744.45239257812,81.9859390258789,-57.1108207702637,139.102951049805,43.700496673584,-2.94188380241394
"156","Collaea speciosa",1089072789,-15.52,-47.51,"gass84","Collaea speciosa",648126,213.16862487793,228.821853637695,192.165054321289,1514.74731445312,272.924774169922,6.42811727523804,80.0671081542969,807.40478515625,19.8736381530762,341.554290771484,19.8736381530762,80,571.360290527344,1120.51281738281,280.437225341797,140.621994018555,139.98957824707,216.037017822266,192.165054321289
"157","Collaea speciosa",1272055372,-15.53333,-47.85,"gass84","Collaea speciosa",648122,227.78352355957,244.056594848633,207.738693237305,1486.46130371094,262.503723144531,5.90997791290283,79.9798049926758,781.047668457031,18.5462799072266,330.100921630859,18.5462799072266,80,571.362243652344,1093.90283203125,296.476104736328,156.120544433594,140.304840087891,229.303741455078,207.738693237305
"158","Collaea speciosa",1087719458,-22.56667,-47.55,"gass84","Collaea speciosa",729774,215.671920776367,239.2548828125,179.068267822266,1363.3564453125,239.172637939453,28.9521446228027,62.1062126159668,686.937133789062,88.5427703857422,627.580200195312,103.79158782959,83,557.683349609375,2201.537109375,276.84375,127.454971313477,149.227905273438,236.258895874023,190.082000732422
"159","Collaea speciosa",1261910355,-13.08333,-71.16666,"gass84","Collaea speciosa",618683,219.508270263672,230.462371826172,198.149322509766,3380.82202148438,490.622650146484,158.480178833008,38.3923683166504,1350.67907714844,483.708709716797,1020.35565185547,483.708709716797,64,584.616821289062,1148.47290039062,261.04931640625,151.55908203125,109.447143554688,229.831344604492,198.149322509766
"160","Collaea speciosa",1261904816,-13.41666,-70.9,"gass84","Collaea speciosa",622574,178.339569091797,189.660171508789,156.064407348633,3723.85009765625,587.380798339844,164.123168945312,46.1025466918945,1633.38562011719,499.676361083984,1285.90539550781,502.642639160156,64.9987335205078,574.938232421875,1208.27197265625,220.661727905273,107.735778808594,112.965286254883,189.259384155273,158.835327148438
"161","Collaea speciosa",1440662775,-20.73333,-42.46667,"cdround,gass84","Collaea speciosa",708451,189.209106445312,214.596878051758,159.316696166992,1339.88134765625,255.316970825195,19.1642837524414,71.6367568969727,710.189331054688,62.7331924438477,507.633483886719,63.3436088562012,72,513.897094726562,1945.41430664062,256.652923583984,116.247673034668,140.388946533203,202.965774536133,160.634048461914
"162","Collaea speciosa",1123788938,-20.40389,-41.01917,"gass84","Collaea speciosa",704580,187.159362792969,210.869689941406,161.451126098633,1467.33862304688,248.924789428711,33.6183090209961,60.9484596252441,720.2724609375,118.352752685547,485.498382568359,119.465538024902,62.1027641296387,505.60791015625,1792.96594238281,248.166320800781,125.356056213379,122.803321838379,199.23258972168,163.794860839844
"163","Collaea speciosa",1258260006,-16.65,-67.33333,"gass84","Collaea speciosa",660525,165.369262695312,181.953475952148,138.722747802734,1024.30102539062,189.91828918457,18.5222816467285,65.9554214477539,529.860107421875,56.6309852600098,396.958892822266,56.6309852600098,68.9441833496094,553.151184082031,1589.28442382812,217.28369140625,92.6554641723633,124.640426635742,180.86637878418,138.722747802734
"164","Collaea speciosa",1258266540,-16.7,-67.33333,"gass84","Collaea speciosa",661497,162.243041992188,178.627670288086,135.829956054688,1043.86645507812,190.450454711914,19.5188961029053,64.5772705078125,532.905517578125,59.6548690795898,404.051971435547,59.6548690795898,67.7425308227539,552.477233886719,1577.23034667969,213.257537841797,90.6020889282227,122.629043579102,177.682678222656,135.829956054688
"165","Collaea speciosa",1213597914,-20.46667,-43.68333,"gass84","Collaea speciosa",705520,192.56086730957,215.256561279297,161.289001464844,1430.22155761719,315.306243896484,12.4736480712891,85.503791809082,870.091369628906,40.0475158691406,651.3271484375,40.1249771118164,76.5918655395508,537.020080566406,1893.74011230469,256.407745361328,113.911239624023,142.467330932617,210.348739624023,161.843765258789
"166","Collaea speciosa",1087227876,-15.88333,-47.93333,"gass84","Collaea speciosa",652009,215.423126220703,230.905090332031,194.533050537109,1481.3388671875,255.757675170898,6.58132028579712,76.6155090332031,730.870788574219,22.8468723297119,329.494293212891,22.8468723297119,80,576.829711914062,1116.78308105469,282.526489257812,143.203048706055,139.277740478516,218.226821899414,194.533050537109
"167","Collaea speciosa",1931337278,-16.95,-67.1,"gass84","Collaea speciosa",664415,119.649688720703,137.645126342773,90.418701171875,858.683776855469,179.402893066406,9.79173469543457,78.8436584472656,491.487518310547,30.9353580474854,344.963928222656,30.9353580474854,76.5868911743164,555.256286621094,1739.79992675781,176.447570800781,38.4783668518066,137.898773193359,136.466293334961,90.418701171875
"168","Collaea speciosa",1258262881,-16.98333,-67.23333,"gass84","Collaea speciosa",664414,89.5105133056641,107.841873168945,59.7887382507324,948.297424316406,203.123840332031,10.0951108932495,81.2008666992188,553.630432128906,32.3894958496094,427.635192871094,32.3894958496094,78.0800857543945,556.628234863281,1787.921875,147.236328125,7.00739479064941,140.229675292969,107.101219177246,59.7887382507324
"169","Collaea speciosa",1261543994,-16.33333,-67.91666,"gass84","Collaea speciosa",656630,109.759674072266,126.334030151367,82.7823028564453,1302.25952148438,240.874328613281,18.8401565551758,67.5527725219727,677.253356933594,58.3757934570312,549.425964355469,58.3757934570312,72.2560043334961,560.529968261719,1618.07995605469,162.733627319336,33.7555465698242,128.89323425293,125.958976745605,82.7823028564453
"170","Collaea speciosa",1139254507,-16.33333,-67.91667,"","Collaea speciosa",656629,71.6017684936523,88.6801986694336,44.1027526855469,1282.05932617188,249.014099121094,15.0240602493286,72.1864395141602,694.271789550781,47.5859489440918,641.219665527344,47.5859489440918,74.431282043457,562.780212402344,1667.78967285156,125.573936462402,-6.70228385925293,132.22509765625,88.5886840820312,44.1027526855469
"171","Collaea speciosa",1228511158,-17.5,-61.5,"gass84","Collaea speciosa",671287,247.314971923828,269.001983642578,211.320861816406,1030.98352050781,162.42594909668,23.7359733581543,54.0412483215332,464.919372558594,83.4773254394531,294.219757080078,87.1606140136719,77,501.309173583984,2120.63256835938,316.881866455078,163.317153930664,153.573181152344,265.980407714844,225.781753540039
"172","Collaea speciosa",1258263740,-16.86666,-67.11666,"gass84","Collaea speciosa",663443,133.311233520508,150.786834716797,104.841682434082,817.134155273438,159.360382080078,12.5037574768066,70.8959045410156,440.662902832031,38.61328125,321.253204345703,38.61328125,73.9159393310547,554.303466796875,1691.10693359375,188.28581237793,54.9117012023926,133.37971496582,149.968795776367,104.841682434082
"173","Collaea speciosa",1087265333,-15.86667,-47.85,"gass84","Collaea speciosa",652010,215.968536376953,231.515014648438,194.845169067383,1490.64770507812,265.208526611328,6.10315370559692,78.05224609375,752.121704101562,21.6922225952148,321.612579345703,21.6922225952148,80,575.673217773438,1130.24096679688,282.969024658203,143.54573059082,139.488189697266,219.005432128906,194.845169067383
"174","Collaea speciosa",1261901163,-13,-70,"gass84","Collaea speciosa",618697,253.095123291016,262.587524414062,233.660888671875,4943.421875,713.852478027344,208.14485168457,42.9661674499512,2043.55578613281,627.4228515625,1348.42346191406,646.032409667969,59.5942153930664,583.182250976562,1008.65850830078,294.4873046875,192.357315063477,102.132202148438,260.794281005859,240.72966003418
"175","Collaea speciosa",1936412635,-13.2167,-71.65,"gass84","Collaea speciosa",620621,96.0194778442383,107.077453613281,75.2898712158203,1106.88037109375,200.385955810547,23.3293399810791,67.8583755493164,557.773498535156,77.0015029907227,552.194091796875,77.2717895507812,66.1381912231445,588.819274902344,1155.28625488281,137.966812133789,25.5418643951416,112.421653747559,106.59912109375,78.2519378662109
"176","Collaea speciosa",1042653753,-16.1,-68,"gass84,gdativ","Collaea speciosa",654685,137.954650878906,153.981018066406,111.684432983398,1226.30444335938,223.513656616211,18.9882907867432,66.0235061645508,628.379821777344,58.5335540771484,491.217498779297,58.5335540771484,70.9737701416016,561.3583984375,1557.02868652344,189.785308837891,63.3869743347168,126.426933288574,153.198867797852,111.684432983398
"177","Collaea speciosa",1261546814,-16.1,-68.06666,"gass84","Collaea speciosa",654684,105.521438598633,121.865646362305,78.7745895385742,1230.51013183594,235.564880371094,16.621639251709,70.5622329711914,655.783386230469,51.9797668457031,524.711853027344,51.9797668457031,73.1018905639648,563.464477539062,1598.46728515625,158.430633544922,28.7014865875244,129.712966918945,121.424247741699,78.7745895385742
"178","Collaea speciosa",1261828159,-13.08333,-72.45,"gass84","Collaea speciosa",618667,118.194869995117,127.683143615723,100.078285217285,1356.80493164062,234.606506347656,22.872486114502,67.3709182739258,699.902648925781,76.1792373657227,610.703979492188,76.1792373657227,64.5392150878906,606.4326171875,1012.38580322266,158.950485229492,52.6487464904785,106.318023681641,126.932029724121,100.078285217285
"179","Collaea speciosa",1930778256,-22.50885,-43.17847,"cdrep","Collaea speciosa",729826,211.505355834961,239.755126953125,181.663619995117,1410.67956542969,221.991775512695,36.3506126403809,55.0975227355957,658.339477539062,113.940315246582,550.432006835938,114.607063293457,66.5123062133789,488.323089599609,2055.94506835938,276.501129150391,140.298416137695,136.217712402344,234.02392578125,182.625915527344
"180","Collaea speciosa",1930585077,-14.13,-69.53,"gass84","Collaea speciosa",631338,124.51513671875,135.896728515625,103.86840057373,1319.10314941406,210.05793762207,23.2421283721924,61.308780670166,623.6015625,75.1044845581055,502.320129394531,75.1044845581055,66.8330612182617,604.410705566406,1160.09533691406,168.888122558594,58.3134994506836,110.559638977051,133.981887817383,103.86840057373
"181","Collaea speciosa",1261541738,-10.21666,-75.55,"gass84","Collaea speciosa",585582,168.628936767578,175.389541625977,153.401000976562,2342.14477539062,323.090454101562,74.0157089233398,47.4664649963379,948.689331054688,227.129302978516,883.855285644531,227.197509765625,68.0693817138672,641.165893554688,810.656372070312,212.657150268555,106.554870605469,106.111404418945,174.869384765625,153.460083007812
"182","Collaea speciosa",1261541712,-11.25,-75.53333,"gass84","Collaea speciosa",598218,103.996070861816,111.837837219238,87.9736862182617,1169.11254882812,162.029525756836,35.574764251709,46.2320365905762,473.538635253906,108.755172729492,462.259796142578,108.755172729492,69.3912582397461,645.167785644531,876.036804199219,146.998794555664,39.4416923522949,107.526412963867,111.705917358398,87.9736862182617
"183","Collaea speciosa",1261542234,-10.75,-74.38333,"gass84","Collaea speciosa",592400,201.422988891602,207.804046630859,188.308563232422,1960.4482421875,279.359893798828,67.2830200195312,48.7355422973633,815.369812011719,206.651443481445,537.292419433594,214.269195556641,59,612.109191894531,647.306030273438,243.770736694336,147.230041503906,96.5872268676758,204.461807250977,193.236434936523
"184","Collaea speciosa",1089108941,-21.56364,-41.59293,"gass84","Collaea speciosa",718181,241.218078613281,268.746002197266,213.709182739258,1086.09985351562,203.234420776367,22.2480201721191,65.984977722168,574.038940429688,70.9622039794922,375.120361328125,80.6902847290039,64.1040191650391,485.775512695312,1962.10070800781,307.274108886719,175.298980712891,131.932144165039,254.009979248047,216.495040893555
"185","Collaea speciosa",1261890839,-13.16666,-71.41666,"gass84","Collaea speciosa",619652,176.818862915039,187.791976928711,155.562789916992,2153.45336914062,344.216552734375,80.6857604980469,49.9012451171875,948.346313476562,246.878540039062,735.948974609375,246.989486694336,64.9648895263672,584.511962890625,1156.51794433594,218.662841796875,107.368858337402,111.243797302246,187.437606811523,156.151718139648
"186","Collaea speciosa",1228526413,-12.5,-72.5,"gass84","Collaea speciosa",612835,145.626983642578,152.990127563477,130.207794189453,1698.740234375,261.82763671875,37.9281997680664,54.1102867126465,777.550964355469,134.718139648438,632.480834960938,140.086044311523,60.0231552124023,630.874328613281,838.558410644531,183.09049987793,88.0180892944336,95.1196975708008,152.207412719727,137.065963745117
"187","Collaea speciosa",1675923980,-25,-49.33,"gass84","Collaea speciosa",758913,185.484786987305,220.715515136719,145.244079589844,1409.00500488281,196.454315185547,68.6028823852539,29.2616329193115,540.567565917969,226.516403198242,510.349609375,279.272125244141,74.4465789794922,481.547882080078,2768.2783203125,255.473907470703,100.869575500488,154.697204589844,217.485702514648,152.107284545898
"188","Collaea speciosa",1087500001,-22.75139,-45.5,"gass84","Collaea speciosa",732715,195.219116210938,221.556442260742,161.550872802734,1541.10583496094,236.709701538086,28.4682846069336,60.8737640380859,701.918212890625,90.6498947143555,644.295532226562,91.0475234985352,77.241340637207,523.890258789062,2126.67797851562,260.639617919922,113.226356506348,147.345642089844,217.178817749023,162.064453125
"189","Collaea speciosa",1260568995,-11.25,-75.5,"gass84","Collaea speciosa",598219,96.1781005859375,104.115493774414,80.0608596801758,1620.95202636719,221.517028808594,52.9498710632324,44.1213836669922,642.270629882812,162.922332763672,627.773132324219,162.922332763672,68.2556381225586,643.611999511719,883.9462890625,138.304290771484,32.2740287780762,106.055145263672,103.94686126709,80.0608596801758
"190","Collaea speciosa",1087264082,-15.4528,-47.6142,"gass84","Collaea speciosa",647153,219.274963378906,235.293350219727,198.799926757812,1327.26049804688,238.807357788086,5.34402465820312,80.3067779541016,713.524047851562,17.045316696167,296.002685546875,17.045316696167,80,570.441772460938,1103.55078125,287.339477539062,147.104049682617,140.106857299805,221.422775268555,198.799926757812
"191","Collaea speciosa",1095191079,-15.48333,-47.55,"gass84","Collaea speciosa",647154,214.093688964844,229.962341308594,193.450454711914,1466.12805175781,265.869598388672,5.78259086608887,80.7515335083008,789.948608398438,18.4502296447754,329.686676025391,18.4502296447754,80,570.938232421875,1107.45520019531,281.813201904297,141.842468261719,140.003784179688,216.627517700195,193.450454711914
"192","Collaea speciosa",1258766089,-9.58333,-76.08333,"gass84","Collaea speciosa",577800,185.679016113281,191.920211791992,171.307571411133,2181.05053710938,285.918365478516,77.0942153930664,41.4786682128906,821.449096679688,238.554061889648,815.743103027344,259.714050292969,70.0006713867188,649.73974609375,745.574890136719,230.526275634766,122.913879394531,107.52165222168,191.653015136719,174.333465576172
"193","Collaea speciosa",1259471038,-12.81666,-72.78333,"gass84","Collaea speciosa",615747,146.088531494141,154.430755615234,129.569000244141,1904.34362792969,303.541137695312,36.8640060424805,59.5971412658691,904.924926757812,129.27165222168,774.446105957031,131.966751098633,61.7173042297363,619.480285644531,923.870300292969,184.81950378418,85.100471496582,99.6564559936523,153.832153320312,134.220016479492
"194","Collaea speciosa",1261542087,-11.36666,-75.7,"gass84","Collaea speciosa",599188,86.5851745605469,94.2757186889648,71.1965560913086,770.256042480469,115.020278930664,16.6603183746338,54.4457015991211,341.111633300781,51.6711540222168,340.582916259766,51.6711540222168,71.8384094238281,652.505187988281,834.89599609375,131.154373168945,21.0499153137207,110.10343170166,94.2540893554688,71.1965560913086
"195","Collaea speciosa",1228465145,-10.5667,-75.4,"gass84","Collaea speciosa",589472,143.641586303711,150.911987304688,128.090408325195,1724.38354492188,256.941436767578,46.8562126159668,50.7504577636719,749.702819824219,160.406097412109,695.71484375,160.406097412109,66.5781402587891,638.382873535156,838.003845214844,186.511978149414,82.101676940918,104.350929260254,150.363021850586,128.090408325195
"196","Collaea speciosa",1042653551,-16.3,-67,"elmms,gass84,gdativ","Collaea speciosa",656641,176.145629882812,190.696166992188,151.753967285156,1592.91638183594,258.08349609375,41.4079818725586,54.7387809753418,738.54833984375,127.514671325684,599.953430175781,127.514671325684,58.4910621643066,547.953735351562,1442.57861328125,221.076797485352,114.311347961426,106.74275970459,189.763214111328,151.753967285156
"197","Collaea speciosa",1261542782,-10.58333,-75.5,"gass84","Collaea speciosa",589471,161.716369628906,169.088851928711,145.831359863281,1465.05041503906,217.173431396484,36.8030624389648,51.3704948425293,637.399353027344,125.282135009766,595.309997558594,125.282135009766,67.4859848022461,637.413269042969,854.418273925781,205.224456787109,99.3021011352539,105.937683105469,168.505981445312,145.831359863281
"198","Collaea speciosa",1261862494,-11.66666,-75.75,"gass84","Collaea speciosa",602104,61.1377716064453,68.783317565918,46.1631011962891,720.012268066406,119.371765136719,8.22501277923584,67.6050567626953,353.994659423828,25.5589580535889,353.857940673828,25.5589580535889,72.5234756469727,656.635314941406,801.281799316406,105.888664245605,-4.54404354095459,110.432723999023,68.7504196166992,46.1631011962891
"199","Collaea speciosa",1086931242,-21.08389,-46.56472,"gass84","Collaea speciosa",713262,197.357879638672,217.128341674805,162.829772949219,1455.57189941406,263.398651123047,17.8192691802979,71.9253158569336,783.804077148438,58.6401519775391,669.83349609375,62.1981163024902,84,559.14599609375,1984.53344726562,259.019866943359,108.974563598633,150.026412963867,213.917938232422,174.628311157227
"200","Collaea speciosa",1088996515,-21.502,-46.3353,"gass84","Collaea speciosa",718124,207.023712158203,227.799713134766,172.184310913086,1437.36010742188,249.159561157227,21.0532665252686,69.0522003173828,742.683349609375,67.2077407836914,658.643188476562,70.4176177978516,82.5671997070312,559.544982910156,2023.31384277344,267.244354248047,119.790084838867,147.500564575195,224.304794311523,181.924041748047
"201","Collaea speciosa",1424067429,-22.7,-45.38333,"cdround,gass84","Collaea speciosa",731744,175.320220947266,201.386108398438,141.582412719727,1697.35180664062,266.179412841797,31.4304752349854,61.9184379577637,781.705078125,99.2989501953125,713.677551269531,99.9715270996094,77.6505737304688,526.045776367188,2127.17846679688,240.625518798828,92.9562606811523,147.89111328125,197.313095092773,142.086685180664
"202","Collaea speciosa",1259456152,-16.33333,-67.63333,"gass84","Collaea speciosa",656633,183.258636474609,198.931304931641,157.786071777344,1001.67700195312,169.859832763672,20.5980415344238,59.4074478149414,482.838165283203,62.8685417175293,385.625640869141,62.8685417175293,66.4246368408203,554.985595703125,1506.98571777344,233.154647827148,113.507110595703,119.632850646973,197.797103881836,157.786071777344
"203","Collaea speciosa",1228384679,-9.5,-75.8333,"gass84","Collaea speciosa",577803,157.789260864258,163.770614624023,144.028717041016,3216.12231445312,416.734893798828,107.12003326416,41.7505111694336,1216.55187988281,340.555053710938,1216.43920898438,393.402252197266,68.1380310058594,645.010681152344,714.261901855469,202.737686157227,96.9571151733398,105.761665344238,163.768646240234,146.822189331055
"204","Collaea speciosa",1088985914,-21.7179,-44.3123,"gass84","Collaea speciosa",720093,194.566024780273,219.607360839844,161.623977661133,1360.96472167969,259.893493652344,16.4853038787842,75.4532165527344,769.017639160156,57.160213470459,638.516052246094,57.8418846130371,79,533.124816894531,2035.29016113281,260.611846923828,112.246185302734,148.265640258789,214.949844360352,164.66618347168
"205","Collaea speciosa",1260564921,-13.66194,-70.47888,"gass84","Collaea speciosa",625495,131.328414916992,142.403396606445,109.543464660645,4860.3935546875,764.331665039062,172.726989746094,51.9042587280273,2183.958984375,525.3291015625,1867.09094238281,536.633239746094,64.7995529174805,581.346130371094,1193.34252929688,173.459045410156,62.0090827941895,111.453422546387,141.466735839844,116.16242980957
"206","Collaea speciosa",1930449854,-24.11416,-49.3406,"cdrep","Collaea speciosa",748220,192.874160766602,224.17301940918,152.951568603516,1398.16918945312,197.433242797852,63.2355651855469,35.3778686523438,575.990356445312,197.927398681641,507.211242675781,239.355346679688,79.3528823852539,517.9033203125,2625.94873046875,259.725830078125,106.42066192627,153.012283325195,222.049301147461,161.609298706055
"207","Collaea speciosa",1928502028,-23.07386,-44.95999,"cdrep","Collaea speciosa",735637,192.141387939453,219.201812744141,160.70866394043,1429.98754882812,223.254699707031,37.2028770446777,55.3493232727051,658.235961914062,117.947387695312,600.824584960938,118.734451293945,67.4502868652344,494.609100341797,2079.85302734375,254.224182128906,117.861198425293,136.371368408203,214.460067749023,161.607620239258
"208","Collaea speciosa",1930266390,-20.09879,-43.48811,"cdround","Collaea speciosa",701635,187.014404296875,209.520172119141,156.160461425781,1815.48669433594,419.494018554688,14.3673458099365,87.5610961914062,1099.88940429688,45.1386222839355,813.335266113281,45.1637496948242,75.8788223266602,535.809509277344,1873.41271972656,251.095733642578,109.646987915039,141.394180297852,200.149795532227,156.336349487305
"209","Collaea speciosa",1930226705,-25.31073,-49.29013,"","Collaea speciosa",761829,167.785171508789,203.970809936523,127.275688171387,1543.01391601562,209.056121826172,75.0399017333984,28.6240158081055,577.046875,246.526153564453,537.568054199219,290.182006835938,73.771598815918,474.165832519531,2813.96704101562,238.652694702148,83.0874633789062,155.632934570312,200.558975219727,133.603622436523
"210","Collaea speciosa",1090548605,-22.9056,-47.0608,"gass84","Collaea speciosa",733668,209.699447631836,235.208572387695,173.826263427734,1356.50842285156,238.751815795898,34.1811408996582,59.8037757873535,684.854675292969,103.55216217041,617.244262695312,122.629753112793,80.9612350463867,542.667846679688,2219.27172851562,272.905944824219,123.8154296875,149.093048095703,231.66845703125,183.176742553711
"211","Collaea speciosa",1929773930,-15.68745,-47.81771,"","Collaea speciosa",650067,214.952484130859,230.513153076172,194.110153198242,1483.01281738281,247.631774902344,7.03694486618042,75.8918762207031,725.850952148438,22.4322452545166,342.572387695312,22.4322452545166,80,574.407287597656,1114.97082519531,282.244201660156,142.658248901367,139.643280029297,217.609252929688,194.110153198242
"212","Collaea speciosa",1928982294,-15.5916,-47.71872,"","Collaea speciosa",649096,219.034744262695,234.851409912109,198.171722412109,1472.52490234375,260.606506347656,6.52617788314819,79.2749252319336,768.692077636719,19.8585109710693,324.954284667969,19.8585109710693,80,572.046142578125,1119.13903808594,286.648010253906,146.595367431641,139.83869934082,221.559188842773,198.171722412109
"213","Collaea speciosa",1928447747,-15.66041,-47.8167,"","Collaea speciosa",649095,214.559555053711,230.214553833008,194.055999755859,1632.12243652344,291.16943359375,6.96977758407593,80.0517044067383,859.270202636719,21.4230251312256,353.151336669922,21.4230251312256,80,574.272888183594,1100.93627929688,282.104034423828,142.516357421875,139.563934326172,216.938720703125,194.055999755859
"214","Collaea speciosa",1928975100,-24.50119,-48.23777,"","Collaea speciosa",753094,219.237503051758,253.380523681641,182.027908325195,1653.52563476562,245.726196289062,66.1862335205078,42.1467552185059,679.461975097656,206.739837646484,677.974975585938,233.190567016602,68.6476745605469,469.795593261719,2614.55151367188,286.121307373047,140.032272338867,146.095687866211,252.050689697266,186.763046264648
"215","Collaea speciosa",1675856862,-25.38,-50.13,"gass84","Collaea speciosa",762791,180.076156616211,216.234237670898,136.939605712891,1605.32653808594,185.520355224609,85.1259536743164,21.2835483551025,528.961120605469,276.039489746094,527.51953125,332.248077392578,78,486.059844970703,2916.33642578125,251.701248168945,91.1372833251953,160.753799438477,215.529983520508,145.595840454102
"216","Collaea speciosa",1261482000,-10,-76.2,"gass84","Collaea speciosa",583630,128.302276611328,135.111480712891,114.087448120117,802.481689453125,113.700889587402,17.6298046112061,54.7336502075195,337.860412597656,53.9575653076172,324.998352050781,53.9575653076172,73.5105133056641,669.309020996094,764.453735351562,173.156112670898,63.3419952392578,109.88452911377,134.966735839844,114.087448120117
"217","Collaea speciosa",1927953573,-15.7833,-47.73004,"","Collaea speciosa",651040,222.053588867188,237.939086914062,200.458679199219,1329.484375,239.083831787109,5.55743646621704,79.1209182739258,684.234985351562,18.6642513275146,286.547943115234,18.6642513275146,80,571.755676269531,1150.57214355469,289.311553955078,149.207809448242,139.942443847656,225.109817504883,200.458679199219
"218","Collaea speciosa",1258418419,-9.91666,-76.23333,"gass84","Collaea speciosa",581686,144.255447387695,150.854721069336,129.972793579102,810.4248046875,114.546058654785,21.4631404876709,51.2806358337402,340.31298828125,66.0522003173828,327.121704101562,66.0522003173828,72.6259384155273,665.5146484375,763.600646972656,188.90592956543,79.803596496582,109.130012512207,150.801086425781,129.972793579102
"219","Collaea speciosa",1087229375,-22.8,-45.61667,"gass84","Collaea speciosa",732713,175.460296630859,201.545745849609,141.544631958008,1526.19140625,250.522491455078,31.3836650848389,61.1516075134277,738.380065917969,101.299995422363,673.840393066406,106.097969055176,77.5862045288086,526.595764160156,2139.47705078125,240.440093994141,93.0801315307617,147.320877075195,197.612197875977,146.289810180664
"220","Collaea speciosa",1930685590,-15.78342,-47.92987,"cdrep","Collaea speciosa",651037,215.161575317383,230.694976806641,194.58528137207,1483.42224121094,247.378646850586,7.15378904342651,75.2078399658203,715.029541015625,23.641809463501,342.463012695312,23.641809463501,80,576.6455078125,1103.35998535156,282.502563476562,143.19743347168,139.198425292969,217.656997680664,194.58528137207
"221","Collaea speciosa",1260568874,-9.53333,-75.61666,"gass84","Collaea speciosa",577805,181.448043823242,187.204620361328,167.987350463867,3234.50805664062,388.951812744141,113.490646362305,37.1274337768555,1146.04846191406,370.584259033203,1091.06896972656,444.786254882812,67.0076599121094,637.677856445312,689.429870605469,227.018753051758,121.914665222168,105.095916748047,186.337951660156,171.171310424805
"222","Collaea speciosa",1931224480,-25.77359,-49.71623,"cdrep","Collaea speciosa",767656,174.968963623047,212.37060546875,132.708358764648,1468.50390625,171.925827026367,81.8848190307617,22.309684753418,491.148834228516,265.142883300781,487.274475097656,305.967010498047,75.8545379638672,472.795379638672,2922.07299804688,247.94645690918,87.9199905395508,159.992126464844,209.789428710938,140.071533203125
"223","Collaea speciosa",1931103511,-23.02972,-44.68455,"","Collaea speciosa",735640,209.286575317383,236.380142211914,179.279296875,2070.94409179688,286.008056640625,55.3960227966309,49.9655151367188,839.8955078125,168.765548706055,792.742736816406,168.765548706055,61.2863578796387,476.494262695312,2030.05969238281,268.581390380859,140.013259887695,128.601013183594,231.815765380859,179.279296875
"224","Collaea speciosa",1138817052,-19.83333,-64.41667,"","Collaea speciosa",697495,144.719680786133,170.708450317383,103.980102539062,782.034301757812,139.941253662109,5.34150266647339,79.0802459716797,414.570037841797,18.6371765136719,404.7421875,18.6371765136719,94.2942504882812,538.823425292969,2450.55249023438,214.466293334961,39.4674224853516,174.974349975586,167.567825317383,103.980102539062
"225","Collaea speciosa",1931223169,-23.62797,-46.66049,"","Collaea speciosa",742421,192.480133056641,221.530212402344,160.310501098633,1632.68688964844,259.520690917969,52.0238609313965,48.6283073425293,724.149230957031,161.028884887695,706.913513183594,185.760375976562,58.3728713989258,458.934295654297,2221.92797851562,250.257965087891,123.012069702148,127.206909179688,216.903472900391,164.035797119141
"226","Collaea speciosa",1931037445,-19.98961,-43.84691,"cdrep","Collaea speciosa",699686,207.623138427734,228.94563293457,176.136245727539,1536.34716796875,334.391265869141,11.8842353820801,87.0128479003906,921.862060546875,36.0261573791504,684.770690917969,38.6633377075195,78.1608657836914,546.320129394531,1853.54235839844,270.592102050781,127.250297546387,143.198959350586,223.845932006836,184.197479248047
"227","Collaea speciosa",1929260027,-23.37467,-46.7408,"","Collaea speciosa",739504,192.791259765625,220.884429931641,158.997192382812,1342.79711914062,219.903930664062,37.4256553649902,53.7605285644531,626.8017578125,116.551460266113,601.804138183594,141.249237060547,69.3922805786133,499.840179443359,2229.84350585938,254.382553100586,115.606460571289,138.777160644531,216.743896484375,164.911529541016
"228","Collaea speciosa",1929875483,-22.49995,-44.56336,"cdrep","Collaea speciosa",728838,215.79817199707,242.739700317383,183.155746459961,1602.474609375,266.180847167969,24.4431838989258,67.4858627319336,783.522644042969,75.8232040405273,714.960998535156,75.8232040405273,74.6934661865234,513.47509765625,2085.21118164062,281.775329589844,136.258163452148,145.427642822266,237.691070556641,183.155746459961
"229","Collaea speciosa",1090536830,-20.2875,-43.5081,"gass84","Collaea speciosa",703578,191.659957885742,214.381423950195,160.546951293945,1631.3193359375,351.759796142578,13.6709575653076,83.6888656616211,937.860290527344,43.2432518005371,734.707458496094,43.2432518005371,75.9973297119141,535.035339355469,1886.36291503906,255.754959106445,113.804222106934,141.951889038086,205.924118041992,160.546951293945
"230","Collaea speciosa",1090533382,-25.095,-50.1619,"gass84","Collaea speciosa",759875,181.174087524414,216.495742797852,138.183990478516,1374.46105957031,161.438064575195,68.3978729248047,22.1589317321777,457.677459716797,224.597427368164,454.299072265625,283.643249511719,78.8124542236328,491.881713867188,2882.5927734375,251.991607666016,92.0317001342773,159.947998046875,214.696136474609,146.979995727539
"231","Collaea speciosa",1259122142,-15.55,-68.08333,"gass84","Collaea speciosa",647880,220.811431884766,235.435241699219,196.333877563477,1265.94873046875,201.724243164062,29.8014011383057,55.2264175415039,578.079040527344,90.2667770385742,473.060913085938,90.2667770385742,65.0459823608398,560.539184570312,1405.68310546875,268.665924072266,152.618515014648,116.028900146484,233.804489135742,196.333877563477
"232","Collaea speciosa",1260565307,-17.20277,-65.87194,"gass84","Collaea speciosa",667346,124.369331359863,140.957305908203,95.8730087280273,1645.6396484375,300.310211181641,29.2330265045166,67.3117904663086,829.719848632812,89.1889572143555,653.7216796875,89.1889572143555,66.2637557983398,541.646667480469,1659.78759765625,173.143325805664,50.8196754455566,122.330322265625,139.718048095703,95.8730087280273
"233","Collaea speciosa",1257598675,-16.33806,-67.60778,"cdround,gass84","Collaea speciosa",657605,171.484664916992,187.661666870117,145.451614379883,1112.66320800781,198.701248168945,19.7747688293457,64.4150009155273,560.245971679688,60.1204719543457,434.484283447266,60.1204719543457,68.2844390869141,555.487915039062,1546.63073730469,222.669616699219,99.7879028320312,122.92041015625,186.380493164062,145.451614379883
"234","Collaea speciosa",1927911487,-25.14087,-50.07715,"","Collaea speciosa",759876,175.357757568359,210.753036499023,132.701797485352,1486.04992675781,175.549850463867,74.0056838989258,22.5693054199219,498.554901123047,242.42805480957,494.616088867188,305.085388183594,78.2525939941406,491.140838623047,2874.27709960938,246.209045410156,86.6406326293945,159.511795043945,208.969635009766,141.192611694336
"235","Collaea speciosa",1057188815,-23.23621,-58.39102,"gass84","Collaea speciosa",737420,240.770736694336,281.885772705078,187.528396606445,1223.81909179688,157.030227661133,21.8139343261719,40.1779098510742,452.094024658203,85.1006546020508,452.094024658203,187.414169311523,84,459.787994384766,3407.13256835938,321.131469726562,138.604415893555,182.709197998047,281.885772705078,201.019393920898
"236","Collaea speciosa",1090555464,-20.4283,-47.8242,"gass84","Collaea speciosa",705471,229.558517456055,244.706039428711,197.850372314453,1472.20556640625,268.634063720703,16.3597812652588,73.7403259277344,797.115844726562,50.190185546875,597.509826660156,58.6121482849121,83.955192565918,557.019653320312,1788.576171875,294.363891601562,144.300765991211,150.004608154297,241.740325927734,211.857894897461
"237","Collaea speciosa",1261834884,-15.75,-68.01,"gass84","Collaea speciosa",650796,195.08625793457,210.214599609375,169.955703735352,1260.91467285156,215.75471496582,23.6228275299072,61.1411590576172,611.413024902344,72.4936141967773,482.276275634766,72.4936141967773,67.7809906005859,561.426025390625,1455.80065917969,244.654357910156,123.947334289551,120.71110534668,208.757598876953,169.955703735352
"238","Collaea speciosa",1228460308,-9.1839,-74.14,"gass84","Collaea speciosa",573935,255.335235595703,261.335876464844,245.189605712891,1725.84973144531,221.296813964844,62.0955467224121,39.6430358886719,633.656860351562,197.203750610352,423.385345458984,200.137145996094,56.9249496459961,622.329772949219,517.870727539062,297.833526611328,206.51725769043,91.2722854614258,255.290969848633,248.265167236328
"239","Collaea speciosa",1258760446,-18.48972,-64.10694,"gass84","Collaea speciosa",681947,157.60498046875,180.079055786133,123.32218170166,668.922546386719,131.349609375,9.46951580047607,77.817497253418,373.084930419922,30.6751270294189,371.622406005859,30.6751270294189,71.4473724365234,524.121337890625,2074.6865234375,216.189743041992,79.8408584594727,136.395584106445,178.940826416016,123.32218170166
