"","name","key","decimalLatitude","decimalLongitude","issues","sp","cells","bio_01","bio_02","bio_03","bio_04","bio_05","bio_06","bio_07","bio_08","bio_09","bio_10","bio_11","bio_12","bio_13","bio_14","bio_15","bio_16","bio_17","bio_18","bio_19"
"1","Elaphoglossum hybridum",1658342665,-22.44972,-43.015,"cdround,gass84","Elaphoglossum hybridum",728856,172.686447143555,200.347518920898,143.023025512695,2008.92077636719,325.115051269531,51.2986869812012,57.102108001709,953.651794433594,158.740829467773,791.690185546875,158.769805908203,68.2103118896484,496.831298828125,2048.49243164062,238.08708190918,100.777778625488,137.249420166016,193.773315429688,143.070190429688
"2","Elaphoglossum hybridum",1095365040,-29.61389,-50.97583,"gass84","Elaphoglossum hybridum",812353,198.703765869141,244.541610717773,147.009140014648,1418.29467773438,140.788619995117,90.1941528320312,12.1852474212646,409.152038574219,276.288055419922,377.195037841797,357.592254638672,76.5127639770508,430.095153808594,3565.8017578125,281.111175537109,103.286483764648,177.844146728516,171.222213745117,183.962615966797
"3","Elaphoglossum hybridum",1844431989,-22.39111,-44.67361,"gass84","Elaphoglossum hybridum",727864,137.482666015625,163.386688232422,104.592437744141,1835.47802734375,332.256866455078,30.0873260498047,69.7357864379883,977.336120605469,96.8602447509766,846.34765625,97.3168106079102,76.9923858642578,525.359802246094,2103.5009765625,202.786697387695,56.1572151184082,146.612548828125,159.650207519531,105.29541015625
"4","Elaphoglossum hybridum",1135824662,-21.978,-46.366,"gass84","Elaphoglossum hybridum",722984,186.378952026367,208.344161987305,151.455490112305,1639.98901367188,283.429992675781,29.924919128418,66.7816543579102,845.453674316406,93.6998519897461,743.279296875,95.673225402832,81.2707290649414,555.976196289062,2064.69091796875,246.773666381836,100.274787902832,146.262191772461,205.080474853516,158.358764648438
"5","Elaphoglossum hybridum",1889168847,-28.05,-49.35,"gass84","Elaphoglossum hybridum",793904,156.129135131836,197.22673034668,111.294616699219,1541.61657714844,198.760879516602,81.1255340576172,28.7142295837402,590.432189941406,258.899536132812,590.432189941406,305.722290039062,69.2951507568359,428.806121826172,3133.4306640625,231.267440795898,69.6817016601562,161.554962158203,197.22673034668,130.747039794922
"6","Elaphoglossum hybridum",1844431317,-22.26917,-43.00778,"gass84","Elaphoglossum hybridum",726912,188.601181030273,216.750747680664,157.871490478516,1697.79504394531,300.689910888672,35.4626197814941,65.5869598388672,889.333923339844,112.978164672852,720.519836425781,112.983222961426,72.5382232666016,504.764465332031,2081.25463867188,257.003540039062,113.317031860352,143.671691894531,211.256271362305,157.889236450195
"7","Elaphoglossum hybridum",1424405642,-22.57556,-45.32222,"cdround,gass84","Elaphoglossum hybridum",729801,164.796539306641,190.437683105469,131.058212280273,1569.57556152344,267.88330078125,31.3967475891113,65.0166397094727,796.855041503906,103.162666320801,707.111328125,103.78303527832,78.4915084838867,530.093627929688,2116.30712890625,229.85693359375,81.8774337768555,147.995483398438,186.576904296875,132.756942749023
"8","Elaphoglossum hybridum",1802866269,-20.41397,-41.83128,"gass84","Elaphoglossum hybridum",704571,170.041320800781,194.432983398438,141.932403564453,1607.66638183594,318.767364501953,22.842622756958,75.9730377197266,891.425842285156,80.9150619506836,619.86376953125,82.6707305908203,69.9849243164062,517.719543457031,1871.3310546875,235.983749389648,101.128463745117,134.814300537109,184.818664550781,144.768005371094
"9","Elaphoglossum hybridum",1802864356,-20.41675,-41.82156,"gass84","Elaphoglossum hybridum",705543,156.421173095703,180.70133972168,128.490783691406,1580.42065429688,294.831573486328,23.4568462371826,71.7908172607422,838.744812011719,84.9107666015625,589.243591308594,85.9721755981445,69.9190139770508,518.801452636719,1867.06469726562,222.149856567383,87.6808547973633,134.43571472168,171.100128173828,130.600112915039
"10","Elaphoglossum hybridum",1802864645,-20.43167,-41.84556,"gass84","Elaphoglossum hybridum",705542,180.686233520508,205.601119995117,152.230087280273,1202.94372558594,240.262069702148,17.360013961792,75.5549163818359,671.066528320312,61.2705078125,465.277862548828,62.3194847106934,70,514.817749023438,1894.60974121094,247.287109375,111.186950683594,136.085891723633,198.851287841797,154.63899230957
"11","Elaphoglossum hybridum",1844431900,-13.29111,-41.90083,"gass84","Elaphoglossum hybridum",621950,194.238739013672,206.793762207031,171.709335327148,1050.57250976562,187.250549316406,13.8490209579468,71.9265823364258,536.003967285156,45.2358169555664,381.79345703125,55.2216682434082,79.9814987182617,631.691650390625,1293.84545898438,254.41438293457,127.79061126709,126.594886779785,202.771926879883,174.045791625977
"12","Elaphoglossum hybridum",1930923847,-23.6833,-64.8833,"gass84","Elaphoglossum hybridum",743174,180.957916259766,224.808242797852,117.960350036621,941.253662109375,206.798492431641,7.31048917770386,93.6277923583984,576.459533691406,22.7160797119141,565.377868652344,23.0514335632324,96.1731491088867,446.528137207031,3892.39086914062,267.950653076172,52.4803352355957,215.380798339844,219.060791015625,122.289276123047
"13","Elaphoglossum hybridum",1802865142,-20.09361,-43.47528,"gass84","Elaphoglossum hybridum",701635,187.014404296875,209.520172119141,156.160461425781,1815.48669433594,419.494018554688,14.3673458099365,87.5610961914062,1099.88940429688,45.1386222839355,813.335266113281,45.1637496948242,75.8788223266602,535.809509277344,1873.41271972656,251.095733642578,109.646987915039,141.394180297852,200.149795532227,156.336349487305
"14","Elaphoglossum hybridum",1802865820,-20.11556,-44.2325,"gass84,preneglat,preneglon","Elaphoglossum hybridum",701626,211.278747558594,232.055023193359,179.500701904297,1512.54162597656,324.297882080078,13.628978729248,84.8349075317383,907.848999023438,41.555778503418,668.428344726562,45.7617874145508,79.175895690918,552.431945800781,1848.40979003906,273.152679443359,129.548843383789,143.652481079102,227.115295410156,188.521255493164
"15","Elaphoglossum hybridum",1086666109,-22.44889,-42.985,"gass84","Elaphoglossum hybridum",728857,203.404251098633,231.500869750977,173.852096557617,1768.8916015625,282.37353515625,47.0742492675781,54.8875465393066,816.058776855469,144.797500610352,674.0947265625,144.797500610352,67.2717742919922,491.867370605469,2046.56384277344,268.986755371094,132.233947753906,136.714004516602,223.809814453125,173.852096557617
"16","Elaphoglossum hybridum",1930566340,-22.49995,-44.56336,"cdrep","Elaphoglossum hybridum",728838,215.79817199707,242.739700317383,183.155746459961,1602.474609375,266.180847167969,24.4431838989258,67.4858627319336,783.522644042969,75.8232040405273,714.960998535156,75.8232040405273,74.6934661865234,513.47509765625,2085.21118164062,281.775329589844,136.258163452148,145.427642822266,237.691070556641,183.155746459961
"17","Elaphoglossum hybridum",1265088445,-20.43528,-41.02222,"gass84","Elaphoglossum hybridum",705552,183.401763916016,207.089797973633,157.925354003906,1525.40991210938,250.47233581543,37.940372467041,57.3416748046875,727.565185546875,132.521209716797,486.591156005859,135.912384033203,60.9335632324219,502.387786865234,1786.97253417969,243.662933349609,122.415367126465,121.277130126953,195.393524169922,160.013626098633
"18","Elaphoglossum hybridum",1802860698,-21.60478,-44.60533,"gass84","Elaphoglossum hybridum",719117,183.583404541016,207.318954467773,150.362991333008,1565.40197753906,290.859893798828,19.0159397125244,74.895133972168,861.222595214844,61.7386283874512,724.418701171875,62.5701560974121,79.4718627929688,540.730651855469,2010.85498046875,247.631530761719,100.554916381836,147.118469238281,203.045135498047,153.166412353516
"19","Elaphoglossum hybridum",1802861357,-22.61611,-46.38917,"gass84","Elaphoglossum hybridum",730760,178.680267333984,203.284652709961,143.917831420898,1552.62036132812,259.598022460938,35.7215385437012,59.2550163269043,765.513671875,109.335395812988,683.389099121094,125.456825256348,79.6305694580078,541.384582519531,2138.9384765625,241.457855224609,94.5288009643555,147,199.843383789062,152.992065429688
"20","Elaphoglossum hybridum",1802861415,-18.235,-43.34797,"gass84","Elaphoglossum hybridum",679280,194.812316894531,214.148056030273,165.460525512695,1283.04235839844,284.628784179688,7.96701049804688,89.8603210449219,793.262573242188,25.0245037078857,527.3857421875,26.8988933563232,77.0553512573242,561.093322753906,1712.13317871094,256.784027099609,119.233421325684,137.512741088867,208.292709350586,170.740951538086
"21","Elaphoglossum hybridum",1802861529,-22.21172,-44.75319,"gass84","Elaphoglossum hybridum",725919,158.067947387695,183.568054199219,124.815635681152,1708.45971679688,310.393249511719,26.2466430664062,70.65185546875,914.837646484375,85.3296279907227,784.450744628906,85.7730102539062,78.9144058227539,531.638488769531,2087.7646484375,223.510879516602,75.3740234375,148.08561706543,179.609069824219,125.769264221191
"22","Elaphoglossum hybridum",1930709407,-13.19,-71.59,"gass84","Elaphoglossum hybridum",620621,96.0194778442383,107.077453613281,75.2898712158203,1106.88037109375,200.385955810547,23.3293399810791,67.8583755493164,557.773498535156,77.0015029907227,552.194091796875,77.2717895507812,66.1381912231445,588.819274902344,1155.28625488281,137.966812133789,25.5418643951416,112.421653747559,106.59912109375,78.2519378662109
"23","Elaphoglossum hybridum",1930669411,-12.6228,-72.2444,"gass84","Elaphoglossum hybridum",613810,144.241622924805,152.316497802734,128.050888061523,1607.16259765625,250.955429077148,37.3605003356934,55.4662094116211,744.315979003906,128.195602416992,606.606140136719,128.308532714844,61.0960159301758,627.763061523438,884.484130859375,182.167190551758,84.7492446899414,97.3403091430664,151.357635498047,129.067184448242
"24","Elaphoglossum hybridum",1929504094,-19.27839,-41.37414,"gass84","Elaphoglossum hybridum",691940,217.998443603516,241.212554931641,190.043228149414,1234.00268554688,249.059707641602,16.3805904388428,79.9015579223633,715.309814453125,50.0577239990234,438.04541015625,50.0577239990234,70.8361206054688,528.238708496094,1820.71520996094,283.033996582031,149.469879150391,133.631546020508,230.494873046875,190.043228149414
"25","Elaphoglossum hybridum",1929072861,-13.0786,-72.3903,"gass84","Elaphoglossum hybridum",618668,94.1281814575195,103.809844970703,75.9779968261719,1452.23461914062,253.598648071289,24.3747081756592,67.8099517822266,754.485473632812,80.3031997680664,682.051086425781,80.3031997680664,64.5574417114258,607.120361328125,1021.33911132812,134.579925537109,28.3443832397461,106.268074035645,103.152587890625,75.9779968261719
"26","Elaphoglossum hybridum",1424269689,-22.28555,-44.61333,"cdround,gass84","Elaphoglossum hybridum",726893,150.273406982422,176.185531616211,117.295639038086,1966.85266113281,352.165130615234,30.2369327545166,70.5903015136719,1035.07495117188,96.5476684570312,901.606018066406,97.0648956298828,77.6134033203125,526.278564453125,2097.341796875,215.981826782227,68.6102905273438,147.310440063477,172.281036376953,118.145301818848
"27","Elaphoglossum hybridum",1929108462,-22.1944,-64.5756,"gass84","Elaphoglossum hybridum",725682,182.120330810547,220.025314331055,126.659606933594,840.136657714844,182.433258056641,3.27760672569275,93.5932159423828,516.254577636719,11.4747724533081,516.254577636719,14.5874242782593,99.7754669189453,482.821594238281,3410.06225585938,265.283782958984,58.5897903442383,206.743148803711,220.025314331055,140.078308105469
"28","Elaphoglossum hybridum",1928769484,-10.5622,-75.4561,"gass84","Elaphoglossum hybridum",589471,161.716369628906,169.088851928711,145.831359863281,1465.05041503906,217.173431396484,36.8030624389648,51.3704948425293,637.399353027344,125.282135009766,595.309997558594,125.282135009766,67.4859848022461,637.413269042969,854.418273925781,205.224456787109,99.3021011352539,105.937683105469,168.505981445312,145.831359863281
"29","Elaphoglossum hybridum",1928341527,-17.1333,-65.9167,"gass84","Elaphoglossum hybridum",666373,132.494583129883,148.965286254883,104.291923522949,1847.43884277344,325.102874755859,37.2294578552246,62.2610664367676,892.793273925781,113.885238647461,715.411926269531,113.885238647461,65.7611236572266,541.626831054688,1643.29504394531,181.099472045898,59.6807556152344,121.399154663086,148.311828613281,104.291923522949
"30","Elaphoglossum hybridum",1930084971,-17.1667,-65.9,"gass84","Elaphoglossum hybridum",667346,124.369331359863,140.957305908203,95.8730087280273,1645.6396484375,300.310211181641,29.2330265045166,67.3117904663086,829.719848632812,89.1889572143555,653.7216796875,89.1889572143555,66.2637557983398,541.646667480469,1659.78759765625,173.143325805664,50.8196754455566,122.330322265625,139.718048095703,95.8730087280273
"31","Elaphoglossum hybridum",1928962069,-22,-64.5667,"gass84","Elaphoglossum hybridum",723738,155.579345703125,192.706512451172,101.271583557129,1022.82061767578,224.973281860352,3.1482412815094,96.5925521850586,641.72119140625,9.88366317749023,641.72119140625,10.9308185577393,100.759201049805,489.896148681641,3342.9423828125,237.902404785156,32.2322235107422,205.689056396484,192.706512451172,108.840812683105
"32","Elaphoglossum hybridum",1802857117,-18.19669,-43.28714,"gass84","Elaphoglossum hybridum",679281,195.085968017578,214.659362792969,165.743759155273,1438.40002441406,312.752593994141,9.1938009262085,87.8634567260742,871.653930664062,29.6119499206543,581.822265625,32.7640342712402,76.845344543457,558.59716796875,1722.23095703125,257.271148681641,119.896858215332,137.37907409668,206.844741821289,171.770156860352
"33","Elaphoglossum hybridum",1802857073,-22.14394,-45.06181,"gass84","Elaphoglossum hybridum",724944,197.950317382812,222.704818725586,164.223175048828,1419.34008789062,261.966674804688,21.7889347076416,71.4217529296875,773.457580566406,73.0309753417969,667.890380859375,73.4927597045898,79.7870483398438,535.940795898438,2065.4365234375,262.733581542969,114.282157897949,148.457473754883,218.384902954102,166.405212402344
"34","Elaphoglossum hybridum",1929538995,-17.8167,-64.6167,"gass84","Elaphoglossum hybridum",674165,139.076370239258,158.33544921875,107.641784667969,1253.4140625,237.375671386719,20.1707782745361,73.5136871337891,673.872009277344,65.2801971435547,673.842224121094,65.2801971435547,65.0331039428711,525.969421386719,1862.97351074219,190.259323120117,66.6460952758789,123.591033935547,158.314544677734,107.641784667969
"35","Elaphoglossum hybridum",1931003190,-16.2333,-66.4167,"gass84","Elaphoglossum hybridum",655675,202.106643676758,216.582702636719,176.641159057617,2135.63647460938,332.192443847656,60.8992462158203,51.9398994445801,956.858764648438,192.750747680664,785.34375,192.750747680664,57.5148048400879,541.586791992188,1459.84643554688,247.029876708984,140.916061401367,106.139129638672,215.276260375977,176.641159057617
"36","Elaphoglossum hybridum",1802856254,-20.13356,-43.88628,"gass84","Elaphoglossum hybridum",701630,197.351303100586,218.919738769531,166.040710449219,1711.97827148438,365.7392578125,13.9811544418335,85.1110458374023,1015.40643310547,43.3673439025879,761.828430175781,44.4597816467285,77.9728088378906,545.093139648438,1859.06579589844,260.247619628906,117.41121673584,142.770904541016,214.082214355469,171.598907470703
"37","Elaphoglossum hybridum",1802856219,-19.97831,-43.88628,"gass84","Elaphoglossum hybridum",699686,207.623138427734,228.94563293457,176.136245727539,1536.34716796875,334.391265869141,11.8842353820801,87.0128479003906,921.862060546875,36.0261573791504,684.770690917969,38.6633377075195,78.1608657836914,546.320129394531,1853.54235839844,270.592102050781,127.250297546387,143.198959350586,223.845932006836,184.197479248047
"38","Elaphoglossum hybridum",1927777171,-16.65,-66.7167,"gass84","Elaphoglossum hybridum",660532,153.990844726562,169.595474243164,127.962043762207,1472.75476074219,256.196746826172,33.9310188293457,59.7745208740234,719.106262207031,103.576538085938,597.348205566406,103.576538085938,62.872314453125,547.353210449219,1539.21301269531,201.423034667969,86.5871353149414,114.861282348633,168.867660522461,127.962043762207
"39","Elaphoglossum hybridum",1929819369,-6.2125,-77.6831,"gass84","Elaphoglossum hybridum",538900,137.998504638672,144.029800415039,126.601654052734,900.864685058594,127.82829284668,34.314811706543,36.7180404663086,352.064086914062,110.68302154541,272.078094482422,110.775634765625,75.4608383178711,664.78125,583.438720703125,190.655822753906,77.11767578125,113.473358154297,139.500518798828,126.797004699707
"40","Elaphoglossum hybridum",1930372431,-20.31942,-43.9381,"gass84","Elaphoglossum hybridum",703573,193.245620727539,214.939971923828,161.831069946289,1404.65234375,288.862152099609,12.7194213867188,82.4301605224609,824.218811035156,40.233829498291,617.0380859375,40.7078742980957,77.9584808349609,545.470947265625,1864.78015136719,255.924179077148,113.327629089355,142.542053222656,210.151245117188,165.04182434082
"41","Elaphoglossum hybridum",1928432123,-22.7697,-45.9536,"gass84","Elaphoglossum hybridum",732709,156.48356628418,182.22785949707,122.267440795898,1753.77429199219,281.495666503906,38.3200874328613,58.9153518676758,832.744201660156,121.819717407227,771.913024902344,132.925689697266,78.0394058227539,530.763427734375,2155.04345703125,220.600784301758,73.6491241455078,146.975250244141,178.685333251953,129.505432128906
"42","Elaphoglossum hybridum",1802853533,-22.74811,-46.15469,"gass84","Elaphoglossum hybridum",731735,184.546401977539,209.696441650391,150.083953857422,1571.24938964844,256.597076416016,35.7926216125488,59.9460639953613,754.497863769531,112.838539123535,712.619934082031,124.034683227539,78.7992248535156,535.575744628906,2136.42431640625,248.269073486328,101.158325195312,147,206.024047851562,155.903991699219
"43","Elaphoglossum hybridum",1930522291,-13.25337,-41.66336,"cdrep","Elaphoglossum hybridum",621953,225.739440917969,239.905883789062,201.721343994141,671.294372558594,112.812370300293,14.104302406311,60.6257972717285,327.979614257812,47.8183860778809,239.662078857422,62.1908264160156,77.576301574707,618.90966796875,1412.48315429688,285.076446533203,159.759140014648,125.426475524902,235.504913330078,203.566818237305
"44","Elaphoglossum hybridum",1929567078,-16.8667,-66.6333,"gass84","Elaphoglossum hybridum",663449,69.5495452880859,86.4558944702148,41.874755859375,1614.7275390625,292.441467285156,32.2073936462402,63.8681793212891,814.894897460938,98.4387054443359,794.989685058594,98.4387054443359,67.3884582519531,549.326416015625,1669.00744628906,119.120666503906,-3.55485105514526,122.665077209473,86.4163055419922,41.874755859375
"45","Elaphoglossum hybridum",1929887939,-15.1833,-68.7667,"gass84","Elaphoglossum hybridum",643983,129.06787109375,144.276763916016,103.373443603516,969.515075683594,172.976913452148,10.6725416183472,67.227409362793,484.949066162109,36.6159515380859,369.016967773438,36.6159515380859,76.0784225463867,578.5673828125,1482.91918945312,181.719512939453,50.1673164367676,131.499816894531,143.197341918945,103.373443603516
"46","Elaphoglossum hybridum",1930291456,-15.6667,-67.4833,"gass84","Elaphoglossum hybridum",649831,199.70280456543,213.120056152344,176.707641601562,1819.35913085938,266.727142333984,55.7073860168457,48.6109504699707,782.453063964844,175.387603759766,672.094360351562,175.387603759766,56.211498260498,553.680236816406,1331.25793457031,242.892822265625,141.394134521484,101.491264343262,211.121978759766,176.707641601562
"47","Elaphoglossum hybridum",1930401564,-16.2,-67.8833,"gass84","Elaphoglossum hybridum",655658,200.462585449219,213.757690429688,177.563583374023,2078.84228515625,302.510711669922,65.319221496582,47.9194869995117,889.276306152344,205.968322753906,767.801696777344,205.968322753906,55.4052619934082,552.744873046875,1324.26477050781,243.229080200195,143.018707275391,100.255271911621,211.898239135742,177.563583374023
"48","Elaphoglossum hybridum",1929786739,-18.65,-63.9167,"gass84","Elaphoglossum hybridum",683893,160.1083984375,183.524841308594,124.675582885742,563.106567382812,107.847526550293,9.65904521942139,74.1917037963867,307.917144775391,30.5232791900635,307.388519287109,30.5232791900635,72.9682464599609,521.373596191406,2149.47045898438,220.878509521484,80.9030532836914,139.902877807617,183.149673461914,124.675582885742
"49","Elaphoglossum hybridum",1928648693,-17.25,-65.7167,"gass84","Elaphoglossum hybridum",668320,67.5428771972656,84.959098815918,38.7017021179199,1657.1708984375,299.750793457031,28.9894828796387,67.8552856445312,843.869750976562,90.4472503662109,804.910827636719,90.4472503662109,65.9135437011719,540.756408691406,1717.11328125,115.85758972168,-6.05174398422241,121.901351928711,83.8949813842773,38.7017021179199
"50","Elaphoglossum hybridum",1928634158,-17.0833,-65.5333,"gass84","Elaphoglossum hybridum",665406,226.255157470703,242.402206420898,197.142486572266,2978.71923828125,484.013000488281,66.1590728759766,58.6291351318359,1378.79125976562,229.725433349609,1051.34606933594,229.725433349609,62.867977142334,528.905090332031,1638.86193847656,274.459503173828,156.052169799805,118.413314819336,239.399017333984,197.142486572266
"51","Elaphoglossum hybridum",1927920546,-7.75,-77.25,"gass84","Elaphoglossum hybridum",557374,138.505645751953,142.75471496582,128.056915283203,1414.94165039062,198.664169311523,49.6420669555664,41.7402420043945,565.051574707031,152.727951049805,385.908721923828,153.036422729492,75.9239349365234,661.517517089844,508.889556884766,190.745269775391,75.9262237548828,114.851623535156,140.009216308594,128.556442260742
"52","Elaphoglossum hybridum",1928050939,-22.13,-47.67,"gass84","Elaphoglossum hybridum",724912,209.21598815918,230.777160644531,173.218902587891,1440.2373046875,239.736389160156,27.888879776001,62.874454498291,703.227111816406,86.4436874389648,653.133911132812,96.6740875244141,83.2122344970703,557.045104980469,2124.81274414062,270.983673095703,121.169395446777,149.99397277832,228.040420532227,185.240234375
"53","Elaphoglossum hybridum",1929973166,-7,-77,"gass84","Elaphoglossum hybridum",548629,236.637344360352,243.33317565918,224.870819091797,1263.66394042969,163.56071472168,59.6812019348145,30.9987907409668,465.562927246094,185.506759643555,393.499145507812,189.657928466797,73.6199264526367,650.086181640625,616.996337890625,289.049682617188,175.815887451172,113.283309936523,237.339538574219,228.169830322266
"54","Elaphoglossum hybridum",1928262795,-16.3167,-67.9,"gass84","Elaphoglossum hybridum",656630,109.759674072266,126.334030151367,82.7823028564453,1302.25952148438,240.874328613281,18.8401565551758,67.5527725219727,677.253356933594,58.3757934570312,549.425964355469,58.3757934570312,72.2560043334961,560.529968261719,1618.07995605469,162.733627319336,33.7555465698242,128.89323425293,125.958976745605,82.7823028564453
"55","Elaphoglossum hybridum",1419197566,17.56361,-96.49167,"cdround,elmms,gass84,txmathi","Elaphoglossum hybridum",261655,133.740539550781,154.096084594727,104.227844238281,2465.84301757812,431.387603759766,44.9643020629883,74.7738342285156,1247.82287597656,143.782150268555,706.1845703125,218.208206176758,83.2444610595703,534.58837890625,1771.1328125,208.751007080078,53.0244255065918,155.753112792969,147.516662597656,124.478958129883
"56","Elaphoglossum hybridum",1929730488,-16.1833,-67.7333,"gass84","Elaphoglossum hybridum",655660,182.54753112793,198.093292236328,157.1845703125,1154.14892578125,187.807113647461,25.3738498687744,56.3553466796875,539.611145019531,77.3365325927734,443.369537353516,77.3365325927734,66.5054397583008,556.124877929688,1496.86047363281,232.300582885742,112.703750610352,119.54719543457,196.899932861328,157.1845703125
"57","Elaphoglossum hybridum",1929323018,-14.75,-47.5,"gass84","Elaphoglossum hybridum",639379,229.345794677734,246.333419799805,211.598709106445,1684.92004394531,281.553894042969,6.54500913619995,77.4191360473633,820.294738769531,20.225887298584,446.185577392578,20.225887298584,80,565.8935546875,1022.32897949219,300.136199951172,159.375930786133,140.822357177734,229.626312255859,211.598709106445
"58","Elaphoglossum hybridum",1931190617,-22.37147,-43.19507,"","Elaphoglossum hybridum",727882,194.977844238281,223.288772583008,164.203186035156,1674.68762207031,295.216613769531,35.7738456726074,64.7911682128906,874.408325195312,114.801689147949,728.298217773438,114.821937561035,71.8989715576172,502.222503662109,2088.03271484375,262.880859375,119.774826049805,143.113418579102,217.847763061523,164.244354248047
"59","Elaphoglossum hybridum",1927878881,-30.03703,-51.23076,"cdrep","Elaphoglossum hybridum",817210,199.614334106445,247.265533447266,147.381134033203,1341.30639648438,142.207366943359,84.0091400146484,16.5814075469971,422.506683349609,273.882934570312,316.681610107422,418.181732177734,72.0977935791016,409.180419921875,3651.8466796875,281.863861083984,105.620742797852,176.175521850586,152.613540649414,232.112319946289
"60","Elaphoglossum hybridum",1931306008,-22.41605,-42.96575,"cdrep","Elaphoglossum hybridum",727885,192.691925048828,220.766723632812,162.728118896484,1703.42126464844,284.381805419922,41.2614898681641,60.1056594848633,839.400756835938,128.457015991211,697.665649414062,128.457015991211,69.7292709350586,498.506958007812,2060.2080078125,259.668182373047,119.718826293945,139.8564453125,215.114608764648,162.728118896484
"61","Elaphoglossum hybridum",1928168197,-22.37154,-44.61704,"","Elaphoglossum hybridum",727865,148.146560668945,174.254150390625,115.408790588379,2059.47485351562,357.61181640625,31.8396739959717,68.8485488891602,1051.81604003906,100.060852050781,934.570617675781,100.108428955078,76.5778427124023,523.074340820312,2100.38745117188,213.633743286133,67.3051605224609,146.403732299805,170.352340698242,115.485260009766
"62","Elaphoglossum hybridum",1261035919,19.025,-100.03306,"cdround,gass84","Elaphoglossum hybridum",244116,181.17073059082,207.292785644531,155.138931274414,1009.76971435547,200.314727783203,7.58376550674438,94.641845703125,593.225952148438,23.3986682891846,157.139053344727,45.479808807373,105.029754638672,559.776611328125,1642.03308105469,275.777801513672,87.8332061767578,187.92448425293,186.625915527344,180.647369384766
"63","Elaphoglossum hybridum",1261031003,19.01,-99.88,"gass84","Elaphoglossum hybridum",244118,124.8447265625,147.673904418945,98.1921463012695,1139.27465820312,232.613357543945,10.0525245666504,94.3668212890625,670.847778320312,31.2254238128662,202.601791381836,51.1040840148926,105.047729492188,572.527221679688,1614.25634765625,214.899841308594,30.9072036743164,184.02082824707,133.893173217773,121.685089111328
"64","Elaphoglossum hybridum",1930234614,-17.6667,-65.8667,"gass84","Elaphoglossum hybridum",673178,119.476531982422,137.000930786133,89.8703460693359,691.847229003906,157.730651855469,2.33858609199524,94.1954803466797,439.99755859375,9.59745979309082,320.009704589844,9.59745979309082,75.8460998535156,553.964294433594,1708.28894042969,173.669708251953,36.7160682678223,136.892730712891,135.764694213867,89.8760375976562
"65","Elaphoglossum hybridum",1930408948,-23.2303,-46.5353,"gass84","Elaphoglossum hybridum",737562,189.377029418945,216.631652832031,155.484085083008,1475.54895019531,245.33381652832,40.409236907959,55.3501129150391,704.739624023438,125.72029876709,656.999084472656,151.834854125977,72.4538650512695,512.048706054688,2198.5869140625,251.873184204102,110.377883911133,141.501220703125,212.629150390625,162.134002685547
"66","Elaphoglossum hybridum",1928994776,-29.99362,-52.37895,"cdrep","Elaphoglossum hybridum",816224,198.841781616211,248.924163818359,142.921890258789,1393.52844238281,146.040054321289,91.8885879516602,14.0021638870239,412.7158203125,287.671020507812,369.087738037109,377.919281005859,83.9374008178711,433.728149414062,3898.45458984375,289.990966796875,96.615966796875,193.376281738281,171.904144287109,194.626098632812
"67","Elaphoglossum hybridum",1928542213,-14.4167,-68.35,"gass84","Elaphoglossum hybridum",635240,157.905136108398,170.569595336914,135.621948242188,1689.53588867188,250.370376586914,37.2874183654785,53.4929237365723,738.919799804688,123.547874450684,651.405090332031,123.547874450684,62.4325103759766,583.110961914062,1270.18725585938,201.856430053711,94.8295135498047,107.045944213867,169.602294921875,135.621948242188
"68","Elaphoglossum hybridum",1928647668,-20.29162,-43.50829,"cdrep","Elaphoglossum hybridum",703578,191.659957885742,214.381423950195,160.546951293945,1631.3193359375,351.759796142578,13.6709575653076,83.6888656616211,937.860290527344,43.2432518005371,734.707458496094,43.2432518005371,75.9973297119141,535.035339355469,1886.36291503906,255.754959106445,113.804222106934,141.951889038086,205.924118041992,160.546951293945
"69","Elaphoglossum hybridum",1571707343,-21.38556,-46.95167,"cdround,gass84,rdatm","Elaphoglossum hybridum",716173,220.6328125,240.11865234375,185.780868530273,1375.91223144531,244.222885131836,21.9207172393799,67.5873107910156,704.11083984375,69.3445892333984,603.740478515625,74.4172134399414,84,555.220031738281,2003.64819335938,283.398986816406,132.455322265625,150.982070922852,236.790466308594,198.577529907227
