"","name","key","decimalLatitude","decimalLongitude","issues","sp","cells","bio_01","bio_02","bio_03","bio_04","bio_05","bio_06","bio_07","bio_08","bio_09","bio_10","bio_11","bio_12","bio_13","bio_14","bio_15","bio_16","bio_17","bio_18","bio_19"
"1","Eryngium eurycephalum",1946020374,-20.42993,-41.8037,"gass84","Eryngium eurycephalum",705543,156.421173095703,180.70133972168,128.490783691406,1580.42065429688,294.831573486328,23.4568462371826,71.7908172607422,838.744812011719,84.9107666015625,589.243591308594,85.9721755981445,69.9190139770508,518.801452636719,1867.06469726562,222.149856567383,87.6808547973633,134.43571472168,171.100128173828,130.600112915039
"2","Eryngium eurycephalum",1913950364,-22.39861,-44.66472,"cdround,gass84","Eryngium eurycephalum",727865,148.146560668945,174.254150390625,115.408790588379,2059.47485351562,357.61181640625,31.8396739959717,68.8485488891602,1051.81604003906,100.060852050781,934.570617675781,100.108428955078,76.5778427124023,523.074340820312,2100.38745117188,213.633743286133,67.3051605224609,146.403732299805,170.352340698242,115.485260009766
"3","Eryngium eurycephalum",1946020792,-22.50083,-45.13556,"gass84","Eryngium eurycephalum",729803,182.694641113281,208.671569824219,149.179290771484,1557.13989257812,256.013763427734,28.5257263183594,63.2467041015625,749.943298339844,92.1370010375977,652.280944824219,92.1684646606445,77.7441482543945,526.466491699219,2106.0205078125,248.072021484375,100.413307189941,147.883071899414,204.442291259766,149.317718505859
"4","Eryngium eurycephalum",1837438484,-20.43139,-43.48667,"gass84","Eryngium eurycephalum",705523,198.05110168457,221.465606689453,166.899978637695,1666.30358886719,347.127288818359,15.180251121521,81.820671081543,936.764953613281,47.8026580810547,747.239318847656,47.813362121582,75.5140609741211,530.400512695312,1909.39794921875,262.849426269531,120.534301757812,142.36767578125,215.153701782227,166.969024658203
"5","Eryngium eurycephalum",1423894814,-21.97167,-46.36889,"cdround,gass84","Eryngium eurycephalum",722984,186.378952026367,208.344161987305,151.455490112305,1639.98901367188,283.429992675781,29.924919128418,66.7816543579102,845.453674316406,93.6998519897461,743.279296875,95.673225402832,81.2707290649414,555.976196289062,2064.69091796875,246.773666381836,100.274787902832,146.262191772461,205.080474853516,158.358764648438
"6","Eryngium eurycephalum",1087660485,-20.09,-43.96056,"gass84","Eryngium eurycephalum",701629,189.133026123047,210.34700012207,157.799652099609,1704.45092773438,356.672943115234,14.5231771469116,84.2173919677734,1005.10870361328,44.770809173584,755.321105957031,46.4015464782715,78.1115188598633,548.396057128906,1850.02526855469,251.520782470703,108.865676879883,142.556488037109,205.643463134766,164.824523925781
"7","Eryngium eurycephalum",1135074077,-22.37286,-44.70689,"gass84","Eryngium eurycephalum",727864,137.482666015625,163.386688232422,104.592437744141,1835.47802734375,332.256866455078,30.0873260498047,69.7357864379883,977.336120605469,96.8602447509766,846.34765625,97.3168106079102,76.9923858642578,525.359802246094,2103.5009765625,202.786697387695,56.1572151184082,146.612548828125,159.650207519531,105.29541015625
"8","Eryngium eurycephalum",1135074016,-22.70194,-45.34583,"gass84","Eryngium eurycephalum",731744,175.320220947266,201.386108398438,141.582412719727,1697.35180664062,266.179412841797,31.4304752349854,61.9184379577637,781.705078125,99.2989501953125,713.677551269531,99.9715270996094,77.6505737304688,526.045776367188,2127.17846679688,240.625518798828,92.9562606811523,147.89111328125,197.313095092773,142.086685180664
"9","Eryngium eurycephalum",1087652832,-20.0473,-49.68537,"gass84","Eryngium eurycephalum",700588,237.765319824219,253.613403320312,208.010040283203,1405.755859375,274.605621337891,16.9677734375,76.005729675293,793.841674804688,53.8902893066406,454.074462890625,55.63916015625,83,551.321105957031,1712.20288085938,304.458770751953,153.473266601562,151.002410888672,248.685989379883,222.718612670898
"10","Eryngium eurycephalum",1087652419,-22.61572,-45.328,"gass84","Eryngium eurycephalum",730773,173.018859863281,198.939880371094,139.397094726562,1676.30053710938,272.01318359375,32.0629806518555,62.907527923584,801.91943359375,103.149192810059,719.58740234375,103.439064025879,77.9107131958008,527.392700195312,2119.72998046875,238.258865356445,90.4504776000977,147.993804931641,194.927215576172,140.095428466797
"11","Eryngium eurycephalum",1424446559,-21.29444,-44.58972,"cdround,gass84","Eryngium eurycephalum",715229,203.232376098633,225.946899414062,170.254470825195,1380.46997070312,267.540466308594,14.6646156311035,80.0873565673828,795.162231445312,44.278205871582,671.147399902344,48.275463104248,79,544.892211914062,1961.19458007812,265.979125976562,120.611511230469,145.492568969727,221.397415161133,179.403533935547
"12","Eryngium eurycephalum",1087508759,-22.96639,-48.40417,"gass84","Eryngium eurycephalum",734624,201.494522094727,227.674667358398,163.955200195312,1590.48181152344,253.259292602539,45.6451034545898,51.9826316833496,731.669128417969,138.657501220703,667.374328613281,167.356216430664,84,554.255798339844,2338.01513671875,264.298400878906,113.000076293945,151.186584472656,224.984588623047,173.775268554688
"13","Eryngium eurycephalum",1291012480,-20.32444,-43.94,"gass84","Eryngium eurycephalum",703573,193.245620727539,214.939971923828,161.831069946289,1404.65234375,288.862152099609,12.7194213867188,82.4301605224609,824.218811035156,40.233829498291,617.0380859375,40.7078742980957,77.9584808349609,545.470947265625,1864.78015136719,255.924179077148,113.327629089355,142.542053222656,210.151245117188,165.04182434082
"14","Eryngium eurycephalum",1087650159,-20.13556,-43.51389,"gass84","Eryngium eurycephalum",701634,181.252792358398,203.447402954102,150.366287231445,1723.35144042969,416.790496826172,12.7025117874146,91.3576507568359,1079.81945800781,40.3727378845215,782.449768066406,40.8816261291504,76.044563293457,538.60498046875,1865.98999023438,244.915985107422,103.441383361816,141.496353149414,195.746795654297,153.014907836914
"15","Eryngium eurycephalum",1095244258,-15.80833,-48.83306,"gass84","Eryngium eurycephalum",651027,214.687408447266,230.516891479492,196.909210205078,1874.34191894531,330.526123046875,10.4885883331299,76.6904602050781,964.707458496094,34.9021034240723,421.941558837891,34.9021034240723,81,580.667846679688,1011.92053222656,284.188110351562,144.650970458984,139.686401367188,214.093200683594,196.909210205078
"16","Eryngium eurycephalum",1806848051,-22.3725,-44.81722,"gass84","Eryngium eurycephalum",727863,153.431900024414,179.323059082031,120.342636108398,1720.75329589844,313.756164550781,29.5306529998779,70.0297775268555,927.759704589844,95.92138671875,794.017883300781,96.7027130126953,77.4677047729492,526.330871582031,2100.46850585938,218.831466674805,71.6792755126953,147.168304443359,175.398300170898,121.716651916504
"17","Eryngium eurycephalum",1806847974,-22.44206,-44.89322,"gass84","Eryngium eurycephalum",728834,164.41584777832,190.462478637695,131.330169677734,1653.68103027344,279.928100585938,28.0829296112061,65.9179000854492,830.389770507812,90.3551025390625,708.807067871094,90.7558746337891,77.0351791381836,524.488708496094,2101.89868164062,229.784057617188,82.8820343017578,146.874786376953,186.368881225586,131.935775756836
"18","Eryngium eurycephalum",1424275141,-21.68444,-43.87389,"cdround,gass84,muluriiv","Eryngium eurycephalum",720098,187.358200073242,213.342742919922,154.837982177734,1692.08056640625,311.730255126953,18.9201107025146,74.1378021240234,912.546081542969,63.7591705322266,791.980041503906,64.0291442871094,78.3219909667969,527.082214355469,2053.10034179688,255.083724975586,106.17325592041,148.880233764648,208.451965332031,155.755737304688
"19","Eryngium eurycephalum",1095226269,-16.1425,-48.60333,"gass84","Eryngium eurycephalum",654917,226.270950317383,242.333374023438,206.659942626953,1477.39575195312,255.959625244141,8.89031028747559,74.6423797607422,730.770202636719,28.3850154876709,344.03759765625,28.3850154876709,81,578.281372070312,1083.49523925781,295.155120849609,154.772384643555,140.212417602539,227.274871826172,206.659942626953
"20","Eryngium eurycephalum",1806847955,-20.24778,-47.46028,"gass84","Eryngium eurycephalum",702559,213.208206176758,228.634857177734,181.720199584961,1901.22961425781,349.728393554688,21.7269039154053,72.897575378418,1022.32507324219,68.9984283447266,890.690124511719,71.4036712646484,84,559.939392089844,1769.47607421875,277.247039794922,127.79077911377,149.463150024414,225.801040649414,193.711791992188
"21","Eryngium eurycephalum",1090488426,-13.32861,-41.85111,"gass84","Eryngium eurycephalum",621950,194.238739013672,206.793762207031,171.709335327148,1050.57250976562,187.250549316406,13.8490209579468,71.9265823364258,536.003967285156,45.2358169555664,381.79345703125,55.2216682434082,79.9814987182617,631.691650390625,1293.84545898438,254.41438293457,127.79061126709,126.594886779785,202.771926879883,174.045791625977
"22","Eryngium eurycephalum",1806847788,-22.40833,-44.84639,"gass84","Eryngium eurycephalum",727862,167.650695800781,193.440719604492,134.406875610352,1687.98510742188,316.147369384766,30.8172168731689,71.1854782104492,933.789367675781,101.11994934082,800.630249023438,101.578071594238,77.8311996459961,527.396301269531,2097.19653320312,233.06135559082,85.5320816040039,147.575729370117,189.3759765625,135.546524047852
"23","Eryngium eurycephalum",1094943084,-13.38944,-41.88972,"gass84","Eryngium eurycephalum",622922,206.910827636719,220.071884155273,183.777847290039,956.050720214844,162.168823242188,16.1183681488037,66.3073501586914,474.080627441406,53.5026512145996,351.898193359375,66.877815246582,79.2658767700195,628.831787109375,1339.45593261719,266.50390625,140.520324707031,125.917556762695,215.858993530273,185.999771118164
"24","Eryngium eurycephalum",1424206469,-22.25,-44.56667,"cdround,gass84","Eryngium eurycephalum",726894,177.140487670898,203.375854492188,144.204116821289,1808.71130371094,302.252899169922,25.7414398193359,68.5356826782227,893.590148925781,80.3125305175781,802.619018554688,80.3407592773438,77.2281723022461,523.307983398438,2092.9794921875,243.327041625977,95.7265014648438,147.730911254883,198.956741333008,144.248016357422
"25","Eryngium eurycephalum",1702634360,-18.1458,-43.6003,"gass84","Eryngium eurycephalum",678305,204.495910644531,222.895797729492,175.19709777832,1334.2109375,281.645904541016,7.33452701568604,88.9541320800781,821.683349609375,23.723690032959,557.370483398438,23.7247352600098,78.276969909668,568.852111816406,1680.01611328125,265.650970458984,127.8017578125,137.826385498047,218.238052368164,175.205459594727
"26","Eryngium eurycephalum",1090447528,-13.5,-41.83333,"gass84","Eryngium eurycephalum",624867,217.894592285156,231.623764038086,194.167770385742,787.266479492188,148.836013793945,8.62706756591797,76.7261199951172,438.101226806641,28.506311416626,305.938751220703,35.2556228637695,79.5071258544922,624.683654785156,1375.88854980469,277.923492431641,150.541320800781,127.36311340332,227.011215209961,196.422775268555
"27","Eryngium eurycephalum",1087500782,-22.75139,-45.5,"gass84","Eryngium eurycephalum",732715,195.219116210938,221.556442260742,161.550872802734,1541.10583496094,236.709701538086,28.4682846069336,60.8737640380859,701.918212890625,90.6498947143555,644.295532226562,91.0475234985352,77.241340637207,523.890258789062,2126.67797851562,260.639617919922,113.226356506348,147.345642089844,217.178817749023,162.064453125
"28","Eryngium eurycephalum",1927908587,-18.3897,-43.6788,"","Eryngium eurycephalum",681220,191.968475341797,210.464859008789,162.634918212891,1270.75598144531,257.513916015625,7.85439443588257,85.6342315673828,748.598937988281,23.9214267730713,531.416870117188,23.9214267730713,78.9802627563477,569.426147460938,1689.35375976562,253.036636352539,114.461685180664,138.58805847168,205.871719360352,162.634918212891
"29","Eryngium eurycephalum",1929029411,-18.60848,-43.37938,"cdrep","Eryngium eurycephalum",684140,218.832077026367,239.468124389648,188.360092163086,1347.40344238281,286.944671630859,10.8161449432373,84.2688140869141,799.228637695312,33.2119064331055,541.279968261719,34.6631698608398,77.1106948852539,549.254028320312,1790.33337402344,282.198577880859,141.713714599609,140.451385498047,230.692321777344,193.321380615234
"30","Eryngium eurycephalum",1930485011,-20.3874,-43.50583,"cdround","Eryngium eurycephalum",704550,187.705810546875,210.559371948242,156.633010864258,1738.67944335938,381.111724853516,14.8416538238525,84.7303314208984,1015.62658691406,47.3375129699707,790.43408203125,47.3470993041992,75.9810562133789,534.550842285156,1891.78515625,251.854629516602,109.893890380859,141.980819702148,204.351135253906,156.696701049805
"31","Eryngium eurycephalum",1928195265,-18.44535,-43.6556,"","Eryngium eurycephalum",682193,197.45881652832,216.483093261719,167.790435791016,1471.74609375,297.04833984375,9.84824275970459,84.501220703125,844.330078125,30.0673599243164,610.689270019531,30.0673599243164,78.6413955688477,564.045288085938,1717.7685546875,259.116394042969,119.961357116699,139.17463684082,209.921646118164,167.790435791016
"32","Eryngium eurycephalum",1930890276,-18.2,-43.57,"gass84","Eryngium eurycephalum",679278,199.732559204102,218.567672729492,170.340545654297,1390.52075195312,286.665618896484,8.83737087249756,86.3045272827148,828.855895996094,27.6576709747314,571.282531738281,27.6740188598633,78,565.35546875,1697.54321289062,261.231781005859,123.244354248047,137.938369750977,213.952499389648,170.444793701172
"33","Eryngium eurycephalum",1930439520,-18.57,-43.68,"gass84","Eryngium eurycephalum",683164,202.895889282227,221.844253540039,173.014343261719,1137.865234375,238.23991394043,7.23614358901978,86.6092987060547,675.03369140625,22.1445960998535,479.573333740234,22.1445960998535,78.987548828125,564.342834472656,1725.24230957031,264.594818115234,124.581497192383,140.016632080078,216.909698486328,173.014343261719
"34","Eryngium eurycephalum",1931075537,-19.22104,-43.4999,"","Eryngium eurycephalum",690943,203.445678710938,224.558746337891,172.65559387207,1751.31176757812,349.302062988281,13.1474027633667,83.7473526000977,998.89013671875,39.6933631896973,732.926086425781,41.9260025024414,77.463134765625,545.718627929688,1822.83117675781,267.076873779297,125.169555664062,141.858856201172,215.836975097656,179.540405273438
"35","Eryngium eurycephalum",1928161681,-22.68737,-45.5403,"","Eryngium eurycephalum",731742,156.907409667969,182.802215576172,123.016860961914,1806.99694824219,310.725433349609,38.5926666259766,64.2466506958008,910.359497070312,124.983604431152,843.839538574219,126.78271484375,78.15576171875,528.907165527344,2139.29760742188,221.84553527832,74.1240081787109,147.889602661133,179.094055175781,125.567596435547
