"","name","key","decimalLatitude","decimalLongitude","issues","sp","cells","bio_01","bio_02","bio_03","bio_04","bio_05","bio_06","bio_07","bio_08","bio_09","bio_10","bio_11","bio_12","bio_13","bio_14","bio_15","bio_16","bio_17","bio_18","bio_19"
"1","Habenaria secunda",1095362137,-27.98639,-50.15694,"gass84","Habenaria secunda",792923,148.344696044922,190.140991210938,100.54914855957,1604.56616210938,166.209747314453,101.835136413574,14.4337310791016,487.827056884766,315.523406982422,487.827056884766,395.276245117188,77,451.309661865234,3275.29956054688,226.719757080078,55.6958351135254,171.003753662109,190.140991210938,160.995483398438
"2","Habenaria secunda",1639433007,-21.84472,-41.82306,"cdround,gass84","Habenaria secunda",722067,221.548217773438,248.258483886719,195.248382568359,1190.29919433594,202.206512451172,28.0907783508301,58.2597198486328,581.934814453125,89.8430099487305,388.0576171875,99.4037399291992,59.0859222412109,475.965484619141,1911.13391113281,283.4228515625,159.3193359375,124.089920043945,233.993103027344,197.434112548828
"3","Habenaria secunda",1837438704,-28.12417,-49.47556,"gass84","Habenaria secunda",794875,146.99577331543,188.210983276367,101.860893249512,1643.63439941406,208.903457641602,87.5788116455078,27.7788696289062,619.245971679688,273.704956054688,619.245971679688,326.156585693359,69.6627883911133,429.571685791016,3147.861328125,222.234573364258,60.091854095459,162.146942138672,188.210983276367,118.589172363281
"4","Habenaria secunda",1424504569,-22.35278,-42.58528,"cdround,gass84","Habenaria secunda",727889,178.801528930664,205.880447387695,150.608505249023,1748.13415527344,280.845336914062,49.3700981140137,55.604377746582,820.808898925781,150.429321289062,685.32080078125,150.429321289062,63.5718040466309,487.943817138672,1982.28991699219,241.658187866211,111.45930480957,130.264099121094,200.234527587891,150.608505249023
"5","Habenaria secunda",1424478081,-22.34361,-42.72194,"cdround,gass84","Habenaria secunda",727888,181.720550537109,209.077270507812,152.981979370117,1704.64013671875,273.429595947266,46.3869018554688,55.7516860961914,798.700378417969,141.390914916992,667.975463867188,141.390914916992,65.5081634521484,491.586090087891,2005.70739746094,245.863677978516,112.633354187012,133.221481323242,203.154144287109,152.981979370117
"6","Habenaria secunda",1424478058,-22.32056,-42.72278,"cdround,gass84","Habenaria secunda",726916,172.209930419922,199.611755371094,143.193176269531,1815.17736816406,309.769226074219,44.863338470459,62.134651184082,914.596313476562,137.964828491211,752.915161132812,137.964828491211,67.6494522094727,497.545288085938,2017.1923828125,237.619354248047,101.609535217285,136.040298461914,194.397415161133,143.193176269531
"7","Habenaria secunda",1424319573,-22.42639,-43.28056,"cdround,gass84","Habenaria secunda",728853,185.034454345703,213.054046630859,154.571640014648,1636.40124511719,274.899261474609,36.4424095153809,60.8170204162598,812.31005859375,116.213432312012,682.835876464844,117.294189453125,69.930778503418,498.658020019531,2075.39379882812,251.447982788086,111.235786437988,140.211807250977,207.804550170898,155.860504150391
"8","Habenaria secunda",1087648397,-20.43417,-41.79694,"gass84","Habenaria secunda",705543,156.421173095703,180.70133972168,128.490783691406,1580.42065429688,294.831573486328,23.4568462371826,71.7908172607422,838.744812011719,84.9107666015625,589.243591308594,85.9721755981445,69.9190139770508,518.801452636719,1867.06469726562,222.149856567383,87.6808547973633,134.43571472168,171.100128173828,130.600112915039
"9","Habenaria secunda",1087652804,-22.37472,-42.49528,"gass84","Habenaria secunda",727891,182.182647705078,208.616729736328,155.227386474609,1890.2001953125,299.287750244141,55.4993324279785,54.115161895752,864.1923828125,168.90397644043,705.970947265625,168.90397644043,59.0715789794922,477.703674316406,1933.126953125,242.219772338867,118.652145385742,123.639930725098,201.962966918945,155.227386474609
"10","Habenaria secunda",1087642953,-22.29822,-42.34758,"gass84","Habenaria secunda",726920,186.689529418945,213.192276000977,159.736434936523,1820.94116210938,309.917694091797,51.5072250366211,59.9745597839355,905.352172851562,157.303039550781,728.153625488281,157.557281494141,59.243278503418,478.127319335938,1928.45544433594,247.032424926758,123.173675537109,123.883346557617,207.754898071289,159.991790771484
"11","Habenaria secunda",1087642956,-22.33047,-42.43739,"gass84","Habenaria secunda",726919,186.053939819336,212.796585083008,158.491394042969,1840.39990234375,314.258361816406,49.7148590087891,61.1339797973633,921.524291992188,152.194366455078,748.460510253906,152.194366455078,61.5600547790527,483.415069580078,1953.80432128906,247.80632019043,120.559577941895,127.331565856934,207.430191040039,158.491394042969
"12","Habenaria secunda",1087642971,-22.36067,-42.51386,"gass84","Habenaria secunda",727890,176.579788208008,203.316925048828,149.030334472656,1878.35290527344,301.830017089844,54.2206268310547,55.5070533752441,879.440795898438,165.093612670898,728.476623535156,165.093612670898,61.4079551696777,483.594360351562,1956.85278320312,238.031677246094,111.133850097656,126.949142456055,197.707748413086,149.030334472656
"13","Habenaria secunda",1424213291,-22.46278,-43.02417,"cdround,gass84","Habenaria secunda",728856,172.686447143555,200.347518920898,143.023025512695,2008.92077636719,325.115051269531,51.2986869812012,57.102108001709,953.651794433594,158.740829467773,791.690185546875,158.769805908203,68.2103118896484,496.831298828125,2048.49243164062,238.08708190918,100.777778625488,137.249420166016,193.773315429688,143.070190429688
"14","Habenaria secunda",1424286182,-22.40972,-43.23083,"cdround,gass84","Habenaria secunda",727882,194.977844238281,223.288772583008,164.203186035156,1674.68762207031,295.216613769531,35.7738456726074,64.7911682128906,874.408325195312,114.801689147949,728.298217773438,114.821937561035,71.8989715576172,502.222503662109,2088.03271484375,262.880859375,119.774826049805,143.113418579102,217.847763061523,164.244354248047
"15","Habenaria secunda",1500100052,-20.71667,-42.48333,"cdround,gass84","Habenaria secunda",708451,189.209106445312,214.596878051758,159.316696166992,1339.88134765625,255.316970825195,19.1642837524414,71.6367568969727,710.189331054688,62.7331924438477,507.633483886719,63.3436088562012,72,513.897094726562,1945.41430664062,256.652923583984,116.247673034668,140.388946533203,202.965774536133,160.634048461914
"16","Habenaria secunda",1123788918,-20.40389,-41.01917,"gass84","Habenaria secunda",704580,187.159362792969,210.869689941406,161.451126098633,1467.33862304688,248.924789428711,33.6183090209961,60.9484596252441,720.2724609375,118.352752685547,485.498382568359,119.465538024902,62.1027641296387,505.60791015625,1792.96594238281,248.166320800781,125.356056213379,122.803321838379,199.23258972168,163.794860839844
"17","Habenaria secunda",1929556909,-21.97,-42.02,"gass84","Habenaria secunda",723036,218.137496948242,245.190216064453,191.063400268555,1243.84655761719,223.978363037109,29.7399253845215,62.3778915405273,625.438781738281,93.1510620117188,455.089202880859,101.177505493164,61.056468963623,479.833953857422,1938.203125,281.013488769531,153.790542602539,127.225166320801,234.868072509766,193.742111206055
"18","Habenaria secunda",1930673563,-22.4627,-42.98741,"","Habenaria secunda",728857,203.404251098633,231.500869750977,173.852096557617,1768.8916015625,282.37353515625,47.0742492675781,54.8875465393066,816.058776855469,144.797500610352,674.0947265625,144.797500610352,67.2717742919922,491.867370605469,2046.56384277344,268.986755371094,132.233947753906,136.714004516602,223.809814453125,173.852096557617
"19","Habenaria secunda",1701745091,-23.2025,-58.1689,"gass84","Habenaria secunda",737422,240.870895385742,281.096221923828,188.02033996582,1259.20617675781,155.852752685547,25.9968204498291,38.4146156311035,454.493408203125,95.3317260742188,454.493408203125,194.101669311523,84,462.262359619141,3372.92749023438,320.686645507812,139.266235351562,181.401412963867,281.096221923828,201.552062988281
"20","Habenaria secunda",1931131893,-23.56552,-46.72437,"","Habenaria secunda",741448,195.168518066406,223.969985961914,162.122192382812,1444.13037109375,226.403091430664,44.1715545654297,49.9122123718262,641.339416503906,135.639602661133,626.476318359375,155.121505737305,63.4708213806152,477.879425048828,2235.0634765625,254.880722045898,122.031478881836,132.787307739258,219.56201171875,166.740570068359
"21","Habenaria secunda",1259649579,-27.31666,-55.53333,"gass84","Habenaria secunda",785082,214.218490600586,262.621063232422,158.968185424805,1677.92333984375,179.776123046875,99.319709777832,14.7565717697144,489.51220703125,318.271331787109,438.493713378906,335.207489013672,78.0640640258789,422.091461181641,3777.76708984375,302.527679443359,116.946426391602,185.632690429688,212.470550537109,170.488082885742
"22","Habenaria secunda",1057113354,-23.23621,-58.39102,"gass84","Habenaria secunda",737420,240.770736694336,281.885772705078,187.528396606445,1223.81909179688,157.030227661133,21.8139343261719,40.1779098510742,452.094024658203,85.1006546020508,452.094024658203,187.414169311523,84,459.787994384766,3407.13256835938,321.131469726562,138.604415893555,182.709197998047,281.885772705078,201.019393920898
"23","Habenaria secunda",1056753719,-22.51028,-42.98959,"gass84","Habenaria secunda",729829,212.336654663086,240.443710327148,183.080612182617,1787.35681152344,279.748565673828,48.8252449035645,52.9843559265137,798.496826171875,149.327774047852,655.907653808594,149.327774047852,66.1084899902344,488.653961181641,2035.42199707031,277.493804931641,142.255767822266,135.233444213867,231.177032470703,183.080612182617
"24","Habenaria secunda",1056206262,-24.2318,-55.1414,"gass84,rdativ","Habenaria secunda",749123,222.61213684082,258.560455322266,174.528350830078,1542.17553710938,177.051773071289,76.1565246582031,24.1030769348145,520.50732421875,235.019592285156,445.008148193359,254.810394287109,78.0238494873047,470.922180175781,3090.91162109375,296.851806640625,130.787811279297,166.010314941406,241.707260131836,187.334838867188
"25","Habenaria secunda",137518611,-29.1,-51.1,"gass84","Habenaria secunda",806519,163.930969238281,208.489120483398,112.986236572266,1917.89978027344,195.312622070312,117.09691619873,13.0374708175659,569.329895019531,367.304412841797,504.255523681641,470.6142578125,78,442.883941650391,3502.50390625,245.700698852539,68.7770233154297,177.006484985352,138.268295288086,147.376541137695
"26","Habenaria secunda",1420239068,-28.46,-58.93,"gass84","Habenaria secunda",798649,205.400787353516,263.399932861328,142.142150878906,1298.40502929688,170.949996948242,42.0299186706543,39.1339378356934,489.125762939453,132.475830078125,401.352142333984,152.588333129883,88,417.831207275391,4362.77587890625,305.132934570312,93.5498962402344,211.637832641602,218.038497924805,153.510818481445
"27","Habenaria secunda",1420239069,-27.72,-56.73,"gass84","Habenaria secunda",789928,213.988723754883,267.600006103516,154.940551757812,1620.10009765625,171.760406494141,81.1473693847656,20.1918182373047,492.359100341797,251.947738647461,430.209381103516,295.022796630859,85,423.064758300781,4083.31640625,309,108.477386474609,200.355361938477,232.719024658203,166.008850097656
"28","Habenaria secunda",1055510311,-23.22307,-55.53826,"gass84,rdativ","Habenaria secunda",737454,215.916610717773,249.023147583008,170.006423950195,1666.82336425781,197.945892333984,42.5559005737305,34.381950378418,576.498718261719,176.661926269531,543.301147460938,181.718887329102,82,496.100402832031,2911.1416015625,287.575042724609,122.709411621094,164.997375488281,234.934494018555,182.370758056641
