"","name","key","decimalLatitude","decimalLongitude","issues","sp","cells","bio_01","bio_02","bio_03","bio_04","bio_05","bio_06","bio_07","bio_08","bio_09","bio_10","bio_11","bio_12","bio_13","bio_14","bio_15","bio_16","bio_17","bio_18","bio_19"
"1","Leandra erostrata",1840923431,-20.2475,-43.96528,"gass84","Leandra erostrata",702601,189.630599975586,211.075927734375,158.294998168945,1594.27172851562,328.726593017578,13.9748516082764,83.1459121704102,933.126342773438,43.8802108764648,705.658508300781,44.7779960632324,78.0024642944336,547.106567382812,1856.41455078125,252.126251220703,109.584854125977,142.340026855469,206.325607299805,163.777709960938
"2","Leandra erostrata",1978382134,-24.3,-49.32,"gass84","Leandra erostrata",750165,178.409530639648,210.721755981445,138.621185302734,1464.67578125,198.121978759766,68.0573272705078,33.0640335083008,580.035583496094,209.87614440918,506.675964355469,242.332260131836,78.1457672119141,510.224487304688,2654.462890625,245.870941162109,92.6870574951172,153.013000488281,208.288986206055,146.473876953125
"3","Leandra erostrata",1587291628,-20.40861,-43.92717,"gass84","Leandra erostrata",704545,195.487319946289,217.353240966797,163.981903076172,1408.10192871094,288.623596191406,13.1549577713013,82.0718307495117,827.763061523438,41.7755661010742,620.004089355469,41.8603515625,77.7457809448242,544.054809570312,1872.98608398438,258.253784179688,115.584396362305,142.678344726562,212.538986206055,164.648162841797
"4","Leandra erostrata",1563172575,-20.17222,-43.80083,"gass84","Leandra erostrata",702603,205.564529418945,227.592544555664,174.033767700195,1370.525390625,308.157104492188,10.8183212280273,87.2883453369141,836.184448242188,34.3910140991211,613.852478027344,34.7634429931641,77.035774230957,540.818420410156,1873.55920410156,268.938171386719,126.093620300293,142.957504272461,222.537994384766,176.393707275391
"5","Leandra erostrata",1949963594,-20.09528,-43.88389,"gass84","Leandra erostrata",701630,197.351303100586,218.919738769531,166.040710449219,1711.97827148438,365.7392578125,13.9811544418335,85.1110458374023,1015.40643310547,43.3673439025879,761.828430175781,44.4597816467285,77.9728088378906,545.093139648438,1859.06579589844,260.247619628906,117.41121673584,142.770904541016,214.082214355469,171.598907470703
"6","Leandra erostrata",1587297438,-20.48333,-41.82694,"gass84","Leandra erostrata",705543,156.421173095703,180.70133972168,128.490783691406,1580.42065429688,294.831573486328,23.4568462371826,71.7908172607422,838.744812011719,84.9107666015625,589.243591308594,85.9721755981445,69.9190139770508,518.801452636719,1867.06469726562,222.149856567383,87.6808547973633,134.43571472168,171.100128173828,130.600112915039
"7","Leandra erostrata",1427529704,-20.29,-41.4937,"gass84","Leandra erostrata",703603,193.979339599609,218.59733581543,166.482223510742,1305.86059570312,244.546401977539,22.4616794586182,70.6602478027344,692.917236328125,74.3648223876953,458.199798583984,79.8382034301758,68.0816879272461,514.017333984375,1864.86254882812,259.474548339844,126.827545166016,132.666244506836,206.833847045898,169.460205078125
"8","Leandra erostrata",1086915745,-23.26667,-45.95,"gass84","Leandra erostrata",738541,209.219284057617,236.792770385742,176.721435546875,1339.794921875,226.447784423828,37.7721138000488,56.0432205200195,640.423645019531,116.341110229492,606.080871582031,126.304260253906,67.0888748168945,491.952392578125,2142.66137695312,270.840087890625,134.407531738281,136.408065795898,232.086837768555,181.968124389648
"9","Leandra erostrata",1929511838,-20.49496,-43.69739,"gass84","Leandra erostrata",705520,192.56086730957,215.256561279297,161.289001464844,1430.22155761719,315.306243896484,12.4736480712891,85.503791809082,870.091369628906,40.0475158691406,651.3271484375,40.1249771118164,76.5918655395508,537.020080566406,1893.74011230469,256.407745361328,113.911239624023,142.467330932617,210.348739624023,161.843765258789
"10","Leandra erostrata",1928739509,-23.02972,-44.68455,"","Leandra erostrata",735640,209.286575317383,236.380142211914,179.279296875,2070.94409179688,286.008056640625,55.3960227966309,49.9655151367188,839.8955078125,168.765548706055,792.742736816406,168.765548706055,61.2863578796387,476.494262695312,2030.05969238281,268.581390380859,140.013259887695,128.601013183594,231.815765380859,179.279296875
"11","Leandra erostrata",1077377195,-26.38556,-51.98278,"gass84","Leandra erostrata",774433,165.491790771484,204.215744018555,117.349601745605,1989.99353027344,211.017623901367,123.964782714844,14.6065511703491,589.913330078125,392.362457275391,540.356628417969,460.239776611328,80.3547744750977,470.16650390625,3232.05859375,242.544677734375,71.4005889892578,171.097427368164,163.441467285156,128.281051635742
"12","Leandra erostrata",1077425416,-26.24833,-49.38361,"cdround,gass84","Leandra erostrata",772520,173.022445678711,211.574325561523,131.135284423828,1648.6123046875,197.456420898438,94.3249969482422,22.4955291748047,581.614440917969,313.616607666016,581.614440917969,377.280731201172,73.1014938354492,458.078277587891,2950.81884765625,247.056427001953,87.4873123168945,159.560913085938,211.574325561523,151.795272827148
"13","Leandra erostrata",1086916179,-22.53778,-45.28722,"gass84","Leandra erostrata",729801,164.796539306641,190.437683105469,131.058212280273,1569.57556152344,267.88330078125,31.3967475891113,65.0166397094727,796.855041503906,103.162666320801,707.111328125,103.78303527832,78.4915084838867,530.093627929688,2116.30712890625,229.85693359375,81.8774337768555,147.995483398438,186.576904296875,132.756942749023
"14","Leandra erostrata",1077475570,-25.55358,-49.80619,"gass84","Leandra erostrata",764739,174.685836791992,211.358276367188,132.428283691406,1326.83557128906,155.389877319336,72.05712890625,21.1543426513672,441.640899658203,235.662902832031,432.705963134766,284.991607666016,76.4442749023438,478.918090820312,2899.80200195312,246.812713623047,87.1011276245117,159.90690612793,208.514083862305,140.055023193359
"15","Leandra erostrata",1086683746,-20.455,-43.535,"gass84","Leandra erostrata",705522,189.224380493164,212.319030761719,158.11376953125,1565.1689453125,328.569915771484,13.9649925231934,82.0841217041016,890.437683105469,44.2471046447754,700.844970703125,44.2546272277832,75.9563064575195,533.425720214844,1900.82250976562,253.601287841797,111.404998779297,142.214126586914,206.953994750977,158.163726806641
"16","Leandra erostrata",1090829016,-18.81194,-48.77611,"gass84","Leandra erostrata",686019,226.35383605957,242.269439697266,200.292114257812,1475.99438476562,282.345001220703,9.96198654174805,79.8318405151367,842.223266601562,36.2064361572266,296.175537109375,36.2064361572266,82,568.988830566406,1456.263671875,291.800415039062,147.414932250977,144.119277954102,233.178253173828,200.292114257812
"17","Leandra erostrata",1089116913,-15.4344,-48.5356,"gass84","Leandra erostrata",647142,241.75910949707,258.950225830078,224.435012817383,1451.3642578125,259.946838378906,6.89528322219849,79.1600875854492,769.784362792969,21.2921600341797,320.835113525391,21.2921600341797,81,572.539184570312,1036.11047363281,313.395233154297,172.383346557617,141,240.008041381836,224.435012817383
"18","Leandra erostrata",1090829806,-15.72889,-48.89889,"gass84","Leandra erostrata",650054,220.679107666016,236.907043457031,203.488311767578,1849.45446777344,337.092193603516,9.46730613708496,79.1744995117188,985.754211425781,31.5184764862061,406.688354492188,31.5184764862061,81,578.429321289062,1008.20416259766,291.153442382812,151.089126586914,140.034927368164,219.421600341797,203.488311767578
"19","Leandra erostrata",1928773537,-20.26041,-43.3074,"gass84","Leandra erostrata",703581,219.070053100586,242.836441040039,187.790008544922,1429.29455566406,307.328552246094,13.3042268753052,82.9991302490234,821.709045410156,40.8965835571289,624.697570800781,40.8965835571289,74.98828125,525.495422363281,1914.30651855469,284.538604736328,142.22966003418,142.138214111328,232.565155029297,187.790008544922
"20","Leandra erostrata",1303589068,-21.25,-44.36667,"gass84","Leandra erostrata",715232,198.590682983398,221.942016601562,165.87043762207,1436.62622070312,277.616760253906,15.3179407119751,79.3292083740234,827.813598632812,48.2201805114746,686.5380859375,49.5648994445801,78.9877853393555,540.690185546875,1967.26342773438,262.302429199219,116.711380004883,145.693817138672,217.256149291992,172.773590087891
"21","Leandra erostrata",1424391855,-22.75917,-44.65361,"cdround,gass84","Leandra erostrata",732725,162.985595703125,189.688629150391,131.89453125,2029.96484375,315.683929443359,43.7317543029785,58.7883377075195,928.537719726562,136.910018920898,868.399963378906,137.287628173828,67.2533187866211,496.203277587891,2065.87915039062,224.654693603516,89.1112365722656,135.47233581543,185.320281982422,132.489166259766
"22","Leandra erostrata",1090160918,-25.24094,-50.00069,"gass84","Leandra erostrata",760848,179.865570068359,215.604629516602,137.14143371582,1386.64733886719,162.648422241211,69.7906036376953,22.0441093444824,462.041442871094,229.081939697266,457.969055175781,288.599822998047,78.0303573608398,489.139953613281,2884.86767578125,251.053314208984,91.2049713134766,159.953887939453,213.854751586914,145.700119018555
"23","Leandra erostrata",1426453416,-28.39772,-49.55212,"gass84","Leandra erostrata",797790,152.726547241211,193.867614746094,107.808944702148,1752.75305175781,220.621520996094,91.0019149780273,27.2928047180176,652.155029296875,288.764526367188,652.155029296875,342.896362304688,66.2893371582031,418.439788818359,3137.37768554688,226.149597167969,67.7952423095703,158.360702514648,193.867614746094,128.196228027344
"24","Leandra erostrata",1087649171,-20.33236,-43.93753,"gass84","Leandra erostrata",703573,193.245620727539,214.939971923828,161.831069946289,1404.65234375,288.862152099609,12.7194213867188,82.4301605224609,824.218811035156,40.233829498291,617.0380859375,40.7078742980957,77.9584808349609,545.470947265625,1864.78015136719,255.924179077148,113.327629089355,142.542053222656,210.151245117188,165.04182434082
"25","Leandra erostrata",1087649182,-20.04472,-44.00111,"gass84","Leandra erostrata",700656,198.771987915039,219.684127807617,167.200637817383,1552.76770019531,350.075103759766,12.2026281356812,89.7009658813477,982.876831054688,37.0662422180176,699.44921875,40.8835029602051,78.9686126708984,550.780639648438,1844.93078613281,260.925170898438,117.810531616211,143.161087036133,214.90446472168,175.664215087891
"26","Leandra erostrata",1087649202,-20.20986,-43.57431,"gass84","Leandra erostrata",702606,183.502746582031,205.959915161133,152.537567138672,1683.18017578125,373.727569580078,13.5081872940063,85.1969680786133,987.414855957031,42.5490379333496,749.603393554688,42.6456298828125,76,537.153564453125,1874.40417480469,247.255432128906,105.733726501465,141.589569091797,197.099868774414,153.213714599609
"27","Leandra erostrata",1086908318,-24.07528,-49.06806,"gass84","Leandra erostrata",747252,193.487808227539,224.726287841797,154.290390014648,1330.05859375,191.015502929688,57.8902893066406,37.0162811279297,547.386901855469,183.094497680664,512.446350097656,220.026168823242,79.2586669921875,519.217590332031,2589.375,260.376037597656,107.691528320312,152.94987487793,222.203582763672,162.393402099609
"28","Leandra erostrata",1086667460,-22.05,-44.66667,"gass84","Leandra erostrata",723976,166.445449829102,191.505401611328,133.118942260742,1782.47485351562,332.832885742188,25.8658542633057,73.3399810791016,981.3994140625,85.3791198730469,828.859619140625,85.6757888793945,79.0950088500977,534.382141113281,2070.12744140625,231.803619384766,83.3842086791992,148.442184448242,187.40348815918,134.437545776367
"29","Leandra erostrata",1213640917,-15.76222,-48.06944,"gass84","Leandra erostrata",651036,210.472442626953,225.758819580078,190.220306396484,1589.95373535156,259.96826171875,8.07784748077393,74.5684967041016,756.640441894531,26.2561836242676,372.762481689453,26.2561836242676,80.051628112793,578.872619628906,1085.02990722656,277.696014404297,138.756530761719,139.017364501953,212.77311706543,190.220306396484
"30","Leandra erostrata",1928545066,-15.20097,-67.2164,"gass84","Leandra erostrata",644002,237.108993530273,249.34391784668,213.892578125,1904.2373046875,276.907653808594,67.91650390625,46.9646797180176,817.798400878906,219.479415893555,673.346313476562,219.68928527832,55.4114990234375,555.898864746094,1272.47436523438,279.836181640625,180.042907714844,99.8127899169922,246.494583129883,214.191772460938
"31","Leandra erostrata",1889186824,-22.2221,-44.4902,"gass84","Leandra erostrata",725923,179.860229492188,206.138671875,146.853988647461,1692.69799804688,304.424224853516,24.1768646240234,71.7142105102539,893.381774902344,78.1276397705078,800.273071289062,78.1279220581055,77.9639205932617,524.868347167969,2090.41625976562,246.504119873047,98.0185241699219,148.274780273438,201.688201904297,146.854843139648
"32","Leandra erostrata",1889186830,-22.26584,-44.53496,"gass84","Leandra erostrata",726894,177.140487670898,203.375854492188,144.204116821289,1808.71130371094,302.252899169922,25.7414398193359,68.5356826782227,893.590148925781,80.3125305175781,802.619018554688,80.3407592773438,77.2281723022461,523.307983398438,2092.9794921875,243.327041625977,95.7265014648438,147.730911254883,198.956741333008,144.248016357422
"33","Leandra erostrata",1424247646,-22.44944,-44.89694,"cdround,gass84","Leandra erostrata",728834,164.41584777832,190.462478637695,131.330169677734,1653.68103027344,279.928100585938,28.0829296112061,65.9179000854492,830.389770507812,90.3551025390625,708.807067871094,90.7558746337891,77.0351791381836,524.488708496094,2101.89868164062,229.784057617188,82.8820343017578,146.874786376953,186.368881225586,131.935775756836
"34","Leandra erostrata",1931310075,-25.43168,-49.2737,"cdrep","Leandra erostrata",763773,172.899353027344,209.636108398438,132.260681152344,1525.29150390625,203.298980712891,75.6555328369141,28.6579074859619,564.405456542969,245.472961425781,532.306274414062,277.251007080078,73.4312744140625,469.864196777344,2837.400390625,244.421646118164,88.0997009277344,156.322128295898,206.041839599609,138.484039306641
"35","Leandra erostrata",1077358116,-27.9475,-49.3375,"gass84","Leandra erostrata",792932,136.089782714844,177.290573120117,91.1466751098633,1749.89929199219,214.712265014648,98.2297973632812,24.6526222229004,637.346435546875,313.229156494141,637.346435546875,381.983062744141,70.7598571777344,433.552276611328,3144.45361328125,211.999145507812,48.850643157959,163.161056518555,177.290573120117,117.936317443848
"36","Leandra erostrata",1090827913,-15.57417,-47.60722,"gass84","Leandra erostrata",648125,218.960083007812,234.901824951172,198.187728881836,1384.17297363281,262.839752197266,5.06953001022339,83.3542785644531,781.082763671875,16.0923938751221,286.965240478516,16.0923938751221,80,570.729675292969,1117.29296875,286.749725341797,146.484100341797,140.026977539062,221.475250244141,198.187728881836
"37","Leandra erostrata",1090160002,-25.20294,-49.94392,"gass84","Leandra erostrata",760849,174.168182373047,209.908340454102,131.690460205078,1495.47045898438,177.853363037109,77.1834030151367,22.409553527832,504.343688964844,251.936019897461,502.584106445312,311.371307373047,78,488.245697021484,2875.86865234375,245.297485351562,85.8619995117188,159.398773193359,208.994094848633,139.971633911133
"38","Leandra erostrata",1928849683,-15.2233,-68.6578,"gass84","Leandra erostrata",643985,153.358123779297,168.473937988281,127.929481506348,1211.60498046875,208.453704833984,16.0631999969482,64.556526184082,588.345092773438,52.5668907165527,460.60986328125,52.5668907165527,73.3580169677734,574.589904785156,1465.43774414062,204.647430419922,76.9906311035156,127.670112609863,167.216079711914,127.929481506348
"39","Leandra erostrata",1090826897,-18.43944,-51.99528,"gass84","Leandra erostrata",682093,236.61686706543,251.822555541992,209.992324829102,1830.04284667969,314.716461181641,13.1717748641968,69.8293914794922,913.008361816406,50.0133018493652,408.391540527344,50.0133018493652,81,558.625732421875,1445.74169921875,301.244018554688,155.747192382812,145.349960327148,244.118942260742,209.992324829102
"40","Leandra erostrata",1260646888,-20.28722,-64.04861,"gass84","Leandra erostrata",703332,178.98876953125,209.007446289062,134.125015258789,896.034851074219,176.735748291016,6.59585952758789,85.410026550293,508.369598388672,22.7892608642578,508.348937988281,23.8772525787354,89.4034957885742,504.286102294922,2729.02563476562,252.815078735352,75.6323394775391,177.221084594727,208.958435058594,141.08610534668
"41","Leandra erostrata",1424247660,-22.37417,-44.81694,"cdround,gass84","Leandra erostrata",727863,153.431900024414,179.323059082031,120.342636108398,1720.75329589844,313.756164550781,29.5306529998779,70.0297775268555,927.759704589844,95.92138671875,794.017883300781,96.7027130126953,77.4677047729492,526.330871582031,2100.46850585938,218.831466674805,71.6792755126953,147.168304443359,175.398300170898,121.716651916504
"42","Leandra erostrata",1424266786,-21.66667,-43.88333,"cdround,gass84","Leandra erostrata",720098,187.358200073242,213.342742919922,154.837982177734,1692.08056640625,311.730255126953,18.9201107025146,74.1378021240234,912.546081542969,63.7591705322266,791.980041503906,64.0291442871094,78.3219909667969,527.082214355469,2053.10034179688,255.083724975586,106.17325592041,148.880233764648,208.451965332031,155.755737304688
"43","Leandra erostrata",1259157629,-14.52055,-68.27194,"gass84","Leandra erostrata",636213,157.65641784668,170.53483581543,135.11003112793,1552.92663574219,228.968460083008,33.3333320617676,54.4087524414062,673.82421875,111.00365447998,589.254821777344,111.00365447998,62.3443717956543,579.8251953125,1289.65368652344,201.777053833008,94.3054656982422,107.480430603027,169.320831298828,135.11003112793
"44","Leandra erostrata",1848253452,-17.424,-44.1859,"gass84","Leandra erostrata",670522,218.419189453125,232.700302124023,191.205795288086,1412.57788085938,319.061126708984,5.49507617950439,90.8267135620117,881.695068359375,22.0371227264404,575.452514648438,23.6670818328857,79.0962371826172,569.766357421875,1497.93933105469,282.143157958984,142.793914794922,139.193557739258,225.316177368164,199.261276245117
"45","Leandra erostrata",1424435577,-13.51667,-41.93333,"cdround,gass84","Leandra erostrata",624865,204.580795288086,217.273529052734,181.576507568359,811.904479980469,156.021194458008,6.09402418136597,82.2147750854492,462.10498046875,19.6454677581787,324.375,23.7494297027588,80.9848480224609,628.442626953125,1314.61462402344,265.611267089844,136.692825317383,128.961822509766,212.959762573242,184.072677612305
"46","Leandra erostrata",1259118339,-14.59083,-68.37556,"cdround,gass84","Leandra erostrata",637184,176.68603515625,189.884735107422,153.708770751953,1287.68908691406,192.469512939453,26.6284294128418,54.5068016052246,566.038757324219,86.9792556762695,496.795104980469,86.9792556762695,63.6948051452637,578.166076660156,1310.54467773438,221.849807739258,111.713935852051,110.148315429688,188.826889038086,153.708770751953
"47","Leandra erostrata",1586074165,-20.40694,-41.83056,"cdround,gass84","Leandra erostrata",704571,170.041320800781,194.432983398438,141.932403564453,1607.66638183594,318.767364501953,22.842622756958,75.9730377197266,891.425842285156,80.9150619506836,619.86376953125,82.6707305908203,69.9849243164062,517.719543457031,1871.3310546875,235.983749389648,101.128463745117,134.814300537109,184.818664550781,144.768005371094
"48","Leandra erostrata",1094841107,-24.26972,-49.15139,"gass84","Leandra erostrata",750167,177.793640136719,210.220901489258,138.337005615234,1514.72839355469,208.641326904297,72.3105163574219,33.4656677246094,604.165649414062,222.120376586914,540.445556640625,249.384033203125,77.8067932128906,508.62548828125,2644.23413085938,245.42414855957,92.4733734130859,153,207.637619018555,145.815612792969
"49","Leandra erostrata",1928203433,-25.14558,-49.96198,"","Leandra erostrata",759877,173.675903320312,209.070007324219,131.307723999023,1712.55151367188,205.900238037109,87.532844543457,24.1291809082031,586.303894042969,281.381072998047,583.460510253906,335.487030029297,78.0045928955078,490.269775390625,2863.79760742188,244.497146606445,85.3879623413086,159.057647705078,208.093765258789,139.581588745117
"50","Leandra erostrata",1261895663,-20.45,-63.51639,"gass84","Leandra erostrata",705282,193.131469726562,225.31721496582,145.676986694336,937.779907226562,189.272811889648,7.79174852371216,85.4728317260742,541.968566894531,23.7501888275146,541.968566894531,27.8813743591309,82.8977737426758,477.827453613281,2888.5517578125,269.064270019531,95.6758499145508,173.494537353516,225.31721496582,158.920684814453
"51","Leandra erostrata",1928304595,-25.78309,-49.3264,"cdrep","Leandra erostrata",767661,169.997848510742,207.639984130859,128.968811035156,1697.892578125,217.901626586914,91.280403137207,25.2774047851562,606.189147949219,301.914123535156,602.920959472656,353.586517333984,72.7774887084961,462.512725830078,2885.49291992188,242.55403137207,85.204345703125,157.418716430664,205.165634155273,134.979644775391
"52","Leandra erostrata",1089001634,-21.502,-46.3353,"gass84","Leandra erostrata",718124,207.023712158203,227.799713134766,172.184310913086,1437.36010742188,249.159561157227,21.0532665252686,69.0522003173828,742.683349609375,67.2077407836914,658.643188476562,70.4176177978516,82.5671997070312,559.544982910156,2023.31384277344,267.244354248047,119.790084838867,147.500564575195,224.304794311523,181.924041748047
"53","Leandra erostrata",1090579695,-22.3722,-46.9422,"gass84","Leandra erostrata",727837,217.132064819336,239.954360961914,181.389068603516,1465.64758300781,247.793823242188,31.4514312744141,62.3332176208496,730.197692871094,96.3983993530273,661.757019042969,107.594146728516,82,555.158386230469,2130.494140625,277.961456298828,130.513641357422,147.422256469727,236.569274902344,192.544082641602
"54","Leandra erostrata",1929878800,-18.41575,-43.6836,"","Leandra erostrata",681220,191.968475341797,210.464859008789,162.634918212891,1270.75598144531,257.513916015625,7.85439443588257,85.6342315673828,748.598937988281,23.9214267730713,531.416870117188,23.9214267730713,78.9802627563477,569.426147460938,1689.35375976562,253.036636352539,114.461685180664,138.58805847168,205.871719360352,162.634918212891
"55","Leandra erostrata",1929797695,-20.1263,-43.49278,"cdround","Leandra erostrata",701635,187.014404296875,209.520172119141,156.160461425781,1815.48669433594,419.494018554688,14.3673458099365,87.5610961914062,1099.88940429688,45.1386222839355,813.335266113281,45.1637496948242,75.8788223266602,535.809509277344,1873.41271972656,251.095733642578,109.646987915039,141.394180297852,200.149795532227,156.336349487305
"56","Leandra erostrata",1930986345,-20.3874,-43.50583,"cdround","Leandra erostrata",704550,187.705810546875,210.559371948242,156.633010864258,1738.67944335938,381.111724853516,14.8416538238525,84.7303314208984,1015.62658691406,47.3375129699707,790.43408203125,47.3470993041992,75.9810562133789,534.550842285156,1891.78515625,251.854629516602,109.893890380859,141.980819702148,204.351135253906,156.696701049805
"57","Leandra erostrata",1930170996,-26.07228,-49.84982,"","Leandra erostrata",770570,178.247161865234,216.16813659668,135.28581237793,1472.50854492188,164.314544677734,86.1162948608398,18.5389671325684,479.101959228516,288.737152099609,479.101959228516,336.180999755859,75.9030456542969,470.206481933594,2966.51489257812,251.564086914062,90.8367156982422,161,216.16813659668,174.64680480957
"58","Leandra erostrata",1927910542,-18.42,-43.73,"gass84","Leandra erostrata",682192,200.078918457031,218.864166259766,170.432281494141,1130.98266601562,227.632629394531,7.29959106445312,84.6600875854492,653.9755859375,22.1529674530029,470.522125244141,22.1529674530029,78.9868774414062,566.416320800781,1710.54736328125,261.577392578125,122.097984313965,139.567718505859,213.972930908203,170.432281494141
"59","Leandra erostrata",1929505056,-24.25496,-49.70622,"cdrep","Leandra erostrata",750160,178.32194519043,210.334701538086,137.470764160156,1528.04541015625,209.925262451172,71.4313888549805,31.8291893005371,600.919860839844,226.775421142578,550.847839355469,278.213134765625,79.0848007202148,512.520935058594,2689.13354492188,245.800415039062,91.2742538452148,154.607986450195,208.467483520508,146.343017578125
"60","Leandra erostrata",1929065890,-24.13,-49.27,"gass84","Leandra erostrata",748221,190.347015380859,221.752960205078,150.624282836914,1463.59936523438,208.736602783203,67.0016784667969,35.8986129760742,606.236328125,209.299438476562,540.904174804688,249.714050292969,79.1838607788086,517.374450683594,2621.16967773438,257.284301757812,104.145355224609,153,219.519119262695,159.048080444336
"61","Leandra erostrata",1929580485,-23.60445,-48.41234,"cdround","Leandra erostrata",742400,199.819381713867,229.657424926758,161.816314697266,1324.09240722656,201.203460693359,42.8629837036133,46.5777778625488,574.385009765625,136.422134399414,568.750366210938,169.430892944336,81.144905090332,531.735229492188,2478.65966796875,265.959594726562,113.228546142578,153,227.009872436523,169.802352905273
"62","Leandra erostrata",1928367036,-25.3,-49.08,"gass84","Leandra erostrata",761832,174.114791870117,210.419158935547,134.384124755859,1654.97412109375,230.41096496582,77.0716323852539,33.4931411743164,635.848571777344,245.423095703125,624.427429199219,275.977355957031,71.2128601074219,464.945953369141,2791.85131835938,244.388931274414,91.2029418945312,153.164993286133,206.599945068359,139.77180480957
"63","Leandra erostrata",1928319299,-25.77359,-49.71623,"cdrep","Leandra erostrata",767656,174.968963623047,212.37060546875,132.708358764648,1468.50390625,171.925827026367,81.8848190307617,22.309684753418,491.148834228516,265.142883300781,487.274475097656,305.967010498047,75.8545379638672,472.795379638672,2922.07299804688,247.94645690918,87.9199905395508,159.992126464844,209.789428710938,140.071533203125
"64","Leandra erostrata",1927918891,-23.62797,-46.66049,"","Leandra erostrata",742421,192.480133056641,221.530212402344,160.310501098633,1632.68688964844,259.520690917969,52.0238609313965,48.6283073425293,724.149230957031,161.028884887695,706.913513183594,185.760375976562,58.3728713989258,458.934295654297,2221.92797851562,250.257965087891,123.012069702148,127.206909179688,216.903472900391,164.035797119141
"65","Leandra erostrata",1090533937,-22.9056,-47.0608,"gass84","Leandra erostrata",733668,209.699447631836,235.208572387695,173.826263427734,1356.50842285156,238.751815795898,34.1811408996582,59.8037757873535,684.854675292969,103.55216217041,617.244262695312,122.629753112793,80.9612350463867,542.667846679688,2219.27172851562,272.905944824219,123.8154296875,149.093048095703,231.66845703125,183.176742553711
"66","Leandra erostrata",1928270998,-22.68737,-45.5403,"","Leandra erostrata",731742,156.907409667969,182.802215576172,123.016860961914,1806.99694824219,310.725433349609,38.5926666259766,64.2466506958008,910.359497070312,124.983604431152,843.839538574219,126.78271484375,78.15576171875,528.907165527344,2139.29760742188,221.84553527832,74.1240081787109,147.889602661133,179.094055175781,125.567596435547
"67","Leandra erostrata",1929067346,-22.42,-44.68,"gass84","Leandra erostrata",728836,191.277145385742,217.748718261719,158.421569824219,1447.27478027344,236.058410644531,22.327169418335,65.4824905395508,701.353820800781,70.9448852539062,606.674011230469,70.9448852539062,75.8945922851562,519.140563964844,2091.69018554688,256.967315673828,110.740425109863,146.219543457031,213.137420654297,158.421569824219
"68","Leandra erostrata",1228265349,-9.1839,-74.14,"gass84","Leandra erostrata",573935,255.335235595703,261.335876464844,245.189605712891,1725.84973144531,221.296813964844,62.0955467224121,39.6430358886719,633.656860351562,197.203750610352,423.385345458984,200.137145996094,56.9249496459961,622.329772949219,517.870727539062,297.833526611328,206.51725769043,91.2722854614258,255.290969848633,248.265167236328
"69","Leandra erostrata",416965624,-26.64,-53.96,"gass84","Leandra erostrata",777325,191.528533935547,234.114105224609,140.745727539062,1977.59350585938,219.284423828125,126.890998840332,14.1721658706665,606.671081542969,391.712951660156,503.094055175781,432.879150390625,78.1620712280273,446.097259521484,3433.02124023438,273.445587158203,97.9423751831055,175.527618408203,189.97834777832,152.48828125
"70","Leandra erostrata",735470348,-22.9,-48.38333,"cdround,gass84","Leandra erostrata",733652,212.96223449707,238.414932250977,175.401290893555,1384.44274902344,222.331954956055,38.9592781066895,52.8793411254883,643.125793457031,117.384323120117,582.182312011719,140.587066650391,84,556.724487304688,2312.83203125,275.206878662109,124.354011535645,150.949310302734,235.839141845703,185.865371704102
"71","Leandra erostrata",416965628,-22.33,-64.93,"gass84","Leandra erostrata",726649,88.8904495239258,125.628860473633,33.8927116394043,793.951904296875,171.462738037109,3.53771352767944,93.8152847290039,487.086151123047,13.3223419189453,487.086151123047,13.3356018066406,111.70384979248,516.387023925781,3395.28466796875,173.583999633789,-42.7467651367188,216.314483642578,125.628860473633,34.0735473632812
"72","Leandra erostrata",416965671,-22.33,-64.72,"gass84","Leandra erostrata",726652,152.390579223633,189.7548828125,97.0733642578125,881.836975097656,192.839538574219,3.47501373291016,94.739143371582,545.004211425781,11.955512046814,545.004211425781,14.3728685379028,104.031837463379,495.737091064453,3405.14916992188,235.594085693359,25.6875381469727,209.898193359375,189.7548828125,110.356224060059
"73","Leandra erostrata",1420245029,-22.36,-64.73,"gass84","Leandra erostrata",727624,158.497604370117,196.392440795898,102.6943359375,887.413757324219,193.562225341797,4.34489965438843,93.8209838867188,544.851196289062,15.0611572265625,544.851196289062,18.0057392120361,103.459480285645,492.310882568359,3437.00341796875,242.021896362305,31.9095439910889,210.221466064453,196.392440795898,116.223480224609
