"","name","key","decimalLatitude","decimalLongitude","issues","sp","cells","bio_01","bio_02","bio_03","bio_04","bio_05","bio_06","bio_07","bio_08","bio_09","bio_10","bio_11","bio_12","bio_13","bio_14","bio_15","bio_16","bio_17","bio_18","bio_19"
"1","Neesioscyphus argillaceus",1860866628,11.12388,-74.0978,"gass84","Neesioscyphus argillaceus",336767,226.930770874023,232.48942565918,219.797256469727,1483.03576660156,258.966583251953,11.1424045562744,67.438850402832,757.706726074219,35.2687034606934,477.429077148438,54.5211486816406,36.346565246582,630.438171386719,454.579315185547,253.349426269531,195.719100952148,57.5962219238281,228.02766418457,219.858734130859
"2","Neesioscyphus argillaceus",1413052031,-4.37694,-79.03944,"gass84","Neesioscyphus argillaceus",517500,147.264526367188,154.425537109375,137.017929077148,1105.58972167969,174.501678466797,52.3412551879883,37.552864074707,487.615478515625,172.181579589844,240.841445922852,205.496658325195,75.5122451782227,659.142944335938,543.819763183594,206.260925292969,91.7141876220703,114.59400177002,147.54443359375,140.391662597656
"3","Neesioscyphus argillaceus",1099617365,-17.53404,-52.66409,"gass84","Neesioscyphus argillaceus",671393,229.564849853516,244.441879272461,206.167007446289,1512.01538085938,263.322418212891,13.060206413269,69.4707717895508,765.929504394531,43.9992218017578,343.301452636719,43.9992218017578,79.4802474975586,551.812866210938,1243.79943847656,295.558380126953,151.518020629883,143.997665405273,234.024108886719,206.167007446289
"4","Neesioscyphus argillaceus",1213643427,-19.48175,-43.43531,"gass84","Neesioscyphus argillaceus",693859,192.857315063477,214.251647949219,162.096862792969,1698.52722167969,345.486206054688,13.1552782058716,84.1855316162109,980.281372070312,39.978832244873,716.880676269531,42.6875495910645,77.0816955566406,543.933288574219,1832.76647949219,256.495086669922,114.712860107422,141.819229125977,205.752838134766,168.939636230469
"5","Neesioscyphus argillaceus",1213643126,-19.26592,-43.54756,"gass84","Neesioscyphus argillaceus",691914,192.59065246582,213.492034912109,161.927337646484,1537.23742675781,314.153564453125,11.3190574645996,85.2566833496094,892.771911621094,34.4781494140625,652.328552246094,36.9839706420898,77.8867416381836,548.628112792969,1814.74450683594,255.976196289062,113.952995300293,141.905654907227,207.065551757812,168.946807861328
"6","Neesioscyphus argillaceus",1257702453,-18.52833,-63.91889,"cdround,gass84","Neesioscyphus argillaceus",682921,144.902542114258,168.058731079102,109.825401306152,639.587158203125,122.388404846191,11.6353025436401,73.4285583496094,350.874542236328,36.7808799743652,350.109985351562,36.7808799743652,71.9270706176758,521.960144042969,2124.869140625,204.694702148438,66.9572830200195,137.746032714844,167.786193847656,109.825401306152
"7","Neesioscyphus argillaceus",1099619899,-20.43528,-41.79917,"gass84","Neesioscyphus argillaceus",705543,156.421173095703,180.70133972168,128.490783691406,1580.42065429688,294.831573486328,23.4568462371826,71.7908172607422,838.744812011719,84.9107666015625,589.243591308594,85.9721755981445,69.9190139770508,518.801452636719,1867.06469726562,222.149856567383,87.6808547973633,134.43571472168,171.100128173828,130.600112915039
"8","Neesioscyphus argillaceus",1090163991,-24.18919,-50.89556,"gass84,txmatfuz","Neesioscyphus argillaceus",749174,193.567810058594,224.506301879883,150.612274169922,1714.85949707031,204.515731811523,81.0531539916992,25.7614555358887,597.310302734375,251.088897705078,562.303466796875,299.930725097656,80,509.094879150391,2758.5703125,261.268707275391,104.25316619873,156.984725952148,224.113708496094,161.513641357422
"9","Neesioscyphus argillaceus",1424373203,-21.9375,-41.79583,"cdround,gass84","Neesioscyphus argillaceus",723039,238.031402587891,264.703247070312,212.155227661133,1210.4833984375,204.205001831055,31.312629699707,56.7340393066406,585.300720214844,99.2696228027344,397.362426757812,108.407287597656,56.3062629699707,467.071807861328,1896.27856445312,298.290893554688,177.793548583984,120.534957885742,249.918304443359,214.143539428711
"10","Neesioscyphus argillaceus",1424228705,-21.83917,-41.7475,"cdround,gass84","Neesioscyphus argillaceus",722068,238.718872070312,265.467651367188,212.693130493164,1045.29431152344,176.516403198242,24.9021167755127,57.3108825683594,508.770721435547,80.8545989990234,333.442077636719,91.6851501464844,57.562328338623,470.575225830078,1904.42785644531,299.958801269531,177.702285766602,122.299430847168,250.685287475586,214.731658935547
"11","Neesioscyphus argillaceus",1424228592,-21.965,-41.85778,"cdround,gass84,muluriiv","Neesioscyphus argillaceus",723038,221.134399414062,247.749526977539,195.007598876953,1287.52905273438,212.240829467773,32.4258003234863,56.4973449707031,614.834228515625,102.271064758301,415.784240722656,109.798957824707,57.8816719055176,472.721252441406,1903.90661621094,282.051483154297,159.614410400391,122.453880310059,233.467391967773,197.092361450195
"12","Neesioscyphus argillaceus",1424501484,-23.25028,-46.98056,"cdround,gass84","Neesioscyphus argillaceus",738529,188.582977294922,216.506042480469,153.553634643555,1527.06848144531,241.306365966797,42.5245704650879,53.5328407287598,702.243774414062,130.780395507812,655.190246582031,151.398895263672,75.1741485595703,518.126281738281,2273.77075195312,252.035095214844,106.959205627441,145.070449829102,212.720321655273,160.401260375977
"13","Neesioscyphus argillaceus",1261792502,-17.38333,-64.48333,"gass84","Neesioscyphus argillaceus",669307,237.048843383789,254.923065185547,204.198013305664,1936.19116210938,319.634704589844,53.0566673278809,57.276969909668,927.861694335938,178.789413452148,759.820495605469,178.789413452148,63,509.361694335938,1857.64526367188,289.329681396484,165.791809082031,123.527801513672,254.249588012695,204.198013305664
"14","Neesioscyphus argillaceus",1258096392,-19.0075,-65.415,"gass84","Neesioscyphus argillaceus",688736,116.401435852051,138.419738769531,80.3915710449219,692.536254882812,156.098937988281,2.33382725715637,92.339729309082,438.525421142578,7.47551393508911,318.918212890625,7.47551393508911,99.8567581176758,563.869689941406,2107.35009765625,188.671783447266,11.5248250961304,177.081024169922,136.300308227539,80.3915710449219
"15","Neesioscyphus argillaceus",1261802222,-18.13639,-60.04361,"cdround,gass84","Neesioscyphus argillaceus",678108,234.910293579102,257.34326171875,197.407760620117,1202.68969726562,180.404190063477,20.9442176818848,53.2074928283691,517.871398925781,85.481819152832,458.633697509766,94.011116027832,78,506.910247802734,2207.88647460938,302.073974609375,147.79866027832,154.255462646484,256.337097167969,210.745178222656
"16","Neesioscyphus argillaceus",1314963521,4.93722,-73.3131,"gass84","Neesioscyphus argillaceus",408705,176.145004272461,180.053466796875,168.804794311523,2547.32055664062,378.574401855469,34.6538162231445,55.951789855957,1121.96435546875,145.268463134766,280.396087646484,1121.96435546875,66.6069412231445,752.751159667969,363.245727539062,221.490676879883,133.025802612305,88.4438247680664,168.804794311523,177.310409545898
"17","Neesioscyphus argillaceus",1424226833,-27.92083,-49.075,"cdround,gass84","Neesioscyphus argillaceus",792936,171.788726806641,212.255813598633,129.055679321289,1775.49914550781,231.847518920898,92.4089584350586,29.6631908416748,690.217590332031,304.731018066406,690.217590332031,353.086547851562,61.5249404907227,405.636535644531,3041.27661132812,242.984832763672,91.3783187866211,151.635940551758,212.255813598633,146.821319580078
"18","Neesioscyphus argillaceus",1090963809,-23.96056,-46.33028,"gass84","Neesioscyphus argillaceus",746313,233.095077514648,262.664611816406,204.446273803711,2238.87817382812,296.983795166016,91.5640716552734,35.2550315856934,836.977905273438,286.002288818359,813.63232421875,313.699371337891,37.4077072143555,361.345520019531,2154.37329101562,282.205383300781,178.794647216797,103.470718383789,256.774719238281,205.200988769531
"19","Neesioscyphus argillaceus",1261625450,4,-77.05,"gass84","Neesioscyphus argillaceus",420324,261.109710693359,264.969635009766,257.258972167969,6083.90673828125,718.089599609375,279.831207275391,25.3898391723633,2106.8896484375,910.465576171875,1638.20349121094,1565.63952636719,31.3644142150879,752.308288574219,271.375549316406,283.707275390625,242.063598632812,41.6477355957031,258.965515136719,259.906768798828
"20","Neesioscyphus argillaceus",1257713423,-15.95,-67.53333,"cdround,gass84","Neesioscyphus argillaceus",652746,203.699157714844,217.912963867188,179.987106323242,1604.89819335938,246.752960205078,42.4316101074219,52.3575592041016,717.203186035156,132.023788452148,605.455322265625,132.023788452148,59.3740882873535,553.241638183594,1385.28674316406,248.956619262695,141.619506835938,107.323509216309,216.416625976562,179.987106323242
"21","Neesioscyphus argillaceus",1233566256,-15.46667,-55.81667,"cdround,gass84","Neesioscyphus argillaceus",647055,236.584228515625,250.40885925293,213.563705444336,1786.46008300781,293.360015869141,11.1410360336304,68.3464050292969,852.644897460938,42.9989700317383,366.856994628906,42.9989700317383,77,543.370361328125,1179.04650878906,298.444793701172,156.530059814453,141.766235351562,241.406661987305,213.563705444336
"22","Neesioscyphus argillaceus",1803041631,-19.16889,-43.71444,"gass84,txmatfuz","Neesioscyphus argillaceus",690940,216.706741333008,237.32341003418,185.618179321289,1140.84240722656,243.415557861328,8.0356559753418,87.7179565429688,687.770874023438,24.4636688232422,493.129608154297,25.9402236938477,78.9769744873047,551.158081054688,1817.267578125,279.862274169922,136.677810668945,143.137405395508,232.245346069336,192.968215942383
"23","Neesioscyphus argillaceus",1931115564,0.83,-66.17,"gass84","Neesioscyphus argillaceus",457390,239.356094360352,243.795547485352,232.238616943359,2308.17553710938,281.174011230469,144.101531982422,19.9595680236816,774.224548339844,445.605621337891,446.950988769531,647.339965820312,42.9871559143066,681.601196289062,362.753082275391,272.262329101562,209.64338684082,62.7944488525391,239.287551879883,243.445404052734
"24","Neesioscyphus argillaceus",1803040327,-15.77972,-47.92972,"gass84","Neesioscyphus argillaceus",651037,215.161575317383,230.694976806641,194.58528137207,1483.42224121094,247.378646850586,7.15378904342651,75.2078399658203,715.029541015625,23.641809463501,342.463012695312,23.641809463501,80,576.6455078125,1103.35998535156,282.502563476562,143.19743347168,139.198425292969,217.656997680664,194.58528137207
"25","Neesioscyphus argillaceus",1803032189,-28.05361,-51.20694,"gass84,txmatfuz","Neesioscyphus argillaceus",793882,167.570861816406,210.538558959961,116.861633300781,1673.53637695312,168.431488037109,99.8249053955078,14.0750370025635,491.901702880859,319.688018798828,465.684967041016,448.494964599609,79,447.326019287109,3450.80493164062,248.350250244141,71.3134002685547,176.991409301758,162.207534790039,182.140075683594
"26","Neesioscyphus argillaceus",1803019883,-18.75639,-44.43083,"gass84","Neesioscyphus argillaceus",686071,229.614944458008,246.783966064453,198.971160888672,1184.73669433594,254.305419921875,5.67475986480713,88.1716003417969,702.468017578125,19.4054374694824,547.977600097656,19.5416049957275,82.2417221069336,563.044921875,1716.51208496094,293.243988037109,146.905044555664,146.398941040039,240.925735473633,200.331024169922
"27","Neesioscyphus argillaceus",1091050011,-0.5,-90.5,"gass84","Neesioscyphus argillaceus",472651,229.827606201172,254.169906616211,208.982788085938,640.68310546875,129.4814453125,23.6556625366211,59.6583633422852,321.958618164062,80.3471603393555,254.185577392578,96.1290893554688,6,118.431632995605,1633.16174316406,259.954833984375,205.408538818359,54.5353393554688,247.70426940918,210.633926391602
"28","Neesioscyphus argillaceus",1803010883,-23.66389,-46.53833,"gass84","Neesioscyphus argillaceus",742422,192.892349243164,221.798919677734,161.126205444336,1570.31640625,249.80891418457,50.7387199401855,48.2474517822266,694.715698242188,157.082061767578,676.510803222656,180.059829711914,56.7845115661621,453.156921386719,2205.28784179688,249.986099243164,124.691871643066,125.266639709473,217.171005249023,164.643630981445
"29","Neesioscyphus argillaceus",1314963540,1.94028,-76.5911,"gass84","Neesioscyphus argillaceus",443657,99.9669723510742,102.245941162109,95.6334686279297,1556.08264160156,216.275634765625,68.9746627807617,34.819896697998,613.790161132812,209.284637451172,454.523101806641,223.318756103516,57,735.555419921875,208.795913696289,137.736663818359,60.6286010742188,77.0393600463867,100.80330657959,97.3957290649414
