"","name","key","decimalLatitude","decimalLongitude","issues","sp","cells","bio_01","bio_02","bio_03","bio_04","bio_05","bio_06","bio_07","bio_08","bio_09","bio_10","bio_11","bio_12","bio_13","bio_14","bio_15","bio_16","bio_17","bio_18","bio_19"
"1","Lucilia lycopodioides",1316181926,-21.502,-46.3353,"gass84","Oligandra lycopodioides",718124,207.023712158203,227.799713134766,172.184310913086,1437.36010742188,249.159561157227,21.0532665252686,69.0522003173828,742.683349609375,67.2077407836914,658.643188476562,70.4176177978516,82.5671997070312,559.544982910156,2023.31384277344,267.244354248047,119.790084838867,147.500564575195,224.304794311523,181.924041748047
"2","Lucilia lycopodioides",1090549698,-23.3556,-47.8569,"gass84","Oligandra lycopodioides",739490,206.219879150391,234.762359619141,168.905136108398,1305.92419433594,205.345153808594,38.5078506469727,50.4855766296387,591.428161621094,122.905311584473,556.633178710938,152.230682373047,81.910514831543,536.204528808594,2400.32177734375,271.802642822266,118.997245788574,152.996917724609,231.533798217773,177.109390258789
"3","Lucilia lycopodioides",1090536868,-21.7878,-46.5614,"gass84","Oligandra lycopodioides",721038,206.840179443359,227.660461425781,172.02180480957,1441.580078125,257.425689697266,20.4017105102539,71.4724731445312,769.368896484375,63.3897857666016,677.714111328125,68.2573776245117,82.1085205078125,559.980773925781,2021.63610839844,266.786499023438,119.753829956055,147.103225708008,224.110870361328,183.338180541992
"4","Lucilia lycopodioides",1090533279,-23.3053,-45.9658,"gass84","Oligandra lycopodioides",738541,209.219284057617,236.792770385742,176.721435546875,1339.794921875,226.447784423828,37.7721138000488,56.0432205200195,640.423645019531,116.341110229492,606.080871582031,126.304260253906,67.0888748168945,491.952392578125,2142.66137695312,270.840087890625,134.407531738281,136.408065795898,232.086837768555,181.968124389648
"5","Lucilia lycopodioides",1090533354,-25.095,-50.1619,"gass84","Oligandra lycopodioides",759875,181.174087524414,216.495742797852,138.183990478516,1374.46105957031,161.438064575195,68.3978729248047,22.1589317321777,457.677459716797,224.597427368164,454.299072265625,283.643249511719,78.8124542236328,491.881713867188,2882.5927734375,251.991607666016,92.0317001342773,159.947998046875,214.696136474609,146.979995727539
