"","name","key","decimalLatitude","decimalLongitude","issues","sp","cells","bio_01","bio_02","bio_03","bio_04","bio_05","bio_06","bio_07","bio_08","bio_09","bio_10","bio_11","bio_12","bio_13","bio_14","bio_15","bio_16","bio_17","bio_18","bio_19"
"1","Paepalanthus acantholimon",1946020413,-20.42993,-41.8037,"gass84","Paepalanthus acantholimon",705543,156.421173095703,180.70133972168,128.490783691406,1580.42065429688,294.831573486328,23.4568462371826,71.7908172607422,838.744812011719,84.9107666015625,589.243591308594,85.9721755981445,69.9190139770508,518.801452636719,1867.06469726562,222.149856567383,87.6808547973633,134.43571472168,171.100128173828,130.600112915039
"2","Paepalanthus acantholimon",1931157408,-20.52712,-41.90428,"cdrep","Paepalanthus acantholimon",706514,191.920867919922,217.321914672852,163.221038818359,1171.34497070312,221.003341674805,17.843786239624,71.4633255004883,622.022094726562,63.4557609558105,436.458099365234,64.241096496582,70,511.808807373047,1914.93395996094,259.061614990234,122.094688415527,136.997039794922,208.372497558594,165.23893737793
