"","name","key","decimalLatitude","decimalLongitude","issues","sp","cells","bio_01","bio_02","bio_03","bio_04","bio_05","bio_06","bio_07","bio_08","bio_09","bio_10","bio_11","bio_12","bio_13","bio_14","bio_15","bio_16","bio_17","bio_18","bio_19"
"1","Passiflora miersii",1213529513,-21.71864,-44.97647,"gass84","Passiflora miersii",720085,194.571594238281,217.978988647461,160.939315795898,1423.21875,270.387542724609,19.1069316864014,75.1001586914062,798.735473632812,60.838809967041,668.776611328125,62.9555130004883,80,543.679870605469,2015.51574707031,257.832916259766,110.738403320312,147.053436279297,213.712631225586,166.043930053711
"2","Passiflora miersii",1303591431,-18.23808,-53.30528,"gass84","Passiflora miersii",679161,229.938262939453,244.347457885742,204.398208618164,1618.45202636719,291.669982910156,10.5316944122314,71.9433746337891,855.917846679688,42.3716278076172,317.506317138672,42.3716278076172,80.5061492919922,562.868286132812,1361.78356933594,292.930023193359,149.959594726562,143.145477294922,236.461318969727,204.398208618164
"3","Passiflora miersii",1837840308,-23.51667,-46.18333,"gass84","Passiflora miersii",741454,193.998077392578,222.276351928711,162.603240966797,1735.404296875,278.345245361328,59.5915946960449,48.8144149780273,770.303466796875,181.227416992188,751.988403320312,195.198989868164,56.7942390441895,454.905975341797,2157.16650390625,250.975814819336,126.167114257812,124.819778442383,217.489868164062,166.278472900391
"4","Passiflora miersii",1077476990,-23.87797,-52.74275,"gass84","Passiflora miersii",745264,212.657531738281,243.264663696289,168.223495483398,1541.21655273438,182.185623168945,68.8535385131836,26.9255619049072,542.966796875,216.846328735352,542.966796875,247.590957641602,77.986572265625,496.432006835938,2799.166015625,280.022735595703,123.217277526855,156.999877929688,243.264663696289,180.787170410156
"5","Passiflora miersii",1587297952,-19.5803,-40.3215,"gass84","Passiflora miersii",694869,247.726745605469,269.538177490234,225.035339355469,1218.46960449219,190.109191894531,35.2006759643555,55.3358116149902,563.483764648438,114.956527709961,390.094970703125,145.038055419922,48.2662773132324,473.563201904297,1646.28381347656,298.662231445312,196.820327758789,101.850914001465,258.645050048828,232.948776245117
"6","Passiflora miersii",1087184143,-19.03528,-43.70139,"gass84","Passiflora miersii",688996,194.33464050293,214.254470825195,163.76220703125,1382.53552246094,286.055847167969,9.76409149169922,86.2348480224609,810.091064453125,29.5897064208984,595.670593261719,30.221736907959,78.9888305664062,557.218017578125,1779.73303222656,256.70654296875,114.918395996094,141.898391723633,208.851196289062,168.074142456055
"7","Passiflora miersii",1123823808,-20.16417,-40.30667,"gass84","Passiflora miersii",701673,247.259582519531,269.241851806641,225.132400512695,1347.76171875,204.905868530273,51.3811874389648,45.5359153747559,608.833251953125,170.651077270508,349.440338134766,181.002304077148,43.4276885986328,452.161590576172,1640.66809082031,295.679321289062,199.661911010742,96.0005722045898,256.626068115234,233.2294921875
"8","Passiflora miersii",1424419580,-21.55,-44.27722,"cdround,gass84","Passiflora miersii",718149,197.037857055664,221.405517578125,164.172256469727,1514.56457519531,288.769195556641,17.2107982635498,76.2922744750977,853.917846679688,58.3343505859375,711.130187988281,58.3509864807129,79,535.549743652344,2009.076171875,262.263977050781,115.051445007324,147.163024902344,216.72102355957,164.287322998047
"9","Passiflora miersii",1087653844,-20.10389,-44.03556,"gass84","Passiflora miersii",701628,199.592681884766,220.705291748047,168.073913574219,1373.5234375,291.627105712891,11.9124345779419,84.7862396240234,825.801696777344,36.5019760131836,607.228698730469,38.7744255065918,78.6221694946289,549.409545898438,1850.79162597656,261.825927734375,118.745079040527,142.930908203125,215.82405090332,176.347427368164
"10","Passiflora miersii",1090578939,-22.4361,-46.8217,"gass84","Passiflora miersii",728811,214.722717285156,238.074508666992,179.295440673828,1442.1552734375,247.35270690918,32.3985786437988,62.7412185668945,731.909240722656,99.9420013427734,657.020202636719,110.786499023438,81.0155410766602,551.177062988281,2130.0302734375,276.146728515625,128.777465820312,147.11164855957,234.554458618164,189.979797363281
"11","Passiflora miersii",1087508482,-22.8,-48.73333,"gass84","Passiflora miersii",732676,207.414978027344,232.391311645508,169.856979370117,1297.40515136719,212.744186401367,35.8574714660645,53.5674324035645,611.161865234375,108.134071350098,566.527770996094,131.406448364258,84,557.288635253906,2304.994140625,269.830749511719,119.035911560059,151,230.066131591797,180.585510253906
"12","Passiflora miersii",1077471908,-24.10308,-52.30281,"gass84","Passiflora miersii",748185,204.3642578125,235.651748657227,159.745498657227,1694.46826171875,198.908386230469,81.6140441894531,25.8439769744873,587.619750976562,247.040496826172,587.619750976562,291.781890869141,78.7851943969727,498.227783203125,2829.36401367188,272.207672119141,114.115852355957,158.084243774414,235.651748657227,171.919677734375
"13","Passiflora miersii",1929817464,-19.1382,-39.96117,"","Passiflora miersii",690013,248.560485839844,268.466827392578,227.312362670898,1255.68322753906,184.556045532227,43.1141815185547,47.3050918579102,547.394409179688,142.869430541992,368.069702148438,162.924728393555,34.6215667724609,422.625610351562,1526.30163574219,289.681793212891,207.815048217773,81.9336547851562,257.327789306641,236.247253417969
"14","Passiflora miersii",1123809474,-19.34833,-40.55111,"gass84","Passiflora miersii",692922,237.697998046875,260.116943359375,212.961791992188,1037.81262207031,175.259170532227,25.9724216461182,61.6929626464844,518.939819335938,87.8556900024414,360.576904296875,106.883499145508,58.9859504699707,505.933502197266,1716.41870117188,295.459259033203,178.926193237305,116.538604736328,255.813125610352,220.834411621094
"15","Passiflora miersii",1090574389,-22.7775,-47.2958,"gass84","Passiflora miersii",732693,215.484756469727,240.486129760742,179.185592651367,1361.96655273438,236.876525878906,33.7774620056152,59.8896293640137,677.578857421875,102.376556396484,627.79833984375,119.126937866211,82.260612487793,548.805114746094,2230.59130859375,278.267669677734,128.22639465332,150.012466430664,237.252456665039,189.152770996094
"16","Passiflora miersii",1123816859,-19.79722,-40.775,"gass84","Passiflora miersii",697779,225.419998168945,248.874435424805,199.659164428711,1153.88696289062,206.676620483398,25.9864730834961,67.4433975219727,601.06591796875,87.8348617553711,384.159027099609,92.4821395874023,63.7747192382812,513.121032714844,1780.390625,287.185150146484,162.789337158203,124.305023193359,237.243041992188,202.890396118164
"17","Passiflora miersii",1424169546,-22.35194,-44.50389,"cdround,gass84","Passiflora miersii",727866,195.972106933594,222.573364257812,163.130905151367,1783.00695800781,294.490203857422,26.0568237304688,67.6751098632812,868.90869140625,80.5277481079102,783.192810058594,80.5277481079102,76.148811340332,518.741271972656,2090.86840820312,262.175018310547,115.41919708252,146.759231567383,217.828903198242,163.130905151367
"18","Passiflora miersii",1099304224,-19.91456,-43.64978,"gass84","Passiflora miersii",698717,199.205459594727,221.091705322266,168.052825927734,1519.01965332031,351.589080810547,11.4202308654785,89.5984344482422,937.358825683594,34.9765243530273,675.792297363281,36.0645637512207,77.0587005615234,541.605712890625,1856.9912109375,262.783966064453,120.259658813477,142.554092407227,212.60905456543,172.874862670898
"19","Passiflora miersii",1090573274,-22.81701,-47.04906,"gass84","Passiflora miersii",732696,213.700393676758,238.64762878418,177.775512695312,1330.52355957031,235.098648071289,32.9349594116211,60.5978050231934,675.438415527344,99.4316864013672,610.931274414062,116.947631835938,81.2328720092773,545.526672363281,2204.02172851562,276.485565185547,127.463768005371,149.02409362793,235.221817016602,187.589492797852
"20","Passiflora miersii",1087631238,-16.04972,-40.85106,"gass84","Passiflora miersii",654038,220.10139465332,238.951217651367,194.09797668457,968.787231445312,171.894470214844,24.218355178833,62.3439254760742,509.489624023438,83.5117721557617,293.598388671875,102.881774902344,70.3743515014648,561.950256347656,1632.29272460938,281.725555419922,156.402908325195,125.365905761719,232.006256103516,196.228286743164
"21","Passiflora miersii",1090571239,-22.06208,-45.64,"cdround,gass84","Passiflora miersii",723965,203.773254394531,227.029052734375,169.435180664062,1343.22021484375,246.18034362793,20.9984035491943,70.9608840942383,726.5380859375,67.6734085083008,643.211669921875,71.1975021362305,80,545.230285644531,2052.947265625,266.349975585938,118.997871398926,147.013397216797,222.936111450195,179.228286743164
"22","Passiflora miersii",1090571256,-19.7122,-42.7322,"gass84","Passiflora miersii",696784,227.227798461914,251.039978027344,196.662246704102,1390.62512207031,295.880249023438,11.3462677001953,82.8657302856445,826.845031738281,38.4050941467285,536.273254394531,38.4139137268066,73,520.669555664062,1896.12475585938,293.303405761719,153.267715454102,139.937774658203,239.933975219727,196.709274291992
"23","Passiflora miersii",1090569717,-15.7797,-47.9297,"gass84","Passiflora miersii",651037,215.161575317383,230.694976806641,194.58528137207,1483.42224121094,247.378646850586,7.15378904342651,75.2078399658203,715.029541015625,23.641809463501,342.463012695312,23.641809463501,80,576.6455078125,1103.35998535156,282.502563476562,143.19743347168,139.198425292969,217.656997680664,194.58528137207
"24","Passiflora miersii",1123805376,-19.76083,-40.73944,"gass84","Passiflora miersii",697780,231.735610961914,255.013137817383,206.260223388672,1240.82690429688,215.741760253906,30.0342788696289,64.4738082885742,630.911010742188,101.785545349121,409.797760009766,110.866554260254,61.965274810791,508.65673828125,1768.59399414062,292.241363525391,170.492477416992,121.790893554688,243.292556762695,212.850006103516
"25","Passiflora miersii",1090569888,-22.3708,-41.7869,"gass84","Passiflora miersii",727899,243.453598022461,268.180999755859,220.831329345703,1466.37377929688,220.17301940918,55.3194999694824,44.533031463623,636.207153320312,170.987075805664,439.751892089844,178.059371948242,40.7346878051758,417.88818359375,1765.6826171875,292.552673339844,195.005767822266,97.5129013061523,253.182571411133,221.268463134766
"26","Passiflora miersii",1424277943,-20.39667,-41.73555,"cdround,gass84","Passiflora miersii",704572,192.227447509766,217.152038574219,163.968688964844,1501.39367675781,281.496673583984,22.9037227630615,71.6518783569336,799.183959960938,80.371223449707,553.069641113281,83.5085525512695,69.3319396972656,513.659545898438,1889.13403320312,258.652618408203,123.453132629395,135.18701171875,205.366195678711,167.38525390625
"27","Passiflora miersii",1135864196,-20.41667,-41.8,"gass84","Passiflora miersii",705543,156.421173095703,180.70133972168,128.490783691406,1580.42065429688,294.831573486328,23.4568462371826,71.7908172607422,838.744812011719,84.9107666015625,589.243591308594,85.9721755981445,69.9190139770508,518.801452636719,1867.06469726562,222.149856567383,87.6808547973633,134.43571472168,171.100128173828,130.600112915039
"28","Passiflora miersii",1234542399,-18.86667,-43.23333,"gass84","Passiflora miersii",687058,219.918930053711,241.480682373047,189.276260375977,1328.09741210938,282.566497802734,10.2281703948975,84.6906127929688,791.869445800781,31.5288181304932,528.557800292969,35.0804824829102,76.1090545654297,540.982482910156,1827.47888183594,284.13330078125,143.405822753906,140.694030761719,232.253875732422,195.535491943359
"29","Passiflora miersii",1234542310,-18.90306,-43.65722,"gass84","Passiflora miersii",687053,205.135711669922,225.149429321289,174.61506652832,1471.78552246094,291.952026367188,11.1017999649048,82.8562545776367,832.421875,33.8486557006836,615.397705078125,33.8807716369629,78.7390899658203,555.447509765625,1778.62866210938,267.781280517578,126.330093383789,141.477020263672,216.895950317383,174.852233886719
"30","Passiflora miersii",1090563311,-23.1864,-46.8842,"gass84","Passiflora miersii",737558,198.886596679688,226.314315795898,163.944534301758,1310.19152832031,215.565826416016,35.714038848877,55.313606262207,624.770324707031,110.158416748047,578.386291503906,132.309127807617,75.8228225708008,521.772399902344,2244.46728515625,262.251068115234,116.962738037109,145.304733276367,222.401901245117,171.294128417969
"31","Passiflora miersii",1585962382,-23.39,-47.24,"gass84","Passiflora miersii",739498,199.274429321289,227.733108520508,163.54411315918,1342.18212890625,225.71354675293,38.2404174804688,54.106143951416,643.582702636719,120.499298095703,588.577819824219,147.981155395508,77.0323638916016,521.29248046875,2323.87890625,263.713073730469,115.956008911133,147.762954711914,224.035980224609,170.64469909668
"32","Passiflora miersii",1090563136,-22.7419,-46.9014,"gass84","Passiflora miersii",731726,210.17594909668,234.750869750977,174.56005859375,1374.63195800781,236.833068847656,33.0105590820312,60.2599563598633,689.828247070312,102.204040527344,619.080688476562,116.498481750488,80.9623107910156,545.78173828125,2174.32592773438,272.686553955078,124.533561706543,148.047454833984,231.213592529297,184.499984741211
"33","Passiflora miersii",1090560073,-22.2528,-47.8228,"gass84","Passiflora miersii",726855,211.276214599609,233.688232421875,174.924667358398,1450.779296875,234.855514526367,29.8761005401611,60.1085433959961,687.921691894531,93.1015625,646.373657226562,102.752113342285,84,558.156555175781,2162.0458984375,272.730773925781,122.949615478516,149.976226806641,230.864807128906,186.691864013672
"34","Passiflora miersii",1585334461,-20.71667,-42.48333,"cdround,gass84","Passiflora miersii",708451,192.864990234375,218.274780273438,163.109100341797,1376.810546875,262.531616210938,18.9498081207275,72.1675491333008,733.679443359375,62.8240013122559,528.544494628906,62.8923797607422,71.993049621582,513.192932128906,1938.15356445312,260.253601074219,120.419204711914,139.781463623047,206.448852539062,163.371139526367
"35","Passiflora miersii",1090560121,-22.6122,-46.7006,"gass84","Passiflora miersii",730756,198.063400268555,222.317810058594,162.724975585938,1619.75427246094,270.504699707031,38.2639350891113,59.7229118347168,799.208374023438,120.857872009277,715.669189453125,131.169387817383,80.5285110473633,545.863952636719,2152.17651367188,260.356353759766,112.874717712402,147.389556884766,218.869247436523,172.367568969727
"36","Passiflora miersii",1090570219,-19.3911,-40.0722,"gass84","Passiflora miersii",692928,249.025421142578,269.440643310547,227.615463256836,1223.59069824219,180.132415771484,41.3256607055664,48.3856506347656,538.235778808594,136.405975341797,367.569030761719,157.373001098633,36.9208793640137,431.919158935547,1551.76220703125,291.872192382812,206.449615478516,85.4758911132812,257.918579101562,236.405899047852
"37","Passiflora miersii",1094727178,-22.81667,-47.1,"gass84","Passiflora miersii",732695,214.839065551758,239.787322998047,178.723663330078,1359.66052246094,237.613861083984,33.8833999633789,60.1693000793457,681.9736328125,102.338790893555,624.037658691406,119.011581420898,81.7671737670898,546.670288085938,2213.10815429688,277.582000732422,128.190200805664,149.399353027344,236.423248291016,188.657745361328
"38","Passiflora miersii",1090560092,-23.6039,-46.9192,"gass84","Passiflora miersii",742417,187.103607177734,216.557968139648,153.265914916992,1705.72973632812,265.723510742188,57.3492317199707,47.1116828918457,752.073852539062,177.094360351562,717.55517578125,204.550048828125,66.2083282470703,484.436706542969,2301.98754882812,248.323699951172,111.682899475098,136.622314453125,212.449066162109,157.944549560547
"39","Passiflora miersii",1090560079,-22.5325,-52.1675,"gass84","Passiflora miersii",729718,234.424591064453,258.390106201172,193.501876831055,1458.84729003906,203.019378662109,49.425178527832,36.5395088195801,589.018371582031,175.864273071289,589.018371582031,178.912719726562,82.14794921875,529.325439453125,2458.68896484375,299.46484375,143.726669311523,155.967056274414,258.390106201172,204.519165039062
"40","Passiflora miersii",1621080455,-21.502,-46.3353,"gass84","Passiflora miersii",718124,207.023712158203,227.799713134766,172.184310913086,1437.36010742188,249.159561157227,21.0532665252686,69.0522003173828,742.683349609375,67.2077407836914,658.643188476562,70.4176177978516,82.5671997070312,559.544982910156,2023.31384277344,267.244354248047,119.790084838867,147.500564575195,224.304794311523,181.924041748047
"41","Passiflora miersii",1702645552,-22.3722,-46.9422,"gass84","Passiflora miersii",727837,217.132064819336,239.954360961914,181.389068603516,1465.64758300781,247.793823242188,31.4514312744141,62.3332176208496,730.197692871094,96.3983993530273,661.757019042969,107.594146728516,82,555.158386230469,2130.494140625,277.961456298828,130.513641357422,147.422256469727,236.569274902344,192.544082641602
"42","Passiflora miersii",1090560106,-23.4628,-46.5333,"gass84","Passiflora miersii",740478,195.311874389648,223.612411499023,162.566284179688,1471.89782714844,230.467849731445,43.8741111755371,51.6677436828613,654.497192382812,133.59895324707,642.679565429688,146.419616699219,63.9326286315918,481.213653564453,2201.31127929688,255.061737060547,122.266189575195,132.826248168945,219.370880126953,167.499298095703
"43","Passiflora miersii",1929961579,-18.41575,-43.6836,"","Passiflora miersii",681220,191.968475341797,210.464859008789,162.634918212891,1270.75598144531,257.513916015625,7.85439443588257,85.6342315673828,748.598937988281,23.9214267730713,531.416870117188,23.9214267730713,78.9802627563477,569.426147460938,1689.35375976562,253.036636352539,114.461685180664,138.58805847168,205.871719360352,162.634918212891
"44","Passiflora miersii",1927836858,-18.55,-43.55,"gass84","Passiflora miersii",683166,199.066268920898,218.62548828125,169.192016601562,1542.1328125,331.329742431641,11.331690788269,86.0728073120117,917.39794921875,34.1358757019043,634.304931640625,34.1395149230957,78,559.464538574219,1740.46350097656,261.342681884766,121.6943359375,139.727981567383,210.500457763672,169.217468261719
"45","Passiflora miersii",1090560109,-21.4792,-47.5508,"gass84","Passiflora miersii",717138,219.116744995117,237.88786315918,184.435440063477,1451.77612304688,262.868072509766,21.2311973571777,72.7851028442383,771.09814453125,66.106071472168,713.531372070312,76.854362487793,84,554.194519042969,1994.35107421875,282.579986572266,131.467620849609,151.00212097168,235.019424438477,197.677062988281
"46","Passiflora miersii",1930898380,-20.95743,-43.80661,"cdrep","Passiflora miersii",711351,194.060943603516,217.838439941406,162.19255065918,1667.37487792969,312.238189697266,16.9001941680908,77.1005859375,922.153076171875,54.2062339782715,752.183837890625,54.2062339782715,77,533.263549804688,1948.13391113281,258.936096191406,114.667961120605,144.129943847656,212.966583251953,162.19255065918
"47","Passiflora miersii",1090560099,-23.5475,-46.6361,"gass84","Passiflora miersii",741449,194.855087280273,223.616943359375,162.266616821289,1503.06005859375,239.052215576172,45.873161315918,50.6746482849121,672.428283691406,141.064208984375,662.064514160156,160.628631591797,61.881103515625,472.704681396484,2218.18017578125,253.944488525391,123.074272155762,130.874038696289,219.178802490234,166.635787963867
"48","Passiflora miersii",1090560115,-22.5647,-47.4017,"gass84","Passiflora miersii",729776,216.02522277832,239.653106689453,179.636627197266,1417.50073242188,236.647903442383,31.5084457397461,60.1428031921387,684.472839355469,94.9830093383789,637.174438476562,107.185333251953,83,556.083801269531,2190.26806640625,277.336883544922,128.20573425293,149.054351806641,236.503540039062,190.585189819336
"49","Passiflora miersii",1055438326,-19.69024,-44.0965,"gass84","Passiflora miersii",696767,212.279754638672,232.482864379883,180.688354492188,1507.02648925781,314.441741943359,11.2500104904175,86.3790283203125,894.525756835938,35.4840927124023,672.2119140625,39.0354843139648,80.3044891357422,556.813903808594,1827.16931152344,274.308258056641,129.938369750977,144.079238891602,227.587844848633,189.582763671875
"50","Passiflora miersii",1090562905,-20.8192,-49.5211,"gass84","Passiflora miersii",709338,230.926742553711,247.220718383789,198.635437011719,1342.826171875,241.677993774414,20.7104721069336,69.4789428710938,703.626953125,63.107494354248,405.057495117188,75.6063995361328,84,550.650390625,1856.68835449219,296.897552490234,145.100204467773,151.980392456055,244.380813598633,213.727355957031
"51","Passiflora miersii",1585962359,-22.1515,-47.0812,"gass84","Passiflora miersii",724920,217.372863769531,239.041168212891,181.757080078125,1480.12731933594,255.792938232422,28.7784576416016,65.7074737548828,759.669677734375,87.2834930419922,680.903869628906,98.1435928344727,82.3116455078125,558.653747558594,2100.2763671875,277.711944580078,130.098831176758,147.567230224609,235.817840576172,193.544403076172
"52","Passiflora miersii",1946020639,-21.38778,-42.93583,"gass84","Passiflora miersii",716221,216.307281494141,243.488967895508,184.866195678711,1514.08740234375,295.719787597656,20.7654628753662,78.1700744628906,882.233642578125,63.2666893005371,680.127319335938,66.1178207397461,75.3289794921875,512.829467773438,2041.92810058594,286.013397216797,138.970855712891,147.087936401367,237.696380615234,189.309799194336
"53","Passiflora miersii",1095182057,-20.66058,-42.45131,"gass84","Passiflora miersii",707479,186.548080444336,211.705612182617,156.733337402344,1372.66455078125,285.624145507812,19.3517913818359,76.8533096313477,772.902282714844,60.9901657104492,548.123657226562,61.5173301696777,72,514.972045898438,1932.99731445312,253.598342895508,113.885307312012,139.755722045898,200.160293579102,158.593460083008
"54","Passiflora miersii",1087672143,-10.59333,-36.94,"gass84","Passiflora miersii",590905,262.075561523438,275.526214599609,243.018615722656,1362.86315917969,249.6171875,34.8746757507324,64.0400085449219,696.257385253906,109.624053955078,264.180419921875,419.565979003906,48.4710578918457,565.8701171875,1205.11022949219,305.291809082031,219.633514404297,85.5902709960938,263.120697021484,272.562469482422
"55","Passiflora miersii",1087667298,-10.75806,-37.315,"gass84","Passiflora miersii",592845,256.206970214844,269.848236083984,236.827392578125,1479.23388671875,251.208694458008,48.017261505127,57.7489852905273,696.534423828125,145.074569702148,300.484039306641,466.197052001953,52.367359161377,579.451049804688,1229.84631347656,301.906860351562,211.543884277344,90.3882141113281,256.632263183594,268.412963867188
"56","Passiflora miersii",1257589719,-23.56694,-46.72028,"cdround,gass84","Passiflora miersii",741448,195.168518066406,223.969985961914,162.122192382812,1444.13037109375,226.403091430664,44.1715545654297,49.9122123718262,641.339416503906,135.639602661133,626.476318359375,155.121505737305,63.4708213806152,477.879425048828,2235.0634765625,254.880722045898,122.031478881836,132.787307739258,219.56201171875,166.740570068359
"57","Passiflora miersii",1257589671,-21.96667,-46.78333,"cdround,gass84","Passiflora miersii",722979,211.874862670898,233.273086547852,176.562515258789,1359.65380859375,233.552581787109,25.3636512756348,64.5722885131836,687.424133300781,80.6241836547852,596.4443359375,85.8940353393555,82.0038833618164,559.192565917969,2070.84008789062,271.988128662109,124.94359588623,147.077743530273,229.95263671875,188.345718383789
"58","Passiflora miersii",1257589650,-21.78778,-46.56139,"cdround,gass84","Passiflora miersii",721038,184.685760498047,206.054702758789,149.744171142578,1726.25756835938,304.287475585938,30.0956039428711,67.2259292602539,897.730041503906,95.6374053955078,772.195190429688,100.812911987305,82,560.463256835938,2053.90112304688,244.444976806641,97.9168319702148,146.393264770508,202.896514892578,160.309356689453
"59","Passiflora miersii",1257589632,-21.21667,-43.76667,"cdround,gass84","Passiflora miersii",714267,192.098342895508,216.675262451172,160.0693359375,1336.97131347656,254.723480224609,14.3777542114258,77.8437576293945,761.422424316406,46.8992652893066,610.728576660156,46.9206199645996,77.1039962768555,530.875915527344,1982.65209960938,257.883087158203,112.182792663574,145.741744995117,211.716842651367,160.211685180664
"60","Passiflora miersii",1257589690,-22.58333,-43.41667,"cdround,gass84","Passiflora miersii",729823,209.759475708008,237.975769042969,179.486236572266,1391.734375,223.381912231445,30.9768714904785,58.2417831420898,658.693359375,98.6275024414062,569.5712890625,103.934143066406,67.5507965087891,490.550415039062,2068.8369140625,274.952514648438,137.278961181641,137.673904418945,232.39924621582,183.167144775391
"61","Passiflora miersii",1257589660,-22.90278,-43.2075,"cdround,gass84","Passiflora miersii",733714,243.114395141602,270.480041503906,216.619445800781,1275.42529296875,181.466690063477,43.2721519470215,44.388069152832,530.677673339844,133.441543579102,479.234039306641,151.874816894531,50.0747108459473,439.500152587891,1941.12927246094,298.33935546875,184.487884521484,113.816261291504,264.217987060547,218.872207641602
"62","Passiflora miersii",1257589677,-22.36667,-42.75,"cdround,gass84","Passiflora miersii",727888,181.720550537109,209.077270507812,152.981979370117,1704.64013671875,273.429595947266,46.3869018554688,55.7516860961914,798.700378417969,141.390914916992,667.975463867188,141.390914916992,65.5081634521484,491.586090087891,2005.70739746094,245.863677978516,112.633354187012,133.221481323242,203.154144287109,152.981979370117
"63","Passiflora miersii",1257589715,-21.86667,-50.46667,"cdround,gass84","Passiflora miersii",721963,230.211822509766,249.915954589844,193.345336914062,1340.34521484375,221.331069946289,31.396146774292,57.1022796630859,649.1064453125,95.7824935913086,588.61328125,116.839965820312,84,546.120483398438,2156.77368164062,294.65185546875,141.622909545898,153,248.983337402344,207.36994934082
