"","name","key","decimalLatitude","decimalLongitude","issues","sp","cells","bio_01","bio_02","bio_03","bio_04","bio_05","bio_06","bio_07","bio_08","bio_09","bio_10","bio_11","bio_12","bio_13","bio_14","bio_15","bio_16","bio_17","bio_18","bio_19"
"1","Phlegmariurus christii",1848115510,-20.42861,-41.80056,"gass84","Phlegmariurus christii",705543,156.421173095703,180.70133972168,128.490783691406,1580.42065429688,294.831573486328,23.4568462371826,71.7908172607422,838.744812011719,84.9107666015625,589.243591308594,85.9721755981445,69.9190139770508,518.801452636719,1867.06469726562,222.149856567383,87.6808547973633,134.43571472168,171.100128173828,130.600112915039
"2","Phlegmariurus christii",1423907069,-22.3875,-44.67639,"cdround,gass84","Phlegmariurus christii",727864,137.482666015625,163.386688232422,104.592437744141,1835.47802734375,332.256866455078,30.0873260498047,69.7357864379883,977.336120605469,96.8602447509766,846.34765625,97.3168106079102,76.9923858642578,525.359802246094,2103.5009765625,202.786697387695,56.1572151184082,146.612548828125,159.650207519531,105.29541015625
"3","Phlegmariurus christii",1413723692,-20.73333,-42.45,"gass84","Phlegmariurus christii",708451,189.209106445312,214.596878051758,159.316696166992,1339.88134765625,255.316970825195,19.1642837524414,71.6367568969727,710.189331054688,62.7331924438477,507.633483886719,63.3436088562012,72,513.897094726562,1945.41430664062,256.652923583984,116.247673034668,140.388946533203,202.965774536133,160.634048461914
"4","Phlegmariurus christii",1086684530,-22.277,-43.017,"gass84","Phlegmariurus christii",726912,188.601181030273,216.750747680664,157.871490478516,1697.79504394531,300.689910888672,35.4626197814941,65.5869598388672,889.333923339844,112.978164672852,720.519836425781,112.983222961426,72.5382232666016,504.764465332031,2081.25463867188,257.003540039062,113.317031860352,143.671691894531,211.256271362305,157.889236450195
"5","Phlegmariurus christii",1086666157,-22.38,-44.66306,"gass84","Phlegmariurus christii",727865,148.146560668945,174.254150390625,115.408790588379,2059.47485351562,357.61181640625,31.8396739959717,68.8485488891602,1051.81604003906,100.060852050781,934.570617675781,100.108428955078,76.5778427124023,523.074340820312,2100.38745117188,213.633743286133,67.3051605224609,146.403732299805,170.352340698242,115.485260009766
"6","Phlegmariurus christii",1424249661,-20.51611,-41.08361,"cdround,gass84","Phlegmariurus christii",706523,208.096572875977,232.735046386719,182.030136108398,1273.6640625,207.579528808594,31.8918571472168,56.4220390319824,603.014526367188,109.544021606445,399.900543212891,114.947128295898,61.6535682678223,497.527099609375,1831.20458984375,269.9228515625,146.006942749023,123.902435302734,220.304885864258,184.063079833984
"7","Phlegmariurus christii",1802863291,-22.32475,-44.73094,"gass84","Phlegmariurus christii",726892,151.968246459961,177.719573974609,118.871536254883,1827.00732421875,342.192199707031,29.8577575683594,72.2828140258789,1001.59838867188,96.4226226806641,875.369689941406,96.9043807983398,77.9203033447266,527.738952636719,2096.60595703125,217.511795043945,69.9191055297852,147.58903503418,173.808547973633,119.956100463867
"8","Phlegmariurus christii",1424269640,-22.28555,-44.61333,"cdround,gass84","Phlegmariurus christii",726893,150.273406982422,176.185531616211,117.295639038086,1966.85266113281,352.165130615234,30.2369327545166,70.5903015136719,1035.07495117188,96.5476684570312,901.606018066406,97.0648956298828,77.6134033203125,526.278564453125,2097.341796875,215.981826782227,68.6102905273438,147.310440063477,172.281036376953,118.145301818848
"9","Phlegmariurus christii",1424269441,-22.25,-44.56667,"cdround,gass84","Phlegmariurus christii",726894,177.140487670898,203.375854492188,144.204116821289,1808.71130371094,302.252899169922,25.7414398193359,68.5356826782227,893.590148925781,80.3125305175781,802.619018554688,80.3407592773438,77.2281723022461,523.307983398438,2092.9794921875,243.327041625977,95.7265014648438,147.730911254883,198.956741333008,144.248016357422
"10","Phlegmariurus christii",1802942316,-22.8,-45.91667,"gass84","Phlegmariurus christii",732709,156.48356628418,182.22785949707,122.267440795898,1753.77429199219,281.495666503906,38.3200874328613,58.9153518676758,832.744201660156,121.819717407227,771.913024902344,132.925689697266,78.0394058227539,530.763427734375,2155.04345703125,220.600784301758,73.6491241455078,146.975250244141,178.685333251953,129.505432128906
"11","Phlegmariurus christii",1802942327,-20.5,-41.75,"gass84","Phlegmariurus christii",706516,197.183227539062,222.683227539062,168.858169555664,1433.73974609375,253.55012512207,23.5214500427246,67.4145278930664,730.084106445312,84.1236877441406,508.556396484375,86.0060958862305,69.207649230957,510.151275634766,1910.92431640625,264.147277832031,128.293914794922,135.831512451172,210.434967041016,171.700180053711
"12","Phlegmariurus christii",1321908745,-22.458,-43.042,"gass84","Phlegmariurus christii",728856,172.686447143555,200.347518920898,143.023025512695,2008.92077636719,325.115051269531,51.2986869812012,57.102108001709,953.651794433594,158.740829467773,791.690185546875,158.769805908203,68.2103118896484,496.831298828125,2048.49243164062,238.08708190918,100.777778625488,137.249420166016,193.773315429688,143.070190429688
"13","Phlegmariurus christii",1500156500,-22,-42.5,"gass84","Phlegmariurus christii",724003,209.321014404297,237.042510986328,180.380325317383,1414.8291015625,255.571929931641,27.5537338256836,68.4877777099609,745.899230957031,83.6588745117188,576.566101074219,86.213737487793,67.5363998413086,493.962677001953,2009.82165527344,275.803955078125,139.099029541016,136.686553955078,231.321014404297,183.467041015625
"14","Phlegmariurus christii",1500169105,-18,-44,"gass84","Phlegmariurus christii",677329,201.574661254883,218.360107421875,172.949722290039,1184.11047363281,269.52587890625,4.51009941101074,92.5073547363281,752.632385253906,18.1013889312744,511.272155761719,18.1013889312744,79.9342498779297,574.661682128906,1612.63818359375,262.917022705078,124.228698730469,138.683929443359,213.538116455078,172.949722290039
