"","name","key","decimalLatitude","decimalLongitude","issues","sp","cells","bio_01","bio_02","bio_03","bio_04","bio_05","bio_06","bio_07","bio_08","bio_09","bio_10","bio_11","bio_12","bio_13","bio_14","bio_15","bio_16","bio_17","bio_18","bio_19"
"1","Phlegmariurus mollicomus",1303583049,-21.71239,-43.89692,"gass84","Phlegmariurus mollicomus",720098,187.358200073242,213.342742919922,154.837982177734,1692.08056640625,311.730255126953,18.9201107025146,74.1378021240234,912.546081542969,63.7591705322266,791.980041503906,64.0291442871094,78.3219909667969,527.082214355469,2053.10034179688,255.083724975586,106.17325592041,148.880233764648,208.451965332031,155.755737304688
"2","Phlegmariurus mollicomus",1802865729,-20.68269,-42.40319,"gass84","Phlegmariurus mollicomus",708452,202.068450927734,227.868804931641,172.138305664062,1259.13562011719,235.208038330078,18.2845211029053,70.5352172851562,658.637329101562,59.9074516296387,476.582489013672,59.915843963623,72,511.063323974609,1955.85705566406,270.018096923828,129.333892822266,140.762359619141,215.792877197266,172.172866821289
"3","Phlegmariurus mollicomus",1077402125,-27.18139,-49.23139,"cdround,gass84","Phlegmariurus mollicomus",784186,187.915466308594,228.577651977539,144.074310302734,1499.81433105469,195.115768432617,85.171012878418,26.8967876434326,543.5732421875,269.359710693359,543.5732421875,299.616119384766,72.4556427001953,442.298156738281,3088.88671875,264.586853027344,100.838706970215,163.798385620117,228.577651977539,165.889678955078
"4","Phlegmariurus mollicomus",1802862863,-18.23558,-43.33436,"gass84","Phlegmariurus mollicomus",679280,194.812316894531,214.148056030273,165.460525512695,1283.04235839844,284.628784179688,7.96701049804688,89.8603210449219,793.262573242188,25.0245037078857,527.3857421875,26.8988933563232,77.0553512573242,561.093322753906,1712.13317871094,256.784027099609,119.233421325684,137.512741088867,208.292709350586,170.740951538086
"5","Phlegmariurus mollicomus",1424413239,-22.29944,-44.60556,"cdround,gass84","Phlegmariurus mollicomus",726893,150.273406982422,176.185531616211,117.295639038086,1966.85266113281,352.165130615234,30.2369327545166,70.5903015136719,1035.07495117188,96.5476684570312,901.606018066406,97.0648956298828,77.6134033203125,526.278564453125,2097.341796875,215.981826782227,68.6102905273438,147.310440063477,172.281036376953,118.145301818848
"6","Phlegmariurus mollicomus",1802858596,-18.01539,-42.75411,"gass84,txmatfuz","Phlegmariurus mollicomus",677343,205.913208007812,226.603073120117,176.575424194336,1156.89184570312,240.601226806641,9.10838985443115,84.9138870239258,691.535766601562,32.683219909668,438.223052978516,33.6998138427734,74.5003356933594,547.487548828125,1763.57592773438,269.221099853516,133.128219604492,135.992340087891,217.888412475586,179.476028442383
"7","Phlegmariurus mollicomus",1802858317,-20.06536,-42.07386,"gass84","Phlegmariurus mollicomus",700680,198.602111816406,222.805099487305,169.603210449219,1391.54211425781,281.496276855469,16.5859260559082,77.7994689941406,786.283874511719,57.1040954589844,540.687316894531,57.1073608398438,70.8163528442383,517.942626953125,1874.67822265625,264.63232421875,128.372528076172,136.274826049805,211.376953125,169.619552612305
"8","Phlegmariurus mollicomus",1707576048,1.67444,-76.07389,"cdround,gass84","Phlegmariurus mollicomus",446580,179.730453491211,183.857940673828,171.159225463867,2338.21728515625,266.325775146484,109.370246887207,23.0751152038574,777.533325195312,370.104278564453,632.383117675781,682.947082519531,53.9924736022949,706.344482421875,425.432556152344,217.506164550781,141.133193969727,76.3157043457031,179.920227050781,181.906829833984
"9","Phlegmariurus mollicomus",1055515323,8.50719,-80.10267,"gass84","Phlegmariurus mollicomus",366827,242.590896606445,249.292098999023,237.318344116211,1763.73693847656,289.024444580078,12.6957206726074,64.1903305053711,808.133666992188,42.5353469848633,112.031616210938,798.731750488281,29.0541725158691,639.633728027344,388.941192626953,269.119598388672,223.684478759766,45.4333076477051,237.925170898438,247.255722045898
"10","Phlegmariurus mollicomus",1802856512,-16.41389,-40.04928,"gass84,txmatfuz","Phlegmariurus mollicomus",657936,212.103363037109,229.984603881836,188.886306762695,1177.07336425781,173.940292358398,39.5201530456543,45.9060897827148,493.803009033203,137.105804443359,390.68408203125,163.475677490234,62.9492073059082,555.322814941406,1525.31091308594,268.02392578125,154.682189941406,113.423561096191,223.067749023438,189.413360595703
"11","Phlegmariurus mollicomus",1802853687,-22.77972,-44.36039,"gass84","Phlegmariurus mollicomus",732728,175.303695678711,202.114639282227,145.153564453125,2078.31127929688,324.824768066406,50.3092041015625,57.5989418029785,946.88720703125,155.571197509766,894.994079589844,156.800079345703,62.6665229797363,482.195739746094,2034.64514160156,235.130569458008,105.169288635254,129.933685302734,197.458511352539,146.047576904297
"12","Phlegmariurus mollicomus",1322950469,9.3303,-70.0714,"gass84","Phlegmariurus mollicomus",358200,215.632736206055,222.613433837891,210.198623657227,1694.42333984375,240.268417358398,34.3110275268555,51.0693359375,690.910095214844,106.929290771484,385.334594726562,655.242797851562,62.4226722717285,661.574829101562,421.206512451172,264.222534179688,169.759017944336,94.4660034179688,214.355651855469,214.237167358398
"13","Phlegmariurus mollicomus",1259122973,-15.03333,-68.48333,"cdround,gass84","Phlegmariurus mollicomus",642043,203.436401367188,217.890579223633,178.902420043945,1018.23614501953,163.438858032227,18.1188297271729,59.5489234924316,469.179901123047,54.9536781311035,387.676452636719,54.9536781311035,68.7340316772461,571.420654296875,1403.34240722656,252.260559082031,132.041687011719,120.305694580078,216.450820922852,178.902420043945
"14","Phlegmariurus mollicomus",1253658666,10.08667,-84.0775,"cdround","Phlegmariurus mollicomus",348312,165.777816772461,172.41552734375,161.659149169922,4048.30419921875,472.358551025391,132.134826660156,38.6096305847168,1394.349609375,400.12255859375,500.602844238281,782.063659667969,37.9819641113281,628.429138183594,382.906829833984,200.909393310547,140.160797119141,60.8082733154297,164.808029174805,168.273040771484
"15","Phlegmariurus mollicomus",1303603323,-22.272,-44.4654,"gass84","Phlegmariurus mollicomus",726895,189.26708984375,215.765289306641,156.361938476562,1667.86450195312,294.557342529297,24.4169692993164,70.2975845336914,863.938720703125,78.3285751342773,767.116455078125,78.3285751342773,76.927848815918,521.137084960938,2092.07275390625,255.770294189453,108.15811920166,147.594451904297,211.111022949219,156.361938476562
"16","Phlegmariurus mollicomus",45302330,10.26,-84.26,"gass84,txmathi","Phlegmariurus mollicomus",346365,200.000122070312,208.141708374023,195.372833251953,4403.3154296875,531.198425292969,134.415451049805,40.9253730773926,1567.45080566406,409.885375976562,431.352905273438,1188.20385742188,38.0288009643555,610.9931640625,445.905456542969,237.383056640625,174.636291503906,62.8336524963379,198.881820678711,203.779098510742
"17","Phlegmariurus mollicomus",1424413235,-22.25,-44.56667,"cdround,gass84","Phlegmariurus mollicomus",726894,177.140487670898,203.375854492188,144.204116821289,1808.71130371094,302.252899169922,25.7414398193359,68.5356826782227,893.590148925781,80.3125305175781,802.619018554688,80.3407592773438,77.2281723022461,523.307983398438,2092.9794921875,243.327041625977,95.7265014648438,147.730911254883,198.956741333008,144.248016357422
"18","Phlegmariurus mollicomus",1258265806,-1.46666,-77.98333,"gass84","Phlegmariurus mollicomus",483493,216.610748291016,221.631591796875,205.039215087891,4071.12475585938,460.140747070312,259.592559814453,17.1310348510742,1311.103515625,791.552795410156,930.490478515625,1228.3857421875,68.1646194458008,632.674560546875,585.032958984375,268.802947998047,161.06037902832,107.714683532715,210.701797485352,219.684356689453
"19","Phlegmariurus mollicomus",1802852018,-23.65481,-45.9595,"gass84","Phlegmariurus mollicomus",742429,189.37971496582,217.854553222656,159.157165527344,1894.1591796875,279.249664306641,71.9324493408203,41.1284713745117,786.550598144531,221.36457824707,736.881286621094,241.873153686523,51.4043998718262,433.453796386719,2131.13940429688,244.22119140625,125.695259094238,118.531295776367,212.941864013672,162.058364868164
"20","Phlegmariurus mollicomus",45301071,10.31,-84.71,"gass84,txmathi","Phlegmariurus mollicomus",346360,193.644577026367,204.227462768555,187.987442016602,3446.66381835938,491.894073486328,65.543701171875,54.8460388183594,1445.16711425781,213.621475219727,249.209167480469,1169.90637207031,37.7296905517578,582.064025878906,558.317504882812,233.823028564453,169.017272949219,64.8334579467773,188.15202331543,199.941299438477
"21","Phlegmariurus mollicomus",1259707354,8.75111,-82.25111,"cdround,gass84","Phlegmariurus mollicomus",363885,189.219009399414,198.03874206543,183.783615112305,2784.41040039062,342.449554443359,66.1111526489258,42.8134994506836,1011.24774169922,234.370880126953,445.700653076172,851.121948242188,42.7285346984863,604.767822265625,482.299835205078,230.146484375,159.604156494141,70.5467987060547,186.119400024414,191.242950439453
"22","Phlegmariurus mollicomus",1259921178,8.85,-82.48333,"gass84","Phlegmariurus mollicomus",362911,171.279357910156,179.716720581055,166.207672119141,3204.81958007812,376.813690185547,97.2913818359375,36.5379104614258,1084.01440429688,326.764678955078,593.206787109375,992.120361328125,42.4259948730469,610.335815429688,462.092376708984,211.255630493164,141.799499511719,69.3806991577148,168.697265625,172.865127563477
"23","Phlegmariurus mollicomus",1261095856,0.91666,-78.11666,"gass84","Phlegmariurus mollicomus",456275,158.048126220703,160.783126831055,154.817962646484,1878.66613769531,221.819030761719,70.9286422729492,31.8834476470947,646.718017578125,220.068771362305,512.222290039062,614.702941894531,46.0559730529785,734.128112792969,212.723052978516,191.196090698242,128.427017211914,62.7966461181641,156.444396972656,158.926422119141
"24","Phlegmariurus mollicomus",1261117225,-0.38333,-77.83333,"gass84","Phlegmariurus mollicomus",470859,159.058090209961,163.146469116211,149.963882446289,1676.44995117188,203.472732543945,70.969123840332,25.7184371948242,565.578735351562,245.002151489258,489.253234863281,335.232727050781,59.8667755126953,644.939514160156,457.1220703125,204.470321655273,111.719177246094,92.762565612793,162.644989013672,152.069259643555
"25","Phlegmariurus mollicomus",1261117409,-0.38333,-77.85,"gass84","Phlegmariurus mollicomus",470858,138.938919067383,142.746520996094,130.25390625,1780.00512695312,223.086776733398,74.8906097412109,26.9212341308594,626.266418457031,252.090118408203,562.111267089844,338.203826904297,59.9205513000488,646.839965820312,433.277038574219,184.027465820312,91.2836837768555,92.7427062988281,142.288177490234,132.124237060547
"26","Phlegmariurus mollicomus",1260733249,-3.5666,-79.88333,"gass84","Phlegmariurus mollicomus",507770,243.341110229492,248.819396972656,238.713623046875,928.930053710938,209.752838134766,10.9485387802124,93.3952331542969,614.743408203125,35.1314010620117,512.511352539062,71.6422119140625,65.7208709716797,706.575561523438,337.945343017578,288.982818603516,195.969985961914,93.04541015625,248.086395263672,241.040283203125
"27","Phlegmariurus mollicomus",1260733647,7.6,-72.21666,"gass84","Phlegmariurus mollicomus",377614,234.638671875,240.86408996582,226.401016235352,2022.39208984375,266.241790771484,46.1971702575684,46.5954818725586,775.033325195312,144.658020019531,676.843994140625,188.587692260742,67.6830139160156,677.293395996094,460.842437744141,282.986877441406,183.134414672852,99.7369689941406,234.140197753906,228.529510498047
"28","Phlegmariurus mollicomus",1500157004,9.8333,-83.75,"gass84","Phlegmariurus mollicomus",352204,203.211868286133,209.377532958984,198.964340209961,4015.03076171875,485.740386962891,150.432250976562,34.9697952270508,1423.86633300781,458.786224365234,560.764892578125,852.838928222656,40.6012992858887,638.06396484375,371.633911132812,238.990951538086,175.359680175781,63.5766296386719,201.04426574707,205.332077026367
"29","Phlegmariurus mollicomus",1500171453,10.5,-84,"gass84","Phlegmariurus mollicomus",344425,260.258666992188,266.261444091797,254.557434082031,3637.39672851562,446.333648681641,130.054534912109,33.0588645935059,1273.98400878906,418.182708740234,741.94482421875,856.377319335938,34.2144012451172,622.744384765625,394.243927001953,291.196136474609,236.249816894531,54.9441680908203,261.553039550781,261.171875
"30","Phlegmariurus mollicomus",1503352684,-0.42613,-79.0087,"cdround,gass84","Phlegmariurus mollicomus",471816,153.439331054688,158.692718505859,150.279022216797,2636.99365234375,435.106536865234,54.0848999023438,65.2886962890625,1292.61755371094,179.654815673828,1291.42919921875,206.363632202148,59.8404922485352,687.47265625,306.045318603516,194.436584472656,107.380882263184,87.0655517578125,158.460998535156,150.318389892578
"31","Phlegmariurus mollicomus",1503352668,-0.43236,-78.97811,"cdround,gass84","Phlegmariurus mollicomus",471817,174.643768310547,179.669647216797,171.597640991211,1669.05737304688,262.017150878906,42.2377815246582,58.1431427001953,777.625671386719,135.81965637207,774.950317382812,186.13444519043,60.5021133422852,680.661376953125,286.68798828125,217.227783203125,128.335647583008,88.8897171020508,179.447067260742,171.95915222168
"32","Phlegmariurus mollicomus",1802864233,-20.48089,-41.82939,"gass84","Phlegmariurus mollicomus",705543,156.421173095703,180.70133972168,128.490783691406,1580.42065429688,294.831573486328,23.4568462371826,71.7908172607422,838.744812011719,84.9107666015625,589.243591308594,85.9721755981445,69.9190139770508,518.801452636719,1867.06469726562,222.149856567383,87.6808547973633,134.43571472168,171.100128173828,130.600112915039
