"","name","key","decimalLatitude","decimalLongitude","issues","sp","cells","bio_01","bio_02","bio_03","bio_04","bio_05","bio_06","bio_07","bio_08","bio_09","bio_10","bio_11","bio_12","bio_13","bio_14","bio_15","bio_16","bio_17","bio_18","bio_19"
"1","Symplocos falcata",1455395541,-22.66889,-45.54917,"gass84","Symplocos falcata",731742,156.907409667969,182.802215576172,123.016860961914,1806.99694824219,310.725433349609,38.5926666259766,64.2466506958008,910.359497070312,124.983604431152,843.839538574219,126.78271484375,78.15576171875,528.907165527344,2139.29760742188,221.84553527832,74.1240081787109,147.889602661133,179.094055175781,125.567596435547
"2","Symplocos falcata",1423937628,-22.35417,-42.76056,"cdround,gass84","Symplocos falcata",727887,183.339096069336,210.981262207031,154.157684326172,1687.73718261719,275.079895019531,45.5596885681152,56.7801322937012,802.149353027344,139.95149230957,663.737121582031,139.95149230957,67.187126159668,494.705169677734,2026.00402832031,248.558853149414,112.817886352539,135.756042480469,204.424255371094,154.157684326172
"3","Symplocos falcata",1913578471,-23.0744,-44.9597,"gass84","Symplocos falcata",735637,192.141387939453,219.201812744141,160.70866394043,1429.98754882812,223.254699707031,37.2028770446777,55.3493232727051,658.235961914062,117.947387695312,600.824584960938,118.734451293945,67.4502868652344,494.609100341797,2079.85302734375,254.224182128906,117.861198425293,136.371368408203,214.460067749023,161.607620239258
"4","Symplocos falcata",1828874066,-22.12722,-44.73889,"gass84","Symplocos falcata",724948,157.01985168457,182.303436279297,123.752380371094,1827.02355957031,333.060852050781,26.7655811309814,71.6549758911133,981.145141601562,87.4007949829102,836.398498535156,87.6537475585938,79,532.707885742188,2081.42749023438,222.454895019531,74.1791152954102,148.17741394043,178.300888061523,124.692916870117
"5","Symplocos falcata",1264698252,-22.50917,-45.28,"gass84","Symplocos falcata",729801,164.796539306641,190.437683105469,131.058212280273,1569.57556152344,267.88330078125,31.3967475891113,65.0166397094727,796.855041503906,103.162666320801,707.111328125,103.78303527832,78.4915084838867,530.093627929688,2116.30712890625,229.85693359375,81.8774337768555,147.995483398438,186.576904296875,132.756942749023
"6","Symplocos falcata",1086916023,-23.15,-45.81667,"gass84","Symplocos falcata",736599,213.284591674805,240.416915893555,180.060760498047,1343.95007324219,217.865142822266,32.1489601135254,58.2455368041992,632.476745605469,104.301055908203,599.749633789062,106.074882507324,72.2128067016602,508.154968261719,2138.36303710938,277.056213378906,134.826141357422,142.196868896484,235.718185424805,182.111907958984
"7","Symplocos falcata",1837841200,-20.48028,-41.83306,"gass84","Symplocos falcata",705543,156.421173095703,180.70133972168,128.490783691406,1580.42065429688,294.831573486328,23.4568462371826,71.7908172607422,838.744812011719,84.9107666015625,589.243591308594,85.9721755981445,69.9190139770508,518.801452636719,1867.06469726562,222.149856567383,87.6808547973633,134.43571472168,171.100128173828,130.600112915039
"8","Symplocos falcata",1889186972,-20.2133,-41.4014,"gass84","Symplocos falcata",702632,192.588607788086,216.92805480957,165.333465576172,1474.72436523438,285.910888671875,24.1691646575928,72.9635467529297,808.457580566406,80.6237487792969,525.033935546875,82.634407043457,67.8805923461914,515.740539550781,1849.34704589844,257.626586914062,125.864883422852,131.720840454102,205.322570800781,167.292022705078
"9","Symplocos falcata",1087652648,-22.60908,-45.34686,"gass84","Symplocos falcata",730772,155.953170776367,181.771957397461,122.130989074707,1856.24743652344,315.882598876953,38.4127502441406,65.1527862548828,934.529357910156,123.879211425781,852.807250976562,124.912185668945,78.2215347290039,529.147766113281,2128.71313476562,220.964553833008,73.1309432983398,147.993850708008,177.953842163086,123.249732971191
"10","Symplocos falcata",1424377622,-22.7325,-44.61944,"cdround,gass84","Symplocos falcata",731753,173.592895507812,200.340682983398,142.005355834961,1975.87390136719,333.93408203125,41.0655097961426,63.702766418457,973.24560546875,131.099731445312,900.791931152344,131.531021118164,69.6668319702148,502.292816162109,2074.6787109375,236.566207885742,97.8883590698242,138.636596679688,195.81071472168,142.779510498047
"11","Symplocos falcata",1424451318,-22.36667,-44.81667,"cdround,gass84","Symplocos falcata",727863,153.431900024414,179.323059082031,120.342636108398,1720.75329589844,313.756164550781,29.5306529998779,70.0297775268555,927.759704589844,95.92138671875,794.017883300781,96.7027130126953,77.4677047729492,526.330871582031,2100.46850585938,218.831466674805,71.6792755126953,147.168304443359,175.398300170898,121.716651916504
"12","Symplocos falcata",1089104899,-22.22499,-44.49044,"gass84","Symplocos falcata",725923,179.860229492188,206.138671875,146.853988647461,1692.69799804688,304.424224853516,24.1768646240234,71.7142105102539,893.381774902344,78.1276397705078,800.273071289062,78.1279220581055,77.9639205932617,524.868347167969,2090.41625976562,246.504119873047,98.0185241699219,148.274780273438,201.688201904297,146.854843139648
"13","Symplocos falcata",1899744849,-23.24,-45.11,"gass84","Symplocos falcata",737579,177.366302490234,204.615631103516,145.951049804688,1715.42456054688,281.946380615234,53.8193740844727,54.7505645751953,809.722351074219,165.925369262695,759.239135742188,172.121185302734,65.6055526733398,488.410217285156,2096.10473632812,238.68879699707,104.349456787109,134.316070556641,200.113571166992,149.267593383789
"14","Symplocos falcata",1291012092,-20.20986,-43.57431,"gass84","Symplocos falcata",702606,183.502746582031,205.959915161133,152.537567138672,1683.18017578125,373.727569580078,13.5081872940063,85.1969680786133,987.414855957031,42.5490379333496,749.603393554688,42.6456298828125,76,537.153564453125,1874.40417480469,247.255432128906,105.733726501465,141.589569091797,197.099868774414,153.213714599609
"15","Symplocos falcata",1123819909,-20.52056,-41.10056,"gass84","Symplocos falcata",706523,208.096572875977,232.735046386719,182.030136108398,1273.6640625,207.579528808594,31.8918571472168,56.4220390319824,603.014526367188,109.544021606445,399.900543212891,114.947128295898,61.6535682678223,497.527099609375,1831.20458984375,269.9228515625,146.006942749023,123.902435302734,220.304885864258,184.063079833984
"16","Symplocos falcata",1086906415,-22.69167,-45.24111,"gass84","Symplocos falcata",731746,213.567199707031,239.904907226562,180.113342285156,1440.71752929688,227.055267333984,26.691125869751,61.9720802307129,661.584838867188,84.3438262939453,602.374755859375,84.3438262939453,76.7996215820312,521.659973144531,2105.99682617188,279.209808349609,132.017227172852,147.263580322266,235.231063842773,180.113342285156
"17","Symplocos falcata",1424268017,-20.42583,-43.49667,"cdround,gass84","Symplocos falcata",705523,198.05110168457,221.465606689453,166.899978637695,1666.30358886719,347.127288818359,15.180251121521,81.820671081543,936.764953613281,47.8026580810547,747.239318847656,47.813362121582,75.5140609741211,530.400512695312,1909.39794921875,262.849426269531,120.534301757812,142.36767578125,215.153701782227,166.969024658203
"18","Symplocos falcata",1089085952,-22,-46,"gass84","Symplocos falcata",723961,190.987579345703,213.792236328125,156.472183227539,1571.96276855469,272.112945556641,27.3321914672852,67.6996307373047,808.248168945312,85.2573852539062,723.837951660156,86.0206680297852,80.9757919311523,549.402526855469,2061.22094726562,252.655426025391,105.848648071289,146.99674987793,210.141952514648,159.105087280273
"19","Symplocos falcata",1424168291,-22.46389,-43.01333,"cdround,gass84","Symplocos falcata",728856,172.686447143555,200.347518920898,143.023025512695,2008.92077636719,325.115051269531,51.2986869812012,57.102108001709,953.651794433594,158.740829467773,791.690185546875,158.769805908203,68.2103118896484,496.831298828125,2048.49243164062,238.08708190918,100.777778625488,137.249420166016,193.773315429688,143.070190429688
"20","Symplocos falcata",1123817985,-22.1675,-44.39444,"gass84","Symplocos falcata",725924,180.03190612793,206.425598144531,147.12532043457,1818.52160644531,320.635650634766,25.4903373718262,70.6997222900391,940.446105957031,82.0150146484375,839.541748046875,82.0301284790039,77.6899337768555,523.547302246094,2092.72290039062,246.840927124023,98.5169982910156,148.231903076172,201.954666137695,147.159545898438
"21","Symplocos falcata",1086906488,-20.21667,-47.43333,"gass84","Symplocos falcata",702559,213.208206176758,228.634857177734,181.720199584961,1901.22961425781,349.728393554688,21.7269039154053,72.897575378418,1022.32507324219,68.9984283447266,890.690124511719,71.4036712646484,84,559.939392089844,1769.47607421875,277.247039794922,127.79077911377,149.463150024414,225.801040649414,193.711791992188
"22","Symplocos falcata",1899842388,-22.88356,-46.024,"cdround,gass84","Symplocos falcata",733680,159.752334594727,185.80061340332,125.654121398926,1796.08569335938,291.945709228516,40.7525024414062,58.3700256347656,850.986389160156,126.08325958252,789.184326171875,144.955642700195,77.1734848022461,527.96435546875,2162.47607421875,223.820083618164,77.610237121582,146.170883178711,182.248153686523,132.217010498047
"23","Symplocos falcata",1087478539,-22.87078,-46.4375,"gass84","Symplocos falcata",733675,196.668075561523,222.240982055664,161.953521728516,1422.35632324219,221.275344848633,36.7027473449707,54.2211685180664,654.403747558594,113.070838928223,587.608215332031,125.156089782715,78.0450820922852,533.304626464844,2161.66674804688,260.011901855469,113.7275390625,146.237487792969,218.436874389648,170.41064453125
"24","Symplocos falcata",1087478508,-22.88556,-46.21778,"gass84","Symplocos falcata",733678,182.435394287109,208.216918945312,148.102111816406,1568.08764648438,257.589569091797,38.160816192627,57.2262382507324,751.186828613281,116.825813293457,693.518737792969,137.866348266602,77.3986968994141,529.827941894531,2155.96752929688,246.168365478516,100.079238891602,146.112701416016,204.46516418457,156.192581176758
"25","Symplocos falcata",1090567236,-22.7553,-46.1447,"gass84","Symplocos falcata",732707,177.799255371094,203.349304199219,143.485931396484,1551.25939941406,265.964233398438,36.143238067627,60.1985321044922,774.072998046875,111.898536682129,714.969543457031,135.138244628906,78.1874847412109,532.491638183594,2148.00634765625,241.645751953125,94.9171524047852,146.865325927734,199.649322509766,151.379058837891
"26","Symplocos falcata",1930829744,-22.73385,-45.59033,"cdrep","Symplocos falcata",731741,163.280899047852,189.091918945312,129.287780761719,1636.78466796875,280.274383544922,35.0472526550293,63.379467010498,825.096496582031,113.744689941406,761.292846679688,117.450721740723,78.274787902832,529.848815917969,2138.091796875,228.125427246094,80.3791809082031,147.954727172852,185.350234985352,133.922805786133
"27","Symplocos falcata",1090570100,-23.69582,-46.95677,"gass84","Symplocos falcata",743389,182.464691162109,212.248657226562,148.953262329102,1934.99658203125,294.221374511719,68.2117156982422,44.6511840820312,830.840454101562,210.20751953125,792.461730957031,238.299270629883,63.411865234375,473.680145263672,2309.98071289062,242.794403076172,108.931602478027,133.841156005859,208.088745117188,152.987686157227
"28","Symplocos falcata",1086933533,-22.72611,-45.95889,"gass84","Symplocos falcata",731737,160.846160888672,186.225311279297,126.496925354004,1680.01965332031,278.557556152344,36.3234443664551,60.9906806945801,826.791931152344,115.697555541992,758.939086914062,127.188209533691,78.6200332641602,533.767395019531,2144.87719726562,224.865661621094,77.5143737792969,147.074661254883,182.733123779297,134.407577514648
"29","Symplocos falcata",1087609457,-22.71389,-46.93667,"gass84","Symplocos falcata",731725,213.642013549805,238.135025024414,177.878768920898,1355.11047363281,234.15657043457,32.5219688415527,60.346363067627,679.708618164062,99.6612854003906,613.649047851562,114.2421875,81.1060943603516,546.934509277344,2181.57104492188,276.081695556641,127.621887207031,148.457794189453,234.674774169922,187.887023925781
"30","Symplocos falcata",1570748333,-23.56667,-48,"gass84","Symplocos falcata",741433,200.646011352539,230.169448852539,163.259552001953,1365.73657226562,207.600936889648,43.213939666748,48.1773872375488,598.953002929688,137.174850463867,577.963500976562,166.098892211914,81.0267486572266,530.212951660156,2441.16235351562,266.904632568359,114.202735900879,152.944396972656,226.942077636719,170.84912109375
"31","Symplocos falcata",1424206915,-22.25,-44.56667,"cdround,gass84","Symplocos falcata",726894,177.140487670898,203.375854492188,144.204116821289,1808.71130371094,302.252899169922,25.7414398193359,68.5356826782227,893.590148925781,80.3125305175781,802.619018554688,80.3407592773438,77.2281723022461,523.307983398438,2092.9794921875,243.327041625977,95.7265014648438,147.730911254883,198.956741333008,144.248016357422
"32","Symplocos falcata",1089095776,-20.2554,-41.48274,"gass84","Symplocos falcata",703603,193.979339599609,218.59733581543,166.482223510742,1305.86059570312,244.546401977539,22.4616794586182,70.6602478027344,692.917236328125,74.3648223876953,458.199798583984,79.8382034301758,68.0816879272461,514.017333984375,1864.86254882812,259.474548339844,126.827545166016,132.666244506836,206.833847045898,169.460205078125
"33","Symplocos falcata",1089046781,-23.1422,-45.017,"gass84","Symplocos falcata",736608,187.71484375,214.885299682617,156.284210205078,1554.72143554688,256.610107421875,45.9442520141602,55.8561401367188,742.2060546875,144.163330078125,689.086853027344,147.035903930664,66.7672119140625,492.148498535156,2087.46337890625,249.5810546875,113.932334899902,135.675430297852,210.232177734375,159.037704467773
"34","Symplocos falcata",1570746972,-23.29506,-45.00472,"gass84","Symplocos falcata",738552,177.639678955078,204.731903076172,147.053512573242,1816.158203125,267.375122070312,57.7106971740723,48.6884422302246,784.715759277344,176.053665161133,715.949523925781,181.611572265625,62.2877388000488,479.352264404297,2066.19091796875,237.223388671875,107.296028137207,129.928894042969,200.135375976562,149.969772338867
"35","Symplocos falcata",1423940144,-20.65,-42.41667,"cdround,gass84","Symplocos falcata",707479,186.548080444336,211.705612182617,156.733337402344,1372.66455078125,285.624145507812,19.3517913818359,76.8533096313477,772.902282714844,60.9901657104492,548.123657226562,61.5173301696777,72,514.972045898438,1932.99731445312,253.598342895508,113.885307312012,139.755722045898,200.160293579102,158.593460083008
"36","Symplocos falcata",1123827179,-22.46667,-44.76667,"gass84","Symplocos falcata",728835,177.766799926758,204.026733398438,144.803619384766,1611.86120605469,260.853424072266,25.4487476348877,64.9427108764648,775.472045898438,80.618896484375,667.841064453125,80.618896484375,76.479850769043,521.893859863281,2096.63891601562,243.32649230957,96.7338333129883,146.658340454102,199.72216796875,144.803619384766
"37","Symplocos falcata",1929436242,-22.35833,-44.65833,"gass84","Symplocos falcata",727865,148.146560668945,174.254150390625,115.408790588379,2059.47485351562,357.61181640625,31.8396739959717,68.8485488891602,1051.81604003906,100.060852050781,934.570617675781,100.108428955078,76.5778427124023,523.074340820312,2100.38745117188,213.633743286133,67.3051605224609,146.403732299805,170.352340698242,115.485260009766
"38","Symplocos falcata",1937520265,-12.8531,-39.4719,"gass84","Symplocos falcata",617119,234.733734130859,249.29084777832,214.010238647461,1015.45843505859,104.81372833252,53.5470275878906,20.0711860656738,307.688018798828,166.128173828125,295.010772705078,220.651229858398,53.9246520996094,568.322570800781,1323.09838867188,282.347229003906,187.461883544922,94.8826370239258,244.526412963867,231.717132568359
"39","Symplocos falcata",1570747045,-22.75,-45.5,"gass84","Symplocos falcata",732715,195.219116210938,221.556442260742,161.550872802734,1541.10583496094,236.709701538086,28.4682846069336,60.8737640380859,701.918212890625,90.6498947143555,644.295532226562,91.0475234985352,77.241340637207,523.890258789062,2126.67797851562,260.639617919922,113.226356506348,147.345642089844,217.178817749023,162.064453125
"40","Symplocos falcata",1930720978,-21.97,-42.02,"gass84","Symplocos falcata",723036,218.137496948242,245.190216064453,191.063400268555,1243.84655761719,223.978363037109,29.7399253845215,62.3778915405273,625.438781738281,93.1510620117188,455.089202880859,101.177505493164,61.056468963623,479.833953857422,1938.203125,281.013488769531,153.790542602539,127.225166320801,234.868072509766,193.742111206055
"41","Symplocos falcata",1086884749,-21.75139,-44.5,"gass84","Symplocos falcata",721063,195.144241333008,220.085632324219,161.936386108398,1489.03759765625,278.108093261719,19.4235496520996,74.3897094726562,824.713195800781,65.751350402832,694.109130859375,65.8025894165039,79,534.354858398438,2040.99084472656,260.807861328125,112.346923828125,148.434814453125,215.404739379883,162.302200317383
"42","Symplocos falcata",1424168333,-22.7,-45.38333,"cdround,gass84","Symplocos falcata",731744,175.320220947266,201.386108398438,141.582412719727,1697.35180664062,266.179412841797,31.4304752349854,61.9184379577637,781.705078125,99.2989501953125,713.677551269531,99.9715270996094,77.6505737304688,526.045776367188,2127.17846679688,240.625518798828,92.9562606811523,147.89111328125,197.313095092773,142.086685180664
"43","Symplocos falcata",1424168319,-22.71667,-45.45,"cdround,gass84","Symplocos falcata",731743,162.02278137207,187.987335205078,128.229034423828,1702.78552246094,287.905578613281,34.8093872070312,63.7858085632324,843.268859863281,110.619293212891,767.033203125,114.275932312012,77.9306259155273,527.656921386719,2135.06494140625,227.127258300781,79.4201736450195,147.890426635742,184.178680419922,131.309661865234
"44","Symplocos falcata",1089046863,-23.1244,-45.21,"gass84","Symplocos falcata",736606,195.070205688477,222.377319335938,163.052947998047,1459.02355957031,226.76448059082,34.7458381652832,57.3446655273438,666.459533691406,108.077262878418,630.574157714844,109.008285522461,69.3479995727539,498.809661865234,2108.29321289062,258.265747070312,119.214378356934,139.056793212891,217.703323364258,163.717056274414
"45","Symplocos falcata",1570746965,-23.21222,-45.03361,"gass84","Symplocos falcata",737580,174.837341308594,201.990844726562,143.788146972656,1859.09265136719,289.199645996094,58.179615020752,51.9950141906738,840.5859375,178.97216796875,778.694213867188,182.987274169922,64.1168975830078,484.515716552734,2082.7822265625,235.319641113281,102.982292175293,132.334365844727,197.404479980469,146.42317199707
