"","name","key","decimalLatitude","decimalLongitude","issues"
"1","Alstroemeria cunha",1829088349,-21.271969,-44.518361,"gass84"
"2","Alstroemeria cunha",1570743594,-21.131694,-44.301994,"gass84"
"3","Alstroemeria cunha",1801099152,-29.249722,-50.129722,"cdround,gass84"
"4","Alstroemeria cunha",1801347806,-25.4098,-49.2689,"gass84"
"5","Alstroemeria cunha",1303587903,-20.445833,-43.905833,"gass84"
"6","Alstroemeria cunha",1455392805,-21.715278,-43.899167,"gass84"
"7","Alstroemeria cunha",1086916059,-23.2,-45.766667,"gass84"
"8","Alstroemeria cunha",1087645469,-20.070889,-42.071389,"gass84"
"9","Alstroemeria cunha",1090156479,-25.4415,-49.206528,"gass84"
"10","Alstroemeria cunha",1090694500,-23.230444,-46.935778,"gass84"
"11","Alstroemeria cunha",1090577338,-22.870251,-47.077171,"gass84"
"12","Alstroemeria cunha",1424201803,-22.462222,-43.030833,"cdround,gass84"
"13","Alstroemeria cunha",1090575379,-22.4122,-42.9656,"gass84"
"14","Alstroemeria cunha",1424265876,-21.716667,-43.883333,"cdround,gass84"
"15","Alstroemeria cunha",1424267174,-21.7,-43.883333,"cdround,gass84"
"16","Alstroemeria cunha",1424267355,-21.6825,-43.876111,"cdround,gass84"
"17","Alstroemeria cunha",1090689440,-22.355194,-47.499444,"gass84"
"18","Alstroemeria cunha",1944964005,-22.880278,-46.306111,"gass84"
"19","Alstroemeria cunha",1090564214,-22.9056,-47.0608,"gass84"
"20","Alstroemeria cunha",1252596703,-24.966667,-49.083333,"gass84"
"21","Alstroemeria cunha",1089059115,-22.4023,-44.3713,"gass84"
"22","Alstroemeria cunha",1930128460,-24.1841674061757,-48.530239978644,"cdrep"
"23","Alstroemeria cunha",1090563282,-14.1325,-47.51,"gass84"
"24","Alstroemeria cunha",1090557786,-22.5872,-46.1767,"gass84"
"25","Alstroemeria cunha",1930437077,-18.6,-43.52,"gass84"
