"","name","key","decimalLatitude","decimalLongitude","issues"
"1","Baccharis parvidentata",1987023404,-22.460833,-43.029444,"cdround,gass84"
"2","Baccharis parvidentata",1946020803,-22.503056,-45.120556,"gass84"
"3","Baccharis parvidentata",1090628595,-20.420833,-41.809444,"gass84"
"4","Baccharis parvidentata",1424508308,-20.480556,-41.829444,"cdround,gass84"
"5","Baccharis parvidentata",1087647942,-20.434778,-41.795833,"gass84"
"6","Baccharis parvidentata",1089106012,-22.37281,-44.70396,"gass84"
"7","Baccharis parvidentata",1252600138,-22.26314,-44.53356,"gass84"
"8","Baccharis parvidentata",1087646271,-22.442056,-44.893222,"gass84"
"9","Baccharis parvidentata",1424248725,-22.465,-43.032222,"cdround,gass84"
"10","Baccharis parvidentata",1090631624,-22.465,-43.266667,"gass84"
"11","Baccharis parvidentata",1252600133,-22.2558,-44.53206,"gass84"
"12","Baccharis parvidentata",1424259564,-22.441944,-44.893055,"cdround,gass84"
"13","Baccharis parvidentata",1424259618,-22.432778,-44.888889,"cdround,gass84"
"14","Baccharis parvidentata",1087646258,-22.432778,-44.889167,"gass84"
"15","Baccharis parvidentata",1252599940,-22.2553,-44.5003,"gass84"
"16","Baccharis parvidentata",1424204401,-22.25,-44.566667,"cdround,gass84"
"17","Baccharis parvidentata",1930809343,-22.371537,-44.617038,""
"18","Baccharis parvidentata",1931154729,-22.385269,-44.678895,""
"19","Baccharis parvidentata",1930288914,-22.4999514234393,-44.5633613218767,"cdrep"
"20","Baccharis parvidentata",1456190261,-22.42,-44.68,"gass84"
"21","Baccharis parvidentata",1930976784,-22.496706,-43.073169,""
