"","name","key","decimalLatitude","decimalLongitude","issues"
"1","Breutelia subtomentosa",1090161434,-25.470417,-49.650306,"gass84"
"2","Breutelia subtomentosa",1090159726,-25.123167,-48.822806,"gass84"
"3","Breutelia subtomentosa",1424341643,-20.721389,-42.479167,"cdround,gass84"
"4","Breutelia subtomentosa",1893860333,-22.775,-45.591667,"cdround,elmms,gass84"
"5","Breutelia subtomentosa",1852051748,-22.170278,-44.521111,"gass84"
"6","Breutelia subtomentosa",1840921796,-22.283889,-44.87,"gass84"
"7","Breutelia subtomentosa",1261750115,-27.466667,-53.383333,"cdround,gass84"
"8","Breutelia subtomentosa",29407717,-22.379999,-44.68,"gass84"
"9","Breutelia subtomentosa",1261750121,-28.633333,-50.566667,"cdround,gass84"
"10","Breutelia subtomentosa",1844432534,-25.5541,-49.1156,"gass84"
"11","Breutelia subtomentosa",1455704165,-20.291667,-41.25,"cdround,gass84,gdativ"
"12","Breutelia subtomentosa",1261788918,-20.28333,-41.25,"gass84"
"13","Breutelia subtomentosa",1261750129,-22.08333,-41.56666,"gass84"
"14","Breutelia subtomentosa",1052815306,-22.816667,-45.966667,"cdround,gass84"
"15","Breutelia subtomentosa",29407715,-22.82,-45.970001,"gass84"
"16","Breutelia subtomentosa",1261682588,-22.81666,-45.96666,"gass84"
"17","Breutelia subtomentosa",1261667797,-22.31666,-44.56666,"gass84"
"18","Breutelia subtomentosa",1052815326,-22.366667,-44.65,"cdround,gass84"
"19","Breutelia subtomentosa",1264708839,-29.047778,-50.144722,"gass84"
"20","Breutelia subtomentosa",1893860319,-20.458333,-41.841667,"cdround,gass84"
"21","Breutelia subtomentosa",1840921994,-20.27,-41.5,"gass84"
"22","Breutelia subtomentosa",1803037852,-20.45,-41.833333,"gass84"
"23","Breutelia subtomentosa",1803029135,-19.935556,-40.600278,"gass84"
"24","Breutelia subtomentosa",1844432121,-19.560833,-40.36,"gass84"
"25","Breutelia subtomentosa",1893860318,-22.391667,-44.691667,"cdround,elmms,gass84"
"26","Breutelia subtomentosa",1424341568,-22.416667,-44.666667,"cdround,gass84"
"27","Breutelia subtomentosa",1803016951,-22.496111,-44.563333,"gass84"
"28","Breutelia subtomentosa",1261773552,-22.33333,-44.58333,"gass84"
"29","Breutelia subtomentosa",1803013487,-28.293889,-49.931667,"gass84"
"30","Breutelia subtomentosa",1261750172,-22.333333,-44.55,"cdround,gass84"
"31","Breutelia subtomentosa",1056794053,-10.773109,-53.08982,"gass84"
"32","Breutelia subtomentosa",1144603143,-27.02861,-51.16278,"gass84,rdativ"
