"","name","key","decimalLatitude","decimalLongitude","issues"
"1","Chionolaena lychnophorioides",1946020358,-20.429931,-41.803697,"gass84"
"2","Chionolaena lychnophorioides",1420315534,-20.70615,-42.368431,"gass84,preswcd"
"3","Chionolaena lychnophorioides",1499618629,-20.41,-41.836944,"gass84"
"4","Chionolaena lychnophorioides",1456162743,-19.3206,-41.5788,"gass84"
"5","Chionolaena lychnophorioides",1275054053,-19.320608,-41.578842,"gass84"
"6","Chionolaena lychnophorioides",1135074629,-19.320544,-41.579206,"gass84"
"7","Chionolaena lychnophorioides",1090832233,-20.420833,-41.853611,"gass84"
"8","Chionolaena lychnophorioides",1087649903,-20.131111,-43.514167,"gass84"
"9","Chionolaena lychnophorioides",1087649948,-20.093333,-43.526944,"gass84"
"10","Chionolaena lychnophorioides",1930712174,-22.7338533001941,-45.5903324447049,"cdrep"
"11","Chionolaena lychnophorioides",1928837696,-20.2916151948885,-43.5082859302814,"cdrep"
