"","name","key","decimalLatitude","decimalLongitude","issues"
"1","Croton migrans",1848249190,-25.944167,-48.995833,"gass84"
"2","Croton migrans",1848244375,-25.464722,-49.768889,"gass84"
"3","Croton migrans",1848244994,-26.245556,-50.499444,"gass84"
"4","Croton migrans",1095637927,-28.060556,-49.363056,"gass84"
"5","Croton migrans",1213677247,-25.255514,-48.856708,"gass84"
"6","Croton migrans",1095637690,-28.498167,-50.1466,"gass84"
"7","Croton migrans",1095631464,-25.388511,-49.000681,"gass84"
"8","Croton migrans",1095632685,-25.125694,-49.352528,"gass84"
"9","Croton migrans",1095633542,-25.129528,-48.821583,"gass84"
"10","Croton splendidus",1880799883,-22.423611,-43.266111,"cdround,gass84"
"11","Croton splendidus",1944851473,-26.246389,-49.256944,"cdround,gass84"
"12","Croton splendidus",1838084956,-20.418056,-41.817222,"cdround,gass84"
"13","Croton splendidus",1571706728,-20.410278,-41.835555,"cdround,gass84"
"14","Croton splendidus",1585337113,-20.1775,-40.919722,"cdround,gass84"
"15","Croton splendidus",1638348177,-28.129167,-49.466944,"cdround,gass84"
"16","Croton splendidus",1423927440,-21.899722,-41.911111,"cdround,gass84"
"17","Croton splendidus",1587291630,-20.408611,-43.927167,"gass84"
"18","Croton splendidus",1585200897,-25.0906,-48.4919,"gass84"
"19","Croton splendidus",1585201119,-25.2232,-48.8191,"gass84"
"20","Croton splendidus",1585201499,-25.3867,-49.0055,"gass84"
"21","Croton splendidus",1086604974,-25.2842,-48.8317,"gass84"
"22","Croton splendidus",1095854647,-25.2499,-48.8059,"gass84"
"23","Croton splendidus",1135816863,-28.498056,-50.146667,"gass84"
"24","Croton splendidus",1086684084,-25.438912,-49.063612,"gass84"
"25","Croton splendidus",1270101830,-26.036667,-48.953333,"gass84"
"26","Croton splendidus",1086604366,-25.2523,-48.8083,"gass84"
"27","Croton splendidus",1424505187,-20.420278,-41.811111,"cdround,gass84"
"28","Croton splendidus",1143428635,-22.374167,-44.701111,"gass84"
"29","Croton splendidus",1424463398,-20.521667,-41.096667,"cdround,gass84"
"30","Croton splendidus",1077376998,-26.368333,-51.907778,"gass84"
"31","Croton splendidus",1424491745,-25.125833,-49.3525,"cdround,gass84"
"32","Croton splendidus",1077475520,-25.129528,-48.821583,"gass84"
"33","Croton splendidus",1424427270,-25.792778,-49.8,"cdround,gass84"
"34","Croton splendidus",1424449831,-20.699722,-42.026944,"cdround,gass84"
"35","Croton splendidus",1077371380,-28.272222,-49.540556,"gass84"
"36","Croton splendidus",1077371371,-28.2725,-49.541111,"gass84"
"37","Croton splendidus",1424319551,-22.426389,-43.280556,"cdround,gass84"
"38","Croton splendidus",1424378492,-20.473889,-43.549722,"cdround,gass84"
"39","Croton splendidus",1424485035,-20.12,-43.970278,"cdround,gass84"
"40","Croton splendidus",1087656981,-20.119969,-43.970386,"gass84"
"41","Croton splendidus",1077408894,-28.01,-49.375,"gass84"
"42","Croton splendidus",1440664421,-20.480833,-41.829722,"cdround,gass84"
"43","Croton splendidus",1424408191,-20.466667,-41.833333,"cdround,gass84"
"44","Croton splendidus",1424427628,-20.434444,-41.795555,"cdround,gass84"
"45","Croton splendidus",1435462112,-24.285,-50.594167,"cdround,gass84"
"46","Croton splendidus",1424297569,-27.81,-48.866944,"cdround,gass84"
"47","Croton splendidus",1077386759,-26.278056,-49.228333,"cdround,gass84"
"48","Croton splendidus",1424241739,-20.516111,-41.083611,"cdround,gass84"
"49","Croton splendidus",1801097815,-20.209861,-43.574306,"gass84"
"50","Croton splendidus",1077388386,-27.900278,-50.4,"cdround,gass84"
"51","Croton splendidus",1087182682,-20.197222,-43.432222,"gass84"
"52","Croton splendidus",1086603567,-25.4584,-48.9285,"gass84"
"53","Croton splendidus",1424260057,-20.520556,-41.100556,"cdround,gass84"
"54","Croton splendidus",1086680435,-20.521,-41.101,"gass84"
"55","Croton splendidus",1077388919,-25.127222,-48.8225,"cdround,gass84"
"56","Croton splendidus",1424221236,-22.174167,-44.650278,"cdround,gass84"
"57","Croton splendidus",1424220767,-20.455278,-41.800833,"cdround,gass84"
"58","Croton splendidus",1077358411,-27.99,-49.314167,"gass84"
"59","Croton splendidus",1077358319,-27.998056,-49.334167,"gass84"
"60","Croton splendidus",1424275931,-20.177222,-40.922778,"cdround,gass84"
"61","Croton splendidus",1424276021,-21.113889,-41.023056,"cdround,gass84"
"62","Croton splendidus",1424444172,-25.376389,-48.954167,"cdround,gass84"
"63","Croton splendidus",1424444183,-25.2475,-48.954167,"cdround,gass84"
"64","Croton splendidus",1123807553,-20.403889,-41.019167,"gass84"
"65","Croton splendidus",1424474692,-20.083333,-43.466667,"cdround,gass84"
"66","Croton splendidus",1424474481,-22.320556,-42.5325,"cdround,gass84"
"67","Croton splendidus",1123805176,-20.519167,-41.100556,"gass84"
"68","Croton splendidus",1423958119,-20.096111,-43.484722,"cdround,gass84"
"69","Croton splendidus",1123801101,-20.176944,-40.924167,"gass84"
"70","Croton splendidus",1424449937,-20.416667,-41.816667,"cdround,gass84"
"71","Croton splendidus",1086601342,-25.1377,-48.8215,"gass84"
"72","Croton splendidus",1086601208,-25.3887,-49.0036,"gass84"
"73","Croton splendidus",1087658293,-20.431667,-41.807511,"gass84"
"74","Croton splendidus",1086600024,-25.4499,-48.9144,"gass84"
"75","Croton splendidus",1931786910,-25.2472,-48.8356,"gass84"
"76","Croton splendidus",1077199054,-22.9,-43.2,"gass84"
"77","Croton splendidus",1086598035,-25.2546,-48.8569,"gass84"
"78","Croton splendidus",1931786846,-25.2564,-48.8563,"gass84"
"79","Croton splendidus",1086596837,-25.2582,-48.8361,"gass84"
"80","Croton splendidus",1086596824,-25.2532,-48.815,"gass84"
"81","Croton splendidus",1138931408,-25.5,-48.833333,""
"82","Croton splendidus",1090554640,-22.9028,-43.2075,"gass84"
"83","Croton splendidus",1872034171,-29.361944,-50.014444,"gass84"
"84","Croton splendidus",1872034215,-29.397222,-50.016111,"gass84"
"85","Croton splendidus",1427529709,-20.2758,-41.4901,"gass84"
"86","Croton splendidus",1500373388,-28.060556,-49.363056,"gass84"
"87","Croton splendidus",1427528396,-28.423611,-50.415833,"gass84"
"88","Croton splendidus",1090162124,-25.388222,-49.002028,"gass84"
"89","Croton splendidus",1089112375,-20.28839,-41.49757,"gass84"
"90","Croton splendidus",1587298253,-25.793,-49.8,"gass84"
"91","Croton splendidus",1086966785,-25.246667,-48.823889,"gass84"
"92","Croton splendidus",1090157926,-25.246722,-48.823972,"gass84"
"93","Croton splendidus",1090156683,-25.388944,-49.117028,"gass84"
"94","Croton splendidus",1455390240,-20,-43,"gass84"
"95","Croton splendidus",1086961470,-25.126944,-48.822222,"gass84"
"96","Croton splendidus",1089098753,-20.2719,-41.4803,"gass84"
"97","Croton splendidus",1089104348,-25.15357,-48.51423,"gass84"
"98","Croton splendidus",1086681124,-25.2475,-48.861667,"gass84"
"99","Croton splendidus",1089083432,-22.1979,-42.3244,"gass84"
"100","Croton splendidus",1089080602,-20.28713,-43.30418,"gass84"
"101","Croton splendidus",1077277187,-19.885556,-43.436361,"gass84"
"102","Croton splendidus",1090161637,-25.387167,-49.008472,"gass84"
"103","Croton splendidus",1089030917,-22.4124,-45.3927,"gass84"
"104","Croton splendidus",1848899247,-10,-55,"rdativ"
