"","name","key","decimalLatitude","decimalLongitude","issues"
"1","Lytoneuron paradoxum",1424508794,-22.343611,-42.724722,"cdround,gass84"
"2","Lytoneuron paradoxum",1929311356,-22.3839,-44.675,"gass84"
"3","Lytoneuron paradoxum",1135824655,-22.385,-44.671,"gass84"
"4","Lytoneuron paradoxum",1086684500,-22.277,-43.019,"gass84"
"5","Lytoneuron paradoxum",1086679532,-22.456944,-42.988611,"gass84"
"6","Lytoneuron paradoxum",1261061002,-22.384722,-44.681389,"cdround,gass84"
"7","Lytoneuron paradoxum",1802864287,-20.409722,-41.836944,"gass84"
"8","Lytoneuron paradoxum",1802864238,-20.414167,-41.835833,"gass84"
"9","Lytoneuron paradoxum",1930074162,-22.4608,-43.0267,"gass84"
"10","Lytoneuron paradoxum",1802865717,-20.482694,-41.830806,"gass84"
"11","Lytoneuron paradoxum",1802865138,-20.106389,-43.465556,"gass84"
"12","Lytoneuron paradoxum",1802865321,-20.1325,-43.581667,"gass84"
"13","Lytoneuron paradoxum",1802863927,-20.445083,-41.800139,"gass84"
"14","Lytoneuron paradoxum",1086666054,-22.741944,-44.616667,"gass84"
"15","Lytoneuron paradoxum",1931148525,-22.38,-44.6631,"gass84"
"16","Lytoneuron paradoxum",1086665941,-22.878333,-44.619444,"gass84"
"17","Lytoneuron paradoxum",1086665978,-22.38,-44.663056,"gass84"
"18","Lytoneuron paradoxum",1802862788,-6.596556,-70.719417,"gass84"
"19","Lytoneuron paradoxum",1086672887,-25.233333,-48.833333,"gass84"
"20","Lytoneuron paradoxum",1086672921,-25.25,-48.8,"gass84"
"21","Lytoneuron paradoxum",1095633122,-25.25,-48.833333,"gass84"
"22","Lytoneuron paradoxum",1802859950,-20.217556,-43.585194,"gass84"
"23","Lytoneuron paradoxum",1424480589,-22.462778,-43.024444,"cdround,gass84"
"24","Lytoneuron paradoxum",1802861668,-22.204444,-44.769444,"gass84"
"25","Lytoneuron paradoxum",1802861507,-22.205,-45.286111,"gass84"
"26","Lytoneuron paradoxum",1424269521,-22.285555,-44.613333,"cdround,gass84"
"27","Lytoneuron paradoxum",1802859178,-20.418139,-41.815667,"gass84"
"28","Lytoneuron paradoxum",1802858438,-20.042361,-45.072917,"gass84"
"29","Lytoneuron paradoxum",1802856536,-16.061528,-40.101467,"gass84"
"30","Lytoneuron paradoxum",1802853034,-20.108639,-43.455889,"gass84"
"31","Lytoneuron paradoxum",1802855816,-20.422972,-41.820139,"gass84"
"32","Lytoneuron paradoxum",1500183679,-10.8339,-52.8731,"gass84"
"33","Lytoneuron paradoxum",1260721405,-22.41666,-44.68333,"gass84"
"34","Lytoneuron paradoxum",1802855941,-19.072278,-43.910572,"gass84"
"35","Lytoneuron paradoxum",1802864893,-20.42825,-41.801972,"gass84"
