"","name","key","decimalLatitude","decimalLongitude","issues"
"1","Galium noxium",1986482982,-19.086253,-43.695942,"gass84"
"2","Galium noxium",1801097391,-18.4175,-43.811944,"gass84"
"3","Galium noxium",1676468921,-26.46,-49.41,"gass84"
"4","Galium noxium",1265917694,-26.284722,-49.221389,"cdround,gass84"
"5","Galium noxium",1423910277,-21.023611,-44.166667,"cdround,gass84"
"6","Galium noxium",1423910292,-21.216667,-43.75,"cdround,gass84"
"7","Galium noxium",1424504538,-22.352778,-42.585278,"cdround,gass84"
"8","Galium noxium",1087705530,-14.41,-40.128611,"gass84"
"9","Galium noxium",1844893475,-22.499444,-45.133056,"cdround,gass84"
"10","Galium noxium",1095353565,-30.582778,-54.020556,"gass84"
"11","Galium noxium",1213656054,-15.936667,-47.898889,"gass84"
"12","Galium noxium",1323872091,-15.866667,-47.85,"gass84"
"13","Galium noxium",1089114507,-22.3129,-46.0057,"gass84"
"14","Galium noxium",1213668934,-17.7331,-50.0942,"gass84"
"15","Galium noxium",1087652547,-22.575111,-45.322028,"gass84"
"16","Galium noxium",1087653340,-22.611611,-45.338333,"gass84,txmathi"
"17","Galium noxium",1424370606,-21.166667,-44.35,"cdround,gass84"
"18","Galium noxium",1087653255,-22.592417,-45.308722,"gass84"
"19","Galium noxium",1090632869,-22.5925,-45.308611,"gass84"
"20","Galium noxium",1086914365,-23.096667,-48.895,"gass84"
"21","Galium noxium",1257791138,-18.723333,-64.221667,"cdround,gass84"
"22","Galium noxium",1087648299,-20.413889,-41.8325,"gass84"
"23","Galium noxium",1424271792,-20.516111,-41.083611,"cdround,gass84"
"24","Galium noxium",1424389226,-15.936944,-47.885555,"cdround,gass84"
"25","Galium noxium",1089045641,-22.826148,-47.427549,"gass84"
"26","Galium noxium",1424414839,-20.139167,-44.236944,"cdround,gass84"
"27","Galium noxium",1213566021,-15.85,-47.816667,"gass84"
"28","Galium noxium",1213630996,-15.930833,-47.9,"gass84"
"29","Galium noxium",1291012725,-20.121389,-44.362167,"gass84"
"30","Galium noxium",1090579470,-22.2839,-44.87,"gass84"
"31","Galium noxium",1087382280,-13.581944,-39.723056,"gass84"
"32","Galium noxium",441753431,-31.97,-58.303611,"cdround,gass84"
"33","Galium noxium",441753443,-28.343333,-57.938889,"cdround,gass84"
"34","Galium noxium",1090579420,-22.3903,-44.9667,"gass84"
"35","Galium noxium",1086965789,-28.516667,-57.516667,"gass84"
"36","Galium noxium",1424151405,-22.204167,-42.093333,"cdround,gass84"
"37","Galium noxium",1257576496,-12.45,-72.166667,"cdround,gass84"
"38","Galium noxium",1087241949,-14.163333,-47.593056,"gass84"
"39","Galium noxium",1260013109,-15.23416,-68.64722,"gass84"
"40","Galium noxium",1260410815,-17.00138,-65.65555,"gass84"
"41","Galium noxium",1090751889,-21.060833,-56.839167,"gass84"
"42","Galium noxium",1840929531,-15.8325,-48.780833,"gass84"
"43","Galium noxium",1931370207,-15.8325,-48.7808,"gass84"
"44","Galium noxium",1260093989,-12.89694,-72.75055,"gass84,txmathi"
"45","Galium noxium",1424281354,-15.725,-48.753889,"cdround,gass84"
"46","Galium noxium",1929166797,-15.725,-48.7539,"gass84"
"47","Galium noxium",1095226369,-16.14639,-48.58389,"gass84"
"48","Galium noxium",1089192454,-16.146389,-48.583889,"gass84"
"49","Galium noxium",1424383389,-22.25,-44.566667,"cdround,gass84"
"50","Galium noxium",1094792343,-13.566667,-41.8,"gass84"
"51","Galium noxium",1259068823,-27.488889,-56.754722,"cdround,gass84"
"52","Galium noxium",1090579557,-22.451667,-43.001111,"gass84,txmathi"
"53","Galium noxium",1090580830,-22.645,-44.5778,"gass84,txmathi"
"54","Galium noxium",1658342056,-20.416667,-41.816667,"cdround,gass84"
"55","Galium noxium",1143435782,-20.25,-41.049,"gass84"
"56","Galium noxium",1135886648,-20.416667,-41.8167,"gass84,txmatfuz"
"57","Galium noxium",1090566389,-22.7394,-45.5914,"gass84"
"58","Galium noxium",1258769483,-26.483056,-57.069444,"cdround,gass84"
"59","Galium noxium",1258638825,-27.395833,-56.652222,"cdround,gass84"
"60","Galium noxium",1099615234,-28.316667,-49.683333,"gass84"
"61","Galium noxium",1802585938,-28.32,-49.68,"gass84,txmathi"
"62","Galium noxium",1927819032,-27.42,-48.88,"gass84"
"63","Galium noxium",1260510487,-28.31666,-49.68333,"gass84"
"64","Galium noxium",1090564024,-22.6136,-45.1761,"gass84,txmathi"
"65","Galium noxium",1135867597,-20.431667,-41.807611,"gass84,txmatfuz"
"66","Galium noxium",1143435785,-20.2554,-41.48274,"gass84"
"67","Galium noxium",1424095294,-22.466667,-42.5,"cdround,gass84"
"68","Galium noxium",1259597240,-25.221,-58.1226,"gass84"
"69","Galium noxium",1261534961,-26.38333,-57.13333,"gass84"
"70","Galium noxium",1094777342,-13.266667,-41.9,"gass84"
"71","Galium noxium",912079875,-13.27,-41.9,"gass84"
"72","Galium noxium",1260509874,-13.26666,-41.9,"gass84"
"73","Galium noxium",1261225199,-25.28333,-57.41666,"gass84"
"74","Galium noxium",1261229670,-13.58333,-68.76666,"gass84"
"75","Galium noxium",1261225261,-25.666667,-56.666667,"cdround,gass84"
"76","Galium noxium",1261226269,-26.9,-57.18333,"gass84"
"77","Galium noxium",1424105340,-15.940555,-47.901389,"cdround,gass84"
"78","Galium noxium",1090444809,-13.533333,-41.95,"gass84,txmathi"
"79","Galium noxium",912092362,-13.53,-41.95,"gass84"
"80","Galium noxium",1261521295,-13.006389,-72.635278,"cdround,gass84"
"81","Galium noxium",1261228032,-10.75,-74.38333,"gass84"
"82","Galium noxium",1927934652,-15.8,-48.02,"gass84"
"83","Galium noxium",1213566781,-15.8,-48.016667,"gass84"
"84","Galium noxium",1261229897,-16.15,-67.71666,"gass84"
"85","Galium noxium",1087253468,-16.2525,-47.9503,"gass84"
"86","Galium noxium",1077434816,-29.141631,-51.234323,"gass84"
"87","Galium noxium",1090556916,-22.3722,-46.9422,"gass84,txmathi"
"88","Galium noxium",1143434156,-21.502,-46.3353,"gass84"
"89","Galium noxium",1213566790,-15.583333,-47.9,"gass84"
"90","Galium noxium",1424105385,-16.05,-49.3,"gass84"
"91","Galium noxium",912090603,-13.55,-41.95,"gass84"
"92","Galium noxium",1928985286,-16.2565304858771,-47.9507751562949,"cdrep"
"93","Galium noxium",1077532225,-13.333333,-41.216667,"gass84"
"94","Galium noxium",1802564539,-13.33,-41.22,"gass84,txmathi"
"95","Galium noxium",1424105415,-10.3,-40.25,"gass84"
"96","Galium noxium",1928168442,-15.7834208090807,-47.9298726661488,"cdrep"
"97","Galium noxium",1260510169,-13.33333,-41.21666,"gass84"
"98","Galium noxium",1930106846,-14.7336994650342,-47.5004422581321,"cdrep,txmathi"
"99","Galium noxium",1929855718,-13.83967,-47.2647,"txmathi"
"100","Galium noxium",1930907660,-19.82237,-43.67613,"txmathi"
"101","Galium noxium",1930354185,-14.72711,-47.5333,"txmathi"
"102","Galium noxium",1928357614,-15.6237,-47.658611,"cdround,txmathi"
"103","Galium noxium",1930332639,-18.0833,-43.7833,"txmathi"
"104","Galium noxium",1929077078,-18.1838,-43.5367,"txmathi"
"105","Galium noxium",1929743275,-18.1798,-43.5512,"txmathi"
"106","Galium noxium",1929584390,-16.83095,-43.5631,"txmathi"
"107","Galium noxium",1931271503,-16.40385,-43.21845,"txmathi"
"108","Galium noxium",1928096600,-16.6823358231569,-49.2544620412703,"cdrep"
"109","Galium noxium",1087253441,-16.6786,-49.2539,"gass84"
"110","Galium noxium",1929407882,-13.78228,-47.5167,"txmathi"
"111","Galium noxium",1931082568,-13.87231,-47.5,"txmathi"
"112","Galium noxium",1930482440,-16.6175,-49.1019,""
"113","Galium noxium",1930694779,-15.742,-47.958,"gass84,txmathi"
"114","Galium noxium",1930054275,-16.9759,-47.6,"txmathi"
"115","Galium noxium",1929287751,-15.3,-47.38,"gass84,txmathi"
"116","Galium noxium",1802574983,-22.45,-43.02,"gass84,txmathi"
"117","Galium noxium",1087308967,-22.457778,-43.016667,"gass84"
"118","Galium noxium",1929984414,-16.9606332195702,-51.8110305684513,"cdrep,txmathi"
"119","Galium noxium",1802563516,-23.58,-47.97,"gass84,txmathi"
"120","Galium noxium",1213632959,-23.583333,-47.966667,"gass84"
"121","Galium noxium",1087308731,-20.433333,-43.45,"gass84"
"122","Galium noxium",1802578503,-20.43,-43.455,"gass84,txmathi"
"123","Galium noxium",1988084389,-20.4,-43.5,"gass84,gdativ"
"124","Galium noxium",1928396794,-16.0357639586557,-48.8091309966958,"cdrep,txmathi"
"125","Galium noxium",1931170891,-15.62,-47.7,"gass84,txmathi"
"126","Galium noxium",1802589243,-26.73,-51.62,"gass84"
"127","Galium noxium",1928786794,-20.434034,-41.796687,"txmathi"
"128","Galium noxium",1928873252,-29.7645270256347,-51.1476567522732,"cdrep"
"129","Galium noxium",1260510691,-6.45,-78.2,"gass84"
"130","Galium noxium",1090563988,-23.5228,-46.1883,"gass84,txmathi"
"131","Galium noxium",1090534530,-23.0744,-44.9597,"gass84,txmathi"
"132","Galium noxium",1257657911,-16.772778,-67.651111,"cdround,gass84"
"133","Galium noxium",1929499198,-15.63,-68.32,"gass84"
"134","Galium noxium",1701733066,-10.8339,-52.8731,"gass84"
"135","Galium noxium",1848902452,-17,-65,""
"136","Galium noxium",1261835111,-15.75,-68.01,"gass84"
"137","Galium noxium",1228317298,-9.1839,-74.14,"gass84,txmathi"
"138","Galium noxium",1228593728,-35.3869,-64.9208,"gass84"
"139","Galium noxium",1228183847,-16.7261,-64.435,"gass84,txmathi"
"140","Galium noxium",1848902530,-10,-55,"rdativ"
"141","Galium noxium",1420238812,-27.72,-56.73,"gass84"
"142","Galium noxium",416930496,-33.65,-58.98,"gass84"
"143","Galium noxium",416930493,-31.91,-58.4,"gass84"
"144","Galium noxium",1228219758,-32.8667,-55.7933,"gass84"
"145","Galium noxium",417041254,-28.21,-56.23,"gass84"
"146","Galium noxium",416930498,-27.33,-55.51,"gass84"
"147","Galium noxium",417041253,-25.34,-58.03,"gass84"
"148","Galium noxium",416930494,-33,-58.81,"gass84"
"149","Galium noxium",416930499,-27.65,-55.56,"gass84"
"150","Galium noxium",1257653775,-15.613889,-68.003611,"cdround,gass84"
"151","Galium noxium",416930486,-28.12,-58.77,"gass84"
"152","Galium noxium",416930463,-27.16,-55.34,"gass84"
"153","Galium noxium",416930495,-33.83,-59.03,"gass84"
"154","Galium noxium",416930500,-28.67,-56.29,"gass84"
