"","name","key","decimalLatitude","decimalLongitude","issues"
"1","Melpomene moniliformis",1257893278,-7.071361,-77.678667,"cdround,gass84"
"2","Melpomene moniliformis",1257735433,-7.003278,-77.751861,"cdround,gass84"
"3","Melpomene moniliformis",1257566945,-6.766667,-79.833333,"cdround,gass84"
"4","Melpomene moniliformis",1056433857,9.1,-82.866667,"cdround,gass84,preneglat"
"5","Melpomene moniliformis",1141196528,-3.966667,-79.133333,""
"6","Melpomene moniliformis",1259997474,-3.71666,-79.33333,"gass84"
"7","Melpomene moniliformis",1260022274,0.11666,-78.63333,"gass84"
"8","Melpomene moniliformis",1261830620,10.02,-83.75,"gass84"
"9","Melpomene moniliformis",1259864470,-3.87833,-78.43,"gass84"
"10","Melpomene moniliformis",1828869107,9.58333,-83.7,"gass84"
"11","Melpomene moniliformis",1261523474,-0.73333,-77.01666,"gass84,preneglat"
"12","Melpomene moniliformis",1258991587,-1.5,-78.81666,"gass84"
"13","Melpomene moniliformis",1259732020,0.16666,-78.66666,"gass84"
"14","Melpomene moniliformis",1261085455,-16.22222,-68.11666,"gass84"
"15","Melpomene moniliformis",1261269793,-16.28333,-67.83333,"gass84"
"16","Melpomene moniliformis",1259900570,-3.03333,-78.63333,"gass84"
"17","Melpomene moniliformis",1259899691,-4.45,-79.15,"gass84"
"18","Melpomene moniliformis",1261125665,-16.25,-67.83333,"gass84"
"19","Melpomene moniliformis",1259079236,3.61666,-65.35,"gass84"
"20","Melpomene moniliformis",1258810336,9.172778,-70.245556,"gass84"
"21","Melpomene moniliformis",1260353451,-16.15,-68.11666,"gass84"
"22","Melpomene moniliformis",1258507582,0.81666,-77.95,"gass84"
"23","Melpomene moniliformis",1043017045,-0.366667,-78.2,"gass84"
"24","Melpomene moniliformis",1314988349,4.56583,-74.0128,"gass84"
"25","Melpomene moniliformis",1314988301,4.60861,-74.0358,"gass84"
"26","Melpomene moniliformis",1898893432,4.565833,-74.012778,"cdround"
"27","Melpomene moniliformis",1898882606,4.608611,-74.035833,"cdround"
"28","Melpomene moniliformis",1259487958,-9.83333,-77.3,"gass84"
"29","Melpomene moniliformis",1258060648,9.666667,-83.75,"cdround,gass84"
"30","Melpomene moniliformis",1258809256,-9.45,-77.25,"gass84"
"31","Melpomene moniliformis",1259108792,-9.38333,-77.26666,"gass84"
"32","Melpomene moniliformis",1258981911,-9.45,-77.26666,"gass84"
"33","Melpomene moniliformis",1259189559,-9.35,-77.283333,"cdround,gass84"
"34","Melpomene moniliformis",1139121501,9.583333,-83.75,""
"35","Melpomene moniliformis",1259652649,-8.86666,-77.68333,"gass84"
"36","Melpomene moniliformis",1259176967,-9,-77.56666,"gass84"
"37","Melpomene moniliformis",1259149678,-9.3,-77.36666,"gass84"
"38","Melpomene moniliformis",1260752030,8.05,-71.833333,"cdround,gass84"
"39","Melpomene moniliformis",1139246342,18.683333,-70.583333,""
"40","Melpomene moniliformis",1259460372,-6.916667,-78.583333,"cdround,gass84"
"41","Melpomene moniliformis",1259814467,-10.38333,-75.45,"gass84"
"42","Melpomene moniliformis",1500187091,10.0114,-83.9519,"gass84"
"43","Melpomene moniliformis",1258931174,-0.45,-78.45,"gass84"
"44","Melpomene moniliformis",1257519087,8.85,-70.73333,"gass84"
"45","Melpomene moniliformis",1258343881,8.83333,-70.76666,"gass84"
"46","Melpomene moniliformis",1139851494,9.558333,-83.741667,""
"47","Melpomene moniliformis",1261084220,-1.43333,-78.45,"gass84"
"48","Melpomene moniliformis",1260422242,-7.93333,-78.5,"gass84"
"49","Melpomene moniliformis",1259941372,-16.56666,-67.75,"gass84"
"50","Melpomene moniliformis",1260008754,-16.28333,-67.81666,"gass84"
"51","Melpomene moniliformis",1258636750,8.8,-70.78333,"gass84"
"52","Melpomene moniliformis",1137912297,19.033333,-71,""
"53","Melpomene moniliformis",1139459243,18.718056,-70.616667,""
"54","Melpomene moniliformis",1259527402,-7.88333,-78.03333,"gass84"
"55","Melpomene moniliformis",1259195071,-7.883333,-78.033333,"cdround,gass84"
"56","Melpomene moniliformis",1259817792,-7.98333,-78.25,"gass84"
"57","Melpomene moniliformis",1258571583,-7.98333,-78.38333,"gass84"
"58","Melpomene moniliformis",1258944861,-0.3,-78.63333,"gass84"
"59","Melpomene moniliformis",1261355412,-10.58333,-75.33333,"gass84"
"60","Melpomene moniliformis",1260751030,9.2,-70.2,"gass84"
"61","Melpomene moniliformis",1260753872,8.8,-70.81666,"gass84"
"62","Melpomene moniliformis",1260505678,-16.31666,-67.88333,"gass84"
"63","Melpomene moniliformis",1258941908,-2.83333,-79.2,"gass84"
"64","Melpomene moniliformis",1259968731,-0.25,-78.66666,"gass84"
"65","Melpomene moniliformis",1258917645,-1.65,-78.83333,"gass84"
"66","Melpomene moniliformis",1423115727,19.175,-98.591667,"cdround,elmms,gass84,txmathi"
"67","Melpomene moniliformis",1258942856,-0.15,-78.53333,"gass84"
"68","Melpomene moniliformis",1258943869,0.66666,-77.86666,"gass84"
"69","Melpomene moniliformis",1258924389,0.06666,-77.98333,"gass84"
"70","Melpomene moniliformis",1258929230,-0.63333,-78.7,"gass84"
"71","Melpomene moniliformis",1258923512,-0.35,-78.65,"gass84"
"72","Melpomene moniliformis",1258932160,-0.58333,-77.65,"gass84"
"73","Melpomene moniliformis",1043016953,-0.583333,-77.65,"gass84"
"74","Melpomene moniliformis",1258920591,-0.46666,-78.61666,"gass84"
"75","Melpomene moniliformis",1259893690,-0.45,-78.68333,"gass84"
"76","Melpomene moniliformis",1043016952,-0.383333,-78.3167,"gass84"
"77","Melpomene moniliformis",1258933122,-0.38333,-78.31666,"gass84"
"78","Melpomene moniliformis",1259894695,-0.31666,-78.63333,"gass84"
"79","Melpomene moniliformis",1261486838,-5.547,-78.327,"gass84"
"80","Melpomene moniliformis",1261488754,-5.63,-78.23,"gass84"
"81","Melpomene moniliformis",1258918608,-0.35,-78.1,"gass84"
"82","Melpomene moniliformis",1258945788,-4.58333,-79.33333,"gass84"
"83","Melpomene moniliformis",1260754780,4.737925,-73.985548,"gass84"
"84","Melpomene moniliformis",1258925364,-0.96666,-78.93333,"gass84"
"85","Melpomene moniliformis",1259902648,-0.56666,-78.36666,"gass84"
"86","Melpomene moniliformis",1500153560,16.5,-92.5,"gass84"
"87","Melpomene moniliformis",1258311399,9.47416,-83.49444,"gass84"
"88","Melpomene moniliformis",1258919592,-0.95,-79.03333,"gass84"
"89","Melpomene moniliformis",1259458187,9.558333,-83.762222,"cdround,gass84"
"90","Melpomene moniliformis",1500135403,15,-91.3333,"gass84"
"91","Melpomene moniliformis",1988704808,17.48333,-100.2,"gass84"
"92","Melpomene moniliformis",45230554,9.66,-83.85,"gass84"
"93","Melpomene moniliformis",1314988338,4.70889,-73.8983,"gass84"
"94","Melpomene moniliformis",1500187153,15.7422,-90.1792,"gass84"
"95","Melpomene moniliformis",1314988334,6.20448,-75.4867,"gass84"
"96","Melpomene moniliformis",1890900380,6.20448,-75.48671,""
"97","Melpomene moniliformis",1314988389,4.56333,-74.0642,"gass84"
"98","Melpomene moniliformis",1314988370,4.6057,-74.0512,"gass84"
"99","Melpomene moniliformis",1314988286,4.86657,-73.7963,"gass84"
"100","Melpomene moniliformis",1500154062,14.6667,-91.25,"gass84"
"101","Melpomene moniliformis",1500175439,14.75,-91.6667,"gass84"
"102","Melpomene moniliformis",1500156804,15,-91.9167,"gass84"
"103","Melpomene moniliformis",1314988314,4.94333,-75.3511,"gass84"
"104","Melpomene moniliformis",1898867629,4.943333,-75.351111,"cdround"
"105","Melpomene moniliformis",1314988321,4.81111,-73.8492,"gass84"
"106","Melpomene moniliformis",1898867678,4.811111,-73.849167,"cdround"
"107","Melpomene moniliformis",1844897773,4.515556,-74.051389,"cdround"
"108","Melpomene moniliformis",1314988351,4.51556,-74.0514,"gass84"
"109","Melpomene moniliformis",1056230287,7.122449,-66.169564,"gass84"
"110","Melpomene moniliformis",1056522947,3.901155,-73.073369,"gass84"
"111","Melpomene moniliformis",1844896292,1.154722,-77.103889,"cdround"
"112","Melpomene moniliformis",1500156746,17,-96.5,"gass84"
"113","Melpomene moniliformis",1844931493,4.1,-72.908889,"cdround"
"114","Melpomene moniliformis",1500181975,7.0758,-65.9119,"gass84"
"115","Melpomene moniliformis",1314988328,4.24222,-74.1869,"gass84"
"116","Melpomene moniliformis",1500177564,23,-102,"gass84"
"117","Melpomene moniliformis",1500181925,-9.1839,-74.14,"gass84"
"118","Melpomene moniliformis",1314988359,4.72389,-73.8342,"gass84"
"119","Melpomene moniliformis",1500181920,3.8811,-72.8667,"gass84"
"120","Melpomene moniliformis",1890908101,4.242222,-74.186944,"cdround"
"121","Melpomene moniliformis",1500181899,-16.7261,-64.435,"gass84"
"122","Melpomene moniliformis",1500181959,-1.4628,-78.1869,"gass84"
"123","Melpomene moniliformis",1844923596,4.727719,-73.297021,""
"124","Melpomene moniliformis",1500181953,-10.8339,-52.8731,"gass84"
"125","Melpomene moniliformis",1314988320,7.23556,-72.8225,"gass84"
"126","Melpomene moniliformis",1890979216,5.128611,-76.037778,"cdround"
"127","Melpomene moniliformis",1314988296,5.70518,-75.2583,"gass84"
"128","Melpomene moniliformis",1844936707,7.211389,-72.911944,"cdround,gass84,gdativ"
"129","Melpomene moniliformis",1314988323,4.57222,-74.4414,"gass84"
"130","Melpomene moniliformis",1314988300,4.49432,-73.7839,"gass84"
"131","Melpomene moniliformis",1314988310,4.28806,-74.2056,"gass84"
"132","Melpomene moniliformis",1314988284,3.91806,-74.0994,"gass84"
"133","Melpomene moniliformis",1844936237,7.107768,-72.971201,""
"134","Melpomene moniliformis",1314988322,4.99389,-75.4353,"gass84"
"135","Melpomene moniliformis",1314988345,5.0541,-74.0418,"gass84"
"136","Melpomene moniliformis",1314988315,4.34944,-74.1936,"gass84"
"137","Melpomene moniliformis",1898867686,7.391389,-72.425278,"cdround"
"138","Melpomene moniliformis",1314988307,4.28889,-74.2072,"gass84"
"139","Melpomene moniliformis",1314988330,4.91222,-75.3767,"gass84"
"140","Melpomene moniliformis",1891006192,4.919444,-75.28,"cdround"
"141","Melpomene moniliformis",1898903778,5.4075,-76.039444,"cdround"
"142","Melpomene moniliformis",1890903543,5.471389,-73.319444,"cdround"
"143","Melpomene moniliformis",1890942767,3.918056,-74.099444,"cdround"
"144","Melpomene moniliformis",1314988327,4.92194,-75.3556,"gass84"
"145","Melpomene moniliformis",1314988298,4.72639,-73.805,"gass84"
"146","Melpomene moniliformis",1314988352,4.68556,-73.99,"gass84"
"147","Melpomene moniliformis",1314988343,4.52611,-74.0519,"gass84"
"148","Melpomene moniliformis",1890903522,5.70518,-75.25834,""
"149","Melpomene moniliformis",1898885592,5.038931,-74.143588,""
"150","Melpomene moniliformis",1500144646,-6.25,-78.8333,"gass84"
"151","Melpomene moniliformis",1314988333,4.60583,-74.055,"gass84"
"152","Melpomene moniliformis",1314988331,7.2115,-72.9119,"gass84"
"153","Melpomene moniliformis",1844928597,4.970694,-73.730186,"cdround"
"154","Melpomene moniliformis",1898906878,2.318333,-76.28,"cdround"
"155","Melpomene moniliformis",1844928836,4.726389,-73.805,"cdround"
"156","Melpomene moniliformis",1314988290,4.81417,-73.8317,"gass84"
"157","Melpomene moniliformis",1314988317,5.47139,-73.3194,"gass84"
"158","Melpomene moniliformis",1934684747,4.921944,-75.355556,"cdround"
"159","Melpomene moniliformis",1314988319,2.31833,-76.28,"gass84"
"160","Melpomene moniliformis",1314988326,4.80944,-73.8483,"gass84"
"161","Melpomene moniliformis",1314988363,1.15472,-77.1039,"gass84"
"162","Melpomene moniliformis",1898889501,5.014381,-75.342589,"gass84,gdativ"
"163","Melpomene moniliformis",1314988364,5.57142,-72.7972,"gass84"
"164","Melpomene moniliformis",1314988318,5.4075,-76.0394,"gass84"
"165","Melpomene moniliformis",1314988305,5.00806,-74.192,"gass84"
"166","Melpomene moniliformis",1844912378,1.198056,-76.688611,"cdround"
"167","Melpomene moniliformis",1844907972,4.291111,-74.207222,"cdround"
"168","Melpomene moniliformis",1890934822,4.349444,-74.193611,"cdround"
"169","Melpomene moniliformis",1314988336,4.29111,-74.2072,"gass84"
"170","Melpomene moniliformis",1314988332,1.19806,-76.6886,"gass84"
"171","Melpomene moniliformis",1314988303,5.01438,-75.3426,"gass84"
"172","Melpomene moniliformis",1314988339,5.94833,-73.1011,"gass84"
"173","Melpomene moniliformis",1314988357,4.2875,-74.2164,"gass84"
"174","Melpomene moniliformis",1314988316,5.81028,-76.2344,"gass84"
"175","Melpomene moniliformis",1844934798,4.814167,-73.831667,"cdround"
"176","Melpomene moniliformis",1844938416,4.494444,-73.783889,"cdround"
"177","Melpomene moniliformis",1890915620,5.811915,-76.234911,""
"178","Melpomene moniliformis",1314988361,4.69667,-73.8236,"gass84"
"179","Melpomene moniliformis",1314988329,5.12861,-76.0378,"gass84"
"180","Melpomene moniliformis",1314988365,7.39139,-72.4253,"gass84"
"181","Melpomene moniliformis",872334995,-6.997994,-78.274939,"gass84,preswcd"
"182","Melpomene moniliformis",872335021,-6.981667,-78.288889,"cdround,gass84,preswcd"
"183","Melpomene moniliformis",1890914305,5.948333,-73.101111,"cdround"
"184","Melpomene moniliformis",1314988344,4.96917,-75.3808,"gass84"
"185","Melpomene moniliformis",1890989478,4.969052,-75.381111,""
"186","Melpomene moniliformis",1314988312,4.97069,-73.7302,"gass84"
