"","name","key","decimalLatitude","decimalLongitude","issues"
"1","Huberia semiserrata",1848251169,-25.925556,-48.598889,"gass84"
"2","Huberia semiserrata",1095353554,-29.250278,-49.861389,"gass84"
"3","Huberia semiserrata",1077412542,-28.890278,-49.320833,"cdround,gass84"
"4","Huberia semiserrata",1087526600,-28.890278,-49.304167,"gass84"
"5","Huberia semiserrata",1087384499,-23.792222,-46.407083,"gass84"
"6","Huberia semiserrata",1928457660,-23.7922,-46.407083,"gass84"
"7","Huberia semiserrata",1086601258,-25.5917,-48.5558,"gass84"
"8","Huberia semiserrata",1928156562,-27.0945073568518,-48.6119590194157,"cdrep"
"9","Huberia semiserrata",1928094786,-25.5241866803621,-48.5097443939043,"cdrep"
"10","Huberia semiserrata",1928726776,-25.33685,-48.790772,""
"11","Huberia semiserrata",1928909639,-25.575152,-48.365093,""
"12","Huberia semiserrata",1930137760,-25.5593,-48.450437,""
"13","Huberia semiserrata",1931234603,-23.5441635944115,-46.6304063522203,"cdrep"
"14","Huberia semiserrata",1929755618,-23.5438635897929,-46.6304063512987,"cdrep"
"15","Huberia semiserrata",1928929571,-26.0307923106657,-48.8552709520685,"cdrep"
"16","Huberia semiserrata",1928985289,-25.8869914389797,-48.5749506171655,"cdrep"
"17","Huberia semiserrata",1928858004,-27.435546,-48.468676,"cdround"
"18","Huberia semiserrata",1090540459,-23.5475,-46.6361,"gass84"
"19","Huberia semiserrata",1931054478,-23.627973,-46.660488,""
"20","Huberia semiserrata",1929552824,-23.646109,-46.618358,""
"21","Huberia semiserrata",1228253594,-10.8339,-52.8731,"gass84"
"22","Huberia semiserrata",1144619808,-10.77306,-53.08972,"gass84,rdativ"
