"","name","key","decimalLatitude","decimalLongitude","issues"
"1","Isoetes martii",1135824736,-22.383,-44.667,"gass84"
"2","Isoetes martii",1269536361,-22.385083,-44.678694,"gass84"
"3","Isoetes martii",1413723720,-20.45,-41.8,"gass84"
"4","Isoetes martii",1413723738,-20.45,-48.8,"gass84"
"5","Isoetes martii",1086679448,-22.377222,-44.673611,"gass84"
"6","Isoetes martii",1086679479,-22.385,-44.678333,"gass84"
"7","Isoetes martii",1086679457,-22.375278,-44.666667,"gass84"
"8","Isoetes martii",1086678029,-22.383611,-44.669722,"gass84"
"9","Isoetes martii",1086678052,-22.376667,-44.67,"gass84"
"10","Isoetes martii",1086678061,-22.378889,-44.67,"gass84"
"11","Isoetes martii",1086679297,-20.446111,-48.800556,"gass84"
"12","Isoetes martii",1802866285,-20.420222,-41.810167,"gass84"
"13","Isoetes martii",1802865766,-20.446194,-41.800528,"gass84"
"14","Isoetes martii",1086679354,-29.161111,-50.077778,"gass84"
"15","Isoetes martii",1086665968,-22.38,-44.663056,"gass84"
"16","Isoetes martii",1086679331,-22.361111,-44.668611,"gass84"
"17","Isoetes martii",1424269561,-22.285555,-44.613333,"cdround,gass84"
"18","Isoetes martii",1930086819,-22.499951423115,-44.5635613356282,"cdrep"
"19","Isoetes martii",1057428264,4.843069,-73.98965,"gass84"
"20","Isoetes martii",1260157173,-21.93333,-46.38333,"gass84"
"21","Isoetes martii",1928344026,-22.4999514234393,-44.5633613218767,"cdrep"
"22","Isoetes martii",1057590235,-29.779958,-53.180947,"gass84"
"23","Isoetes martii",1056685574,-19.690239,-44.096503,"gass84"
"24","Isoetes martii",1848906548,-10,-55,""
"25","Isoetes martii",1802942077,-20.5,-41.75,"gass84"
