"","name","key","decimalLatitude","decimalLongitude","issues"
"1","Lepechinia speciosa",1270102195,-22.059889,-44.679056,"gass84"
"2","Lepechinia speciosa",1424479942,-22.497778,-45.1225,"cdround,gass84"
"3","Lepechinia speciosa",1438029300,-22.683333,-45.65,"gass84"
"4","Lepechinia speciosa",1087647976,-20.434778,-41.795833,"gass84"
"5","Lepechinia speciosa",1094854170,-22.05,-44.666667,"gass84"
"6","Lepechinia speciosa",1094854188,-22.206389,-44.765556,"gass84"
"7","Lepechinia speciosa",1094827525,-22.055,-44.671389,"gass84"
"8","Lepechinia speciosa",1801097757,-22.042361,-44.64225,"gass84"
"9","Lepechinia speciosa",1424243983,-22.413889,-44.847778,"cdround,gass84"
"10","Lepechinia speciosa",1656071035,-20.416667,-41.816667,"cdround,gass84"
"11","Lepechinia speciosa",1135864180,-20.416667,-41.8,"gass84"
"12","Lepechinia speciosa",1424204664,-22.25,-44.566667,"cdround,gass84"
"13","Lepechinia speciosa",1086888295,-22.69,-45.6575,"gass84"
"14","Lepechinia speciosa",1928864430,-22.385269,-44.678895,""
"15","Lepechinia speciosa",1228249953,-10.8339,-52.8731,"gass84"
