"","name","key","decimalLatitude","decimalLongitude","issues"
"1","Mandevilla tenuifolia",1835181447,-15.712778,-48.953333,"gass84"
"2","Mandevilla tenuifolia",1853943972,-1.169417,-55.694889,"cdround,gass84"
"3","Mandevilla tenuifolia",1587292609,-19.4175,-43.271667,"gass84"
"4","Mandevilla tenuifolia",1570751007,-15.083889,-43.017778,"gass84"
"5","Mandevilla tenuifolia",1500373971,-13.983333,-42.35,"gass84"
"6","Mandevilla tenuifolia",1805900262,-10.4951,-37.2658,"gass84"
"7","Mandevilla tenuifolia",1585967975,-14.2,-41.824167,"gass84"
"8","Mandevilla tenuifolia",1880814621,-14.268056,-42.524444,"gass84"
"9","Mandevilla tenuifolia",1949963837,-20.091111,-43.684167,"gass84"
"10","Mandevilla tenuifolia",1853944963,-20.384028,-43.505533,"gass84"
"11","Mandevilla tenuifolia",1835181470,-15.708056,-48.960833,"gass84"
"12","Mandevilla tenuifolia",1840928845,-21.223878,-44.502606,"gass84"
"13","Mandevilla tenuifolia",1840928856,-21.244983,-44.495217,"gass84"
"14","Mandevilla tenuifolia",1316173555,-3.372139,-41.703333,"gass84,preneglat,preneglon"
"15","Mandevilla tenuifolia",1913566216,-18.912822,-43.421348,"gass84"
"16","Mandevilla tenuifolia",1570750900,-21.239372,-44,"gass84"
"17","Mandevilla tenuifolia",1658212282,-4.097239,-41.701114,"cdround,gass84"
"18","Mandevilla tenuifolia",1853943310,-17.8275,-40.995833,"gass84"
"19","Mandevilla tenuifolia",1324953702,-12.989722,-41.348333,"gass84"
"20","Mandevilla tenuifolia",1455707402,-9.045,-35.865,"gass84"
"21","Mandevilla tenuifolia",1587320094,-9.045008,-35.864998,"gass84"
"22","Mandevilla tenuifolia",1570743523,-21.272261,-44.517822,"gass84"
"23","Mandevilla tenuifolia",1438022993,-20.1475,-43.631667,"gass84"
"24","Mandevilla tenuifolia",1702656169,-6.450278,-35.807222,"gass84"
"25","Mandevilla tenuifolia",1844429518,-16.128889,-48.192778,"gass84"
"26","Mandevilla tenuifolia",1455401515,-16.114167,-42.781389,"gass84"
"27","Mandevilla tenuifolia",1455393099,-13.106389,-39.979722,"gass84"
"28","Mandevilla tenuifolia",1420313950,-12.716944,-39.667222,"gass84"
"29","Mandevilla tenuifolia",1913583218,-15.388611,-42.779444,"gass84"
"30","Mandevilla tenuifolia",1420313935,-12.664722,-39.598333,"gass84"
"31","Mandevilla tenuifolia",1275054231,-13.871361,-47.262694,"gass84"
"32","Mandevilla tenuifolia",1275054227,-11.489167,-41.333056,"gass84"
"33","Mandevilla tenuifolia",1423941241,-8.151111,-35.755833,"cdround,gass84"
"34","Mandevilla tenuifolia",1275054233,-17.935278,-43.612778,"gass84"
"35","Mandevilla tenuifolia",1303585252,-8.151028,-35.755694,"cdround,gass84"
"36","Mandevilla tenuifolia",1213676794,-10.972222,-55.595,"gass84"
"37","Mandevilla tenuifolia",1587296631,-11.692778,-47.701944,"gass84"
"38","Mandevilla tenuifolia",1303585218,-8.236028,-36.192333,"cdround,gass84"
"39","Mandevilla tenuifolia",1423931247,-9.205833,-38.013889,"cdround,gass84"
"40","Mandevilla tenuifolia",1423931283,-8.218333,-39.563333,"cdround,gass84"
"41","Mandevilla tenuifolia",1252590873,-8.218333,-39.558611,"gass84"
"42","Mandevilla tenuifolia",1303585205,-7.823806,-38.054111,"cdround,gass84"
"43","Mandevilla tenuifolia",1455400973,-18.9425,-43.677222,"gass84"
"44","Mandevilla tenuifolia",1275054234,-8.320833,-36.72,"gass84"
"45","Mandevilla tenuifolia",1275054236,-8.227778,-35.723889,"gass84"
"46","Mandevilla tenuifolia",1275054226,-8.364167,-36.062222,"gass84"
"47","Mandevilla tenuifolia",1275054235,-8.593611,-37.205,"gass84"
"48","Mandevilla tenuifolia",1303588244,-20.197222,-43.605,"gass84"
"49","Mandevilla tenuifolia",1840924378,-18.231028,-53.304528,"gass84"
"50","Mandevilla tenuifolia",1829084510,-18.150944,-53.402083,"gass84"
"51","Mandevilla tenuifolia",1275054238,-6.678889,-35.439722,"gass84"
"52","Mandevilla tenuifolia",1270117539,-6.408611,-50.351944,"gass84"
"53","Mandevilla tenuifolia",1077245630,-12.988889,-41.349167,"gass84"
"54","Mandevilla tenuifolia",1095260564,-11.581388,-47.208888,"gass84"
"55","Mandevilla tenuifolia",1090530776,-11.581389,-47.208889,"gass84"
"56","Mandevilla tenuifolia",1089143446,-13.397778,-41.333056,"gass84"
"57","Mandevilla tenuifolia",1143412861,-18.471944,-43.488611,"gass84"
"58","Mandevilla tenuifolia",1087695333,-10.4557,-37.202,"gass84"
"59","Mandevilla tenuifolia",1213520059,-9.228003,-36.427672,"gass84"
"60","Mandevilla tenuifolia",1658212129,-8.434333,-36.962056,"cdround,gass84"
"61","Mandevilla tenuifolia",1455753748,-15.2431,-55.4953,"gass84"
"62","Mandevilla tenuifolia",1438491467,-18.2741,-43.2751,"gass84"
"63","Mandevilla tenuifolia",1827466888,-5.090278,-39.105833,"cdround,gass84"
"64","Mandevilla tenuifolia",1805900141,-5.0525,-39.0621,"gass84"
"65","Mandevilla tenuifolia",1275054224,-3.808139,-40.958083,"gass84"
"66","Mandevilla tenuifolia",1089143496,-3.808139,-40.956694,"gass84"
"67","Mandevilla tenuifolia",1089143504,-4.12125,-40.850444,"gass84"
"68","Mandevilla tenuifolia",1837379454,-17.748611,-51.546111,"cdround,gass84"
"69","Mandevilla tenuifolia",1930459226,-13.189306,-39.599806,"gass84"
"70","Mandevilla tenuifolia",1089143593,-9.035,-35.875556,"gass84"
"71","Mandevilla tenuifolia",1424495520,-12.463889,-41.418889,"cdround,gass84"
"72","Mandevilla tenuifolia",1587292365,-19.548642,-43.240528,"gass84"
"73","Mandevilla tenuifolia",1424514097,-14.171111,-47.826389,"cdround,gass84"
"74","Mandevilla tenuifolia",1090965253,-21.724986,-44.981389,"gass84"
"75","Mandevilla tenuifolia",1424504365,-7.908056,-36.019722,"cdround,gass84"
"76","Mandevilla tenuifolia",1095882870,-11.001306,-55.40044,"gass84"
"77","Mandevilla tenuifolia",1265932996,-11.003778,-55.667889,"gass84"
"78","Mandevilla tenuifolia",1848245839,-10.895278,-55.785278,"gass84"
"79","Mandevilla tenuifolia",1423909995,-11.003611,-55.667778,"cdround,gass84"
"80","Mandevilla tenuifolia",1087662517,-20.075833,-43.985833,"gass84"
"81","Mandevilla tenuifolia",1135941466,-20.4102,-41.848667,"gass84"
"82","Mandevilla tenuifolia",1087660737,-20.441111,-43.918889,"gass84"
"83","Mandevilla tenuifolia",1658211866,-7.197417,-38.584778,"cdround,gass84"
"84","Mandevilla tenuifolia",1087660333,-20.0975,-43.954167,"gass84"
"85","Mandevilla tenuifolia",1944974538,-14.316667,-40.2,"gass84"
"86","Mandevilla tenuifolia",1094918522,-10.635278,-43.659444,"gass84"
"87","Mandevilla tenuifolia",1089193708,-9.238245,-36.429152,"gass84"
"88","Mandevilla tenuifolia",1095882986,-18.2559,-43.2828,"gass84"
"89","Mandevilla tenuifolia",1077243718,-11.676389,-41.089722,"gass84"
"90","Mandevilla tenuifolia",1946084719,-18.3634,-43.4244,"gass84"
"91","Mandevilla tenuifolia",1090698882,-13.676167,-47.824333,"gass84"
"92","Mandevilla tenuifolia",1086682429,-20.101,-43.561,"gass84"
"93","Mandevilla tenuifolia",1077245821,-11.938056,-42.754167,"gass84,txmatfuz"
"94","Mandevilla tenuifolia",1090699640,-18.433028,-43.474556,"gass84"
"95","Mandevilla tenuifolia",1094923432,-14.333056,-40.208333,"gass84"
"96","Mandevilla tenuifolia",1658212033,-8.504225,-38.943933,"cdround,gass84"
"97","Mandevilla tenuifolia",1658212052,-8.503767,-36.944261,"cdround,gass84"
"98","Mandevilla tenuifolia",1424470438,-19.346944,-43.5825,"cdround,gass84"
"99","Mandevilla tenuifolia",1829092345,-23.453889,-46.765083,"gass84"
"100","Mandevilla tenuifolia",1087539865,-14.329611,-40.216028,"gass84"
"101","Mandevilla tenuifolia",1089143402,-6.108889,-37.624167,"gass84"
"102","Mandevilla tenuifolia",1424487412,-19.524167,-46.908056,"cdround,gass84"
"103","Mandevilla tenuifolia",1077248905,-11.613056,-41.158611,"gass84"
"104","Mandevilla tenuifolia",1098942339,-15.808889,-47.978889,"gass84"
"105","Mandevilla tenuifolia",1087659384,-20.352483,-43.991603,"gass84"
"106","Mandevilla tenuifolia",1094898993,-21.7,-43.883333,"gass84"
"107","Mandevilla tenuifolia",1089115521,-18.0624,-42.8839,"gass84"
"108","Mandevilla tenuifolia",1658211183,-8.583833,-37.238472,"cdround,gass84"
"109","Mandevilla tenuifolia",1094896453,-7.096111,-47.449722,"gass84"
"110","Mandevilla tenuifolia",1089186629,-9.254444,-36.430556,"gass84"
"111","Mandevilla tenuifolia",1658211263,-8.588389,-37.236444,"cdround,gass84"
"112","Mandevilla tenuifolia",1094896429,-7.186944,-47.423056,"gass84"
"113","Mandevilla tenuifolia",1094902882,-12.511111,-41.486111,"gass84"
"114","Mandevilla tenuifolia",1094902948,-12.633611,-41.509722,"gass84"
"115","Mandevilla tenuifolia",1089115460,-18.0536,-42.1256,"gass84"
"116","Mandevilla tenuifolia",1094896543,-11.658889,-47.688611,"gass84"
"117","Mandevilla tenuifolia",1089115458,-18.0967,-43.0622,"gass84"
"118","Mandevilla tenuifolia",1087385469,-16.996389,-43.333611,"gass84"
"119","Mandevilla tenuifolia",1087657011,-20.136319,-43.972747,"gass84"
"120","Mandevilla tenuifolia",1829092271,-19.232389,-43.506694,"gass84"
"121","Mandevilla tenuifolia",1829132619,-9.205,-56.4659,"gass84"
"122","Mandevilla tenuifolia",1658211307,-7.876444,-37.228361,"cdround,gass84"
"123","Mandevilla tenuifolia",1087688683,-10.666944,-37.533056,"gass84"
"124","Mandevilla tenuifolia",1090697942,-15.614972,-42.739056,"gass84"
"125","Mandevilla tenuifolia",1089186897,-7.470556,-36.898222,"gass84"
"126","Mandevilla tenuifolia",1213519627,-9.435556,-38.566944,"gass84"
"127","Mandevilla tenuifolia",1087183506,-19.038611,-43.709722,"gass84"
"128","Mandevilla tenuifolia",1089114861,-17.3418,-43.2824,"gass84"
"129","Mandevilla tenuifolia",1087183534,-19.03,-43.700556,"gass84"
"130","Mandevilla tenuifolia",1090698435,-12.457361,-41.472139,"gass84"
"131","Mandevilla tenuifolia",1090698453,-13.006806,-41.376694,"gass84"
"132","Mandevilla tenuifolia",1077295953,-22.02475,-44.441333,"gass84"
"133","Mandevilla tenuifolia",1087705252,-14.330833,-40.208333,"gass84"
"134","Mandevilla tenuifolia",1094912704,-13.788056,-41.834722,"gass84"
"135","Mandevilla tenuifolia",1265932766,-22.130556,-47.777778,"gass84"
"136","Mandevilla tenuifolia",1423909998,-22.130556,-47.681389,"cdround,gass84"
"137","Mandevilla tenuifolia",1658211804,-7.220644,-38.598356,"cdround,gass84"
"138","Mandevilla tenuifolia",1089114691,-17.4225,-44.1139,"gass84"
"139","Mandevilla tenuifolia",1658210880,-7.962194,-38.313722,"cdround,gass84"
"140","Mandevilla tenuifolia",1090750072,-16.724167,-53.103611,"gass84"
"141","Mandevilla tenuifolia",1087652829,-20.050928,-49.689478,"gass84"
"142","Mandevilla tenuifolia",1094892758,-19.266667,-43.533333,"gass84"
"143","Mandevilla tenuifolia",1077608738,-10.558969,-36.72075,"gass84"
"144","Mandevilla tenuifolia",1913566035,-17.970833,-52.078889,"cdround,gass84"
"145","Mandevilla tenuifolia",1094887795,-12.854444,-39.475833,"gass84"
"146","Mandevilla tenuifolia",1087683149,-10.758056,-37.315,"gass84"
"147","Mandevilla tenuifolia",1087654603,-18.904444,-43.433056,"gass84"
"148","Mandevilla tenuifolia",1077608961,-9.320267,-36.473844,"gass84"
"149","Mandevilla tenuifolia",1094916741,-6.424444,-35.699167,"gass84"
"150","Mandevilla tenuifolia",1087659407,-20.038333,-43.5925,"gass84"
"151","Mandevilla tenuifolia",1094903769,-19.26,-43,"gass84"
"152","Mandevilla tenuifolia",1094901914,-16.566667,-42.883333,"gass84"
"153","Mandevilla tenuifolia",1095257747,-17.076944,-51.768611,"gass84"
"154","Mandevilla tenuifolia",1087655703,-18.908889,-43.432222,"gass84"
"155","Mandevilla tenuifolia",1090832401,-20.483333,-46.5,"gass84"
"156","Mandevilla tenuifolia",1089102793,-18.091578,-43.341791,"gass84"
"157","Mandevilla tenuifolia",1089115055,-20.1724,-46.18,"gass84"
"158","Mandevilla tenuifolia",1087656119,-20.198611,-43.435556,"gass84"
"159","Mandevilla tenuifolia",1424456793,-16.592778,-42.963611,"cdround,gass84"
"160","Mandevilla tenuifolia",1424465100,-17.85,-41.25,"gass84"
"161","Mandevilla tenuifolia",1213645085,-16.592639,-42.963611,"gass84"
"162","Mandevilla tenuifolia",1087659038,-17.855972,-41.260944,"gass84"
"163","Mandevilla tenuifolia",1208835719,-8.126389,-39.479167,"gass84"
"164","Mandevilla tenuifolia",1658210443,-8.126333,-39.479139,"cdround,gass84"
"165","Mandevilla tenuifolia",1077234192,-13.006667,-41.374722,"gass84"
"166","Mandevilla tenuifolia",1089178124,-7.470556,-35.898222,"gass84"
"167","Mandevilla tenuifolia",1424408451,-7.470556,-35.898333,"cdround,gass84"
"168","Mandevilla tenuifolia",1086911425,-24.0625,-49.07,"gass84"
"169","Mandevilla tenuifolia",1077577604,-8.583333,-37.238056,"gass84,txmatfuz"
"170","Mandevilla tenuifolia",1089179997,-9.255139,-36.460444,"gass84"
"171","Mandevilla tenuifolia",1927904106,-9.25722,-36.44542,"gass84"
"172","Mandevilla tenuifolia",1587313603,-9.6451,-36.490311,"gass84"
"173","Mandevilla tenuifolia",1658210476,-7.876528,-37.228417,"cdround,gass84"
"174","Mandevilla tenuifolia",1089180649,-8.095833,-36.678056,"gass84"
"175","Mandevilla tenuifolia",1658210599,-7.822722,-38.055528,"cdround,gass84"
"176","Mandevilla tenuifolia",1077235239,-11.494167,-41.331389,"gass84"
"177","Mandevilla tenuifolia",1089178954,-7.47275,-36.888667,"gass84"
"178","Mandevilla tenuifolia",1087661080,-18.469842,-43.4899,"gass84"
"179","Mandevilla tenuifolia",1077235426,-13.000278,-41.391389,"gass84"
"180","Mandevilla tenuifolia",1658210531,-10.666306,-40.366194,"cdround,gass84"
"181","Mandevilla tenuifolia",1291012157,-19.889944,-43.368639,"gass84"
"182","Mandevilla tenuifolia",1094882517,-15.23,-42.803889,"gass84"
"183","Mandevilla tenuifolia",1658210690,-10.437639,-39.33975,"cdround,gass84"
"184","Mandevilla tenuifolia",1094883708,-13.573056,-47.070556,"gass84"
"185","Mandevilla tenuifolia",1913568381,-6.303889,-49.899167,"gass84"
"186","Mandevilla tenuifolia",1094922310,-7.470556,-36.898333,"gass84,txmatfuz"
"187","Mandevilla tenuifolia",1086913161,-24.061944,-49.068333,"gass84"
"188","Mandevilla tenuifolia",1291012872,-20.076861,-44.026722,"gass84"
"189","Mandevilla tenuifolia",1291012902,-20.324444,-43.94,"gass84"
"190","Mandevilla tenuifolia",1077230969,-11.490278,-41.338056,"gass84"
"191","Mandevilla tenuifolia",1094868680,-14.150833,-47.760278,"gass84"
"192","Mandevilla tenuifolia",1658209974,-10.229444,-40.128889,"cdround,gass84"
"193","Mandevilla tenuifolia",1094885355,-12.566667,-41.383333,"gass84"
"194","Mandevilla tenuifolia",1090933967,-7.990083,-37.297194,"gass84"
"195","Mandevilla tenuifolia",1095259403,-12.826111,-48.185833,"gass84"
"196","Mandevilla tenuifolia",1913567138,-6.3375,-50.151667,"gass84"
"197","Mandevilla tenuifolia",1658210079,-7.907308,-37.092142,"cdround,gass84"
"198","Mandevilla tenuifolia",1587309363,-9.257142,-36.298708,"gass84"
"199","Mandevilla tenuifolia",1077231204,-11.166667,-40.516667,"gass84"
"200","Mandevilla tenuifolia",1090849203,-19.246944,-43.509639,"gass84"
"201","Mandevilla tenuifolia",1077231542,-13.000833,-41.385833,"gass84"
"202","Mandevilla tenuifolia",1090579271,-9.534722,-40.900556,"gass84"
"203","Mandevilla tenuifolia",1587311001,-9.560222,-36.414789,"gass84"
"204","Mandevilla tenuifolia",1587311598,-9.056617,-35.784353,"gass84"
"205","Mandevilla tenuifolia",1087183291,-20.154722,-43.514722,"gass84"
"206","Mandevilla tenuifolia",1087646618,-17.083222,-43.312028,"gass84"
"207","Mandevilla tenuifolia",1094877396,-12.114444,-40.180833,"gass84"
"208","Mandevilla tenuifolia",1090704574,-17.97,-52.078611,"cdround,gass84"
"209","Mandevilla tenuifolia",1094857057,-13.164444,-43.141111,"gass84"
"210","Mandevilla tenuifolia",1090663300,-9.584167,-55.191944,"gass84"
"211","Mandevilla tenuifolia",1928996181,-9.584,-55.19144,"gass84"
"212","Mandevilla tenuifolia",912375841,-9.58,-55.19,"gass84"
"213","Mandevilla tenuifolia",1090627243,-9.3502,-55.1129,"gass84"
"214","Mandevilla tenuifolia",1094857138,-19.206944,-43.499722,"gass84"
"215","Mandevilla tenuifolia",1257612864,-9.583889,-55.191389,"cdround,gass84"
"216","Mandevilla tenuifolia",1658209735,-9.562861,-41.346056,"cdround,gass84"
"217","Mandevilla tenuifolia",1094852361,-11.6175,-41.079722,"gass84"
"218","Mandevilla tenuifolia",1094878277,-9.511111,-41.816389,"gass84"
"219","Mandevilla tenuifolia",1658209757,-9.613661,-41.279103,"cdround,gass84"
"220","Mandevilla tenuifolia",1094851619,-13.534444,-41.8775,"gass84"
"221","Mandevilla tenuifolia",1077228927,-14.350556,-42.538333,"gass84"
"222","Mandevilla tenuifolia",1928640442,-11.6722,-41.0147,"gass84"
"223","Mandevilla tenuifolia",1077229143,-11.672222,-41.014722,"gass84"
"224","Mandevilla tenuifolia",1087649980,-20.134444,-43.463333,"gass84"
"225","Mandevilla tenuifolia",1094859980,-12.466667,-41.433333,"gass84"
"226","Mandevilla tenuifolia",1094859963,-12.991667,-41.341389,"gass84"
"227","Mandevilla tenuifolia",1089042161,-20,-46,"gass84"
"228","Mandevilla tenuifolia",1089090927,-20.28,-46.28,"gass84"
"229","Mandevilla tenuifolia",1291012784,-20.137361,-43.405278,"gass84"
"230","Mandevilla tenuifolia",1094833168,-12.3175,-40.483333,"gass84"
"231","Mandevilla tenuifolia",1087185406,-20.301806,-43.932583,"gass84"
"232","Mandevilla tenuifolia",1094858768,-20.301667,-43.9325,"gass84"
"233","Mandevilla tenuifolia",1077228339,-10,-42.5,"gass84"
"234","Mandevilla tenuifolia",1094837830,-11.258056,-41.095,"gass84"
"235","Mandevilla tenuifolia",1089173272,-6.824917,-36.45475,"gass84"
"236","Mandevilla tenuifolia",1424331485,-8.391389,-36.010278,"cdround,gass84"
"237","Mandevilla tenuifolia",1087533685,-11.44,-41.194167,"gass84"
"238","Mandevilla tenuifolia",1077226363,-12.988333,-41.340833,"gass84"
"239","Mandevilla tenuifolia",1094839408,-11.258889,-41.094444,"gass84"
"240","Mandevilla tenuifolia",1094837431,-11.258611,-41.095278,"gass84"
"241","Mandevilla tenuifolia",1094837274,-11.600833,-41.1525,"gass84"
"242","Mandevilla tenuifolia",1087647387,-20.192222,-43.605278,"gass84"
"243","Mandevilla tenuifolia",1077227559,-13.315556,-41.160556,"gass84"
"244","Mandevilla tenuifolia",1089090917,-20.151957,-46.254033,"gass84"
"245","Mandevilla tenuifolia",1424227066,-18.524722,-43.449444,"cdround,gass84"
"246","Mandevilla tenuifolia",1806849710,-19.247222,-43.511667,"gass84"
"247","Mandevilla tenuifolia",1095245308,-12.854444,-48.198055,"gass84"
"248","Mandevilla tenuifolia",1087651250,-19.25,-43.516667,"gass84"
"249","Mandevilla tenuifolia",1095243511,-12.9,-48.17,"gass84"
"250","Mandevilla tenuifolia",1090624312,-18.879783,-43.759567,"gass84"
"251","Mandevilla tenuifolia",1806849590,-19.289444,-43.587778,"gass84"
"252","Mandevilla tenuifolia",1090624315,-16.855556,-43.032778,"gass84"
"253","Mandevilla tenuifolia",1424227108,-16.850556,-43.032778,"cdround,gass84"
"254","Mandevilla tenuifolia",1806849547,-19.261389,-43.550556,"gass84"
"255","Mandevilla tenuifolia",1077228433,-14.066667,-42.466667,"gass84"
"256","Mandevilla tenuifolia",1438022170,-8.25,-36.190417,"cdround,gass84,txmatfuz"
"257","Mandevilla tenuifolia",1089090925,-20.153791,-46.252436,"gass84"
"258","Mandevilla tenuifolia",1213568217,-16.6828,-47.9894,"gass84"
"259","Mandevilla tenuifolia",1077574486,-8.391667,-36.010556,"gass84"
"260","Mandevilla tenuifolia",1094849214,-12.336389,-42.908056,"gass84"
"261","Mandevilla tenuifolia",1094879877,-13.075278,-41.906111,"gass84"
"262","Mandevilla tenuifolia",1042682346,-16.682778,-47.99,"elmms,gass84,gdativ"
"263","Mandevilla tenuifolia",1087241789,-18.25,-43.674722,"gass84"
"264","Mandevilla tenuifolia",1077602193,-12.881022,-41.371389,"gass84"
"265","Mandevilla tenuifolia",1094821969,-13.311667,-41.5625,"gass84"
"266","Mandevilla tenuifolia",1094823122,-13.033333,-41.883333,"gass84"
"267","Mandevilla tenuifolia",1094822126,-14.534444,-42.530833,"gass84"
"268","Mandevilla tenuifolia",1077569862,-8.447111,-36.988889,"gass84,txmatfuz"
"269","Mandevilla tenuifolia",1077569916,-8.442833,-36.988528,"gass84,txmatfuz"
"270","Mandevilla tenuifolia",1094824803,-10.106944,-42.858889,"gass84"
"271","Mandevilla tenuifolia",1086909590,-13.006944,-41.376111,"gass84"
"272","Mandevilla tenuifolia",1094824750,-9.995278,-42.52,"gass84"
"273","Mandevilla tenuifolia",1077607647,-10.790264,-37.583028,"gass84"
"274","Mandevilla tenuifolia",1087672783,-10.791667,-37.567778,"gass84"
"275","Mandevilla tenuifolia",1077223735,-11.3925,-40.539722,"gass84"
"276","Mandevilla tenuifolia",1077223750,-11.386389,-40.525833,"gass84"
"277","Mandevilla tenuifolia",1094828760,-12.464722,-41.419722,"gass84"
"278","Mandevilla tenuifolia",1077223751,-11.383333,-40.516667,"gass84"
"279","Mandevilla tenuifolia",1424276185,-18.111944,-42.741111,"cdround,gass84"
"280","Mandevilla tenuifolia",1123822532,-18.344528,-42.741111,"gass84"
"281","Mandevilla tenuifolia",1090932211,-12.583333,-41.383333,"gass84"
"282","Mandevilla tenuifolia",1090624887,-19.287222,-43.587778,"gass84"
"283","Mandevilla tenuifolia",1135911332,-16.745278,-47.604722,"gass84"
"284","Mandevilla tenuifolia",1135911923,-11.597778,-41.163333,"gass84"
"285","Mandevilla tenuifolia",1094810823,-13.083056,-41.376389,"gass84"
"286","Mandevilla tenuifolia",1094810807,-13.084722,-41.377778,"gass84"
"287","Mandevilla tenuifolia",1094809500,-13.073333,-41.379444,"gass84"
"288","Mandevilla tenuifolia",1135910986,-17.076944,-51.769167,"gass84"
"289","Mandevilla tenuifolia",1094880299,-13.308333,-41.266667,"gass84"
"290","Mandevilla tenuifolia",1094810452,-12.733333,-41.5,"gass84"
"291","Mandevilla tenuifolia",1094816873,-12.544722,-41.393056,"gass84"
"292","Mandevilla tenuifolia",1089096926,-8.1149,-36.2419,"gass84"
"293","Mandevilla tenuifolia",1094817208,-13.283333,-41.35,"gass84"
"294","Mandevilla tenuifolia",1094811950,-8.196944,-36.405278,"gass84"
"295","Mandevilla tenuifolia",1087672873,-8.233333,-35.796667,"gass84"
"296","Mandevilla tenuifolia",1094815854,-13,-41.383333,"gass84"
"297","Mandevilla tenuifolia",1077574547,-12.586944,-41.390556,"gass84,txmatfuz"
"298","Mandevilla tenuifolia",1094825328,-11.416667,-40.6,"gass84"
"299","Mandevilla tenuifolia",1089171212,-7.355278,-35.775,"gass84"
"300","Mandevilla tenuifolia",1094814136,-12.501111,-40.066667,"gass84"
"301","Mandevilla tenuifolia",1094822990,-12.501111,-40.083056,"gass84"
"302","Mandevilla tenuifolia",1077599193,-9.916947,-35.587669,"gass84"
"303","Mandevilla tenuifolia",1099615169,-15.811111,-48.815,"gass84"
"304","Mandevilla tenuifolia",1930887619,-15.8111,-48.815,"gass84"
"305","Mandevilla tenuifolia",1094821694,-10.075,-42.836944,"gass84"
"306","Mandevilla tenuifolia",1094821270,-11.690278,-41.023889,"gass84"
"307","Mandevilla tenuifolia",1095228131,-14.090555,-42.662777,"gass84"
"308","Mandevilla tenuifolia",1213518029,-13.454722,-40.516667,"gass84"
"309","Mandevilla tenuifolia",1094798548,-14.090556,-42.662778,"gass84"
"310","Mandevilla tenuifolia",1094880225,-12.550278,-41.3925,"gass84"
"311","Mandevilla tenuifolia",1094801480,-10.65,-39.733333,"gass84"
"312","Mandevilla tenuifolia",1095237324,-12.921111,-47.561388,"gass84"
"313","Mandevilla tenuifolia",1135088105,-18.37,-53.003333,"gass84"
"314","Mandevilla tenuifolia",1090623534,-13.745556,-41.31,"gass84"
"315","Mandevilla tenuifolia",1077219708,-11.55,-41.15,"gass84"
"316","Mandevilla tenuifolia",1931114960,-8.337714,-35.846925,""
"317","Mandevilla tenuifolia",1094800200,-11.625278,-40.994444,"gass84"
"318","Mandevilla tenuifolia",1077220532,-12.55,-41.383333,"gass84"
"319","Mandevilla tenuifolia",1099302937,-15.392722,-55.835361,"gass84"
"320","Mandevilla tenuifolia",1094808162,-12.309722,-40.484167,"gass84"
"321","Mandevilla tenuifolia",1135910770,-17.708333,-44.195278,"gass84"
"322","Mandevilla tenuifolia",1090623271,-16.858056,-43.040556,"gass84"
"323","Mandevilla tenuifolia",1077217035,-12,-41.333333,"gass84"
"324","Mandevilla tenuifolia",1094788038,-13.350556,-41.9425,"gass84"
"325","Mandevilla tenuifolia",1135904644,-18.2228,-43.3255,"gass84"
"326","Mandevilla tenuifolia",1094788213,-11.6,-41.2,"gass84"
"327","Mandevilla tenuifolia",1094788268,-16.591667,-42.725,"gass84"
"328","Mandevilla tenuifolia",1094788350,-17.08,-43.310833,"gass84"
"329","Mandevilla tenuifolia",1094788208,-12.833333,-39.466667,"gass84"
"330","Mandevilla tenuifolia",1089167952,-7.477778,-36.886111,"gass84"
"331","Mandevilla tenuifolia",1077216732,-12.683333,-38.316667,"gass84"
"332","Mandevilla tenuifolia",1089168158,-6.683333,-35.753889,"gass84"
"333","Mandevilla tenuifolia",1094787292,-12.024167,-41.105278,"gass84"
"334","Mandevilla tenuifolia",1094788783,-11.471667,-41.369722,"gass84"
"335","Mandevilla tenuifolia",1094790318,-6.676944,-35.753889,"gass84"
"336","Mandevilla tenuifolia",1077218711,-11.416667,-40.583333,"gass84"
"337","Mandevilla tenuifolia",1090751045,-17.907778,-57.572778,"gass84"
"338","Mandevilla tenuifolia",1930511965,-8.46184967042795,-35.9440897635142,"cdrep"
"339","Mandevilla tenuifolia",1087179108,-16.613056,-41.765278,"gass84"
"340","Mandevilla tenuifolia",1089168536,-6.558333,-35.741667,"gass84"
"341","Mandevilla tenuifolia",1701751362,-10.8339,-52.8731,"gass84"
"342","Mandevilla tenuifolia",1090622690,-16.083333,-50.583333,"gass84"
"343","Mandevilla tenuifolia",1090623436,-20.157778,-47.277222,"gass84"
"344","Mandevilla tenuifolia",1090622646,-15.572222,-47.486111,"gass84"
"345","Mandevilla tenuifolia",1931229184,-8.23687344405754,-35.7965804832474,"cdrep"
"346","Mandevilla tenuifolia",1090803163,-19.295556,-48.125278,"gass84"
"347","Mandevilla tenuifolia",1090623059,-16.560111,-42.895972,"gass84"
"348","Mandevilla tenuifolia",1089072432,-16.3336,-42.5345,"gass84"
"349","Mandevilla tenuifolia",1089072450,-16.1325,-42.5348,"gass84"
"350","Mandevilla tenuifolia",1094791460,-7.514167,-36.733333,"gass84"
"351","Mandevilla tenuifolia",1089072422,-14.748,-48.46,"gass84"
"352","Mandevilla tenuifolia",1089166199,-7.514167,-36.759444,"gass84"
"353","Mandevilla tenuifolia",1135899846,-18.3426,-43.2842,"gass84"
"354","Mandevilla tenuifolia",1089072409,-13.3122,-41.5629,"gass84"
"355","Mandevilla tenuifolia",1089166134,-7.483333,-36.665,"gass84"
"356","Mandevilla tenuifolia",1135899537,-17.0245,-43.2058,"gass84"
"357","Mandevilla tenuifolia",1095222566,-13.573611,-48.072222,"gass84"
"358","Mandevilla tenuifolia",1089078702,-16,-41,"gass84"
"359","Mandevilla tenuifolia",1929121073,-11.915867,-41.120483,"gass84"
"360","Mandevilla tenuifolia",1090623060,-16.557222,-42.893889,"gass84"
"361","Mandevilla tenuifolia",1090484018,-11.9,-41.116667,"gass84"
"362","Mandevilla tenuifolia",1089078741,-16,-42,"gass84"
"363","Mandevilla tenuifolia",1089072442,-4,-41.425,"gass84"
"364","Mandevilla tenuifolia",1094777703,-13.41,-40.413889,"gass84"
"365","Mandevilla tenuifolia",1094777021,-10.321111,-41.395,"gass84"
"366","Mandevilla tenuifolia",1077216442,-12.8,-41.316667,"gass84"
"367","Mandevilla tenuifolia",1087380780,-13.788056,-41.834444,"gass84"
"368","Mandevilla tenuifolia",1135904001,-17.1001,-43.07,"gass84"
"369","Mandevilla tenuifolia",1135903738,-17.0448,-43.1842,"gass84"
"370","Mandevilla tenuifolia",1135903772,-16.597778,-42.962778,"gass84"
"371","Mandevilla tenuifolia",1089090896,-20.26,-46.387,"gass84"
"372","Mandevilla tenuifolia",1094786465,-11.933333,-41.116667,"gass84"
"373","Mandevilla tenuifolia",1089065205,-23.09262,-48.33262,"gass84"
"374","Mandevilla tenuifolia",1089067287,-4.6,-41.4,"gass84"
"375","Mandevilla tenuifolia",1089065663,-16.36,-43.18,"gass84"
"376","Mandevilla tenuifolia",1077211401,-12.906389,-41.246944,"gass84"
"377","Mandevilla tenuifolia",1094771455,-11.577778,-41.107222,"gass84"
"378","Mandevilla tenuifolia",1848241551,-9.758889,-42.298056,"gass84"
"379","Mandevilla tenuifolia",1087535851,-12.9,-41.233333,"gass84"
"380","Mandevilla tenuifolia",1042613387,-9.758889,-42.3,"elmms,gass84,gdativ"
"381","Mandevilla tenuifolia",1094900432,-11.388333,-40.535556,"gass84"
"382","Mandevilla tenuifolia",1135895322,-19.2203,-43.4992,"gass84"
"383","Mandevilla tenuifolia",1094773728,-11.478333,-41.085833,"gass84"
"384","Mandevilla tenuifolia",1089069253,-16.59,-43.2,"gass84"
"385","Mandevilla tenuifolia",1095220543,-14.9325,-45.94917,"gass84"
"386","Mandevilla tenuifolia",1090622385,-16.654,-51.708167,"gass84"
"387","Mandevilla tenuifolia",1095220426,-14.91028,-45.82333,"gass84"
"388","Mandevilla tenuifolia",1094775241,-9.387222,-42.36,"gass84"
"389","Mandevilla tenuifolia",1094786516,-13.3,-41.566667,"gass84"
"390","Mandevilla tenuifolia",1094786560,-13.383333,-41.766667,"gass84"
"391","Mandevilla tenuifolia",1089240585,-4.955556,-39.024444,"gass84"
"392","Mandevilla tenuifolia",1913580852,-21.076388,-46.446388,"gass84"
"393","Mandevilla tenuifolia",1090622205,-9.738056,-42.430278,"gass84"
"394","Mandevilla tenuifolia",1090479125,-11.940556,-44.91,"gass84"
"395","Mandevilla tenuifolia",1094765463,-9.738056,-42.396944,"gass84"
"396","Mandevilla tenuifolia",1090482022,-12.853611,-39.475833,"gass84"
"397","Mandevilla tenuifolia",1095223948,-11.94056,-44.91,"gass84"
"398","Mandevilla tenuifolia",1095223816,-9.73806,-42.39694,"gass84"
"399","Mandevilla tenuifolia",1094170762,-9.746667,-40.684167,"gass84"
"400","Mandevilla tenuifolia",1087533322,-9.746667,-40.691667,"gass84"
"401","Mandevilla tenuifolia",1272058521,-14.166667,-47.583333,"gass84"
"402","Mandevilla tenuifolia",1455388085,-8.201389,-36.389167,"gass84"
"403","Mandevilla tenuifolia",1089065069,-18.3452,-43.5237,"gass84"
"404","Mandevilla tenuifolia",1095219095,-13.56694,-48.08472,"gass84"
"405","Mandevilla tenuifolia",1094762039,-12.5,-41.383333,"gass84"
"406","Mandevilla tenuifolia",1087232071,-15.683333,-47.866667,"gass84"
"407","Mandevilla tenuifolia",1090621138,-11.591111,-41.206667,"gass84"
"408","Mandevilla tenuifolia",1094754442,-12.31,-40.346944,"gass84"
"409","Mandevilla tenuifolia",1929470397,-13.2894732514244,-40.9508119601069,"cdrep"
"410","Mandevilla tenuifolia",1094755035,-10.35,-41.216667,"gass84"
"411","Mandevilla tenuifolia",1930760841,-12.3205498692956,-42.8959386714243,"cdrep"
"412","Mandevilla tenuifolia",1094755159,-11.083333,-40.666667,"gass84"
"413","Mandevilla tenuifolia",1094755169,-11.15,-40.45,"gass84"
"414","Mandevilla tenuifolia",1089059129,-11.9,-40.27,"gass84"
"415","Mandevilla tenuifolia",1090621050,-11.578056,-42.055556,"gass84"
"416","Mandevilla tenuifolia",1930572663,-11.5539317677047,-41.1558252067773,"cdrep"
"417","Mandevilla tenuifolia",1051239688,-10.37,-41.32,"gass84"
"418","Mandevilla tenuifolia",1090621179,-10.366667,-41.316667,"gass84"
"419","Mandevilla tenuifolia",1090476357,-11.578056,-41.107778,"gass84"
"420","Mandevilla tenuifolia",1090720022,-12.853056,-39.471944,"gass84"
"421","Mandevilla tenuifolia",1455388069,-8.2075,-36.385361,"gass84"
"422","Mandevilla tenuifolia",1094774927,-8.2075,-36.403611,"gass84"
"423","Mandevilla tenuifolia",1077560338,-8.2075,-36.392222,"gass84,txmatfuz"
"424","Mandevilla tenuifolia",1089068793,-11.2914,-41.122,"gass84"
"425","Mandevilla tenuifolia",1424440977,-8.166667,-35.783333,"cdround,gass84"
"426","Mandevilla tenuifolia",1455388058,-8.500489,-36.935414,"gass84"
"427","Mandevilla tenuifolia",1455388057,-8.1681,-35.784119,"gass84"
"428","Mandevilla tenuifolia",1455388059,-8.435736,-36.768783,"gass84"
"429","Mandevilla tenuifolia",1087606693,-18.083333,-43.333333,"gass84"
"430","Mandevilla tenuifolia",1434685489,-15.283333,-47.636111,"gass84"
"431","Mandevilla tenuifolia",1090621022,-13.409167,-40.412861,"gass84"
"432","Mandevilla tenuifolia",1135864205,-20.25,-41.48,"gass84"
"433","Mandevilla tenuifolia",1090620335,-18.933333,-43.683333,"gass84"
"434","Mandevilla tenuifolia",1089062797,-18.3447,-43.523,"gass84"
"435","Mandevilla tenuifolia",1658209796,-8.494444,-35.695833,"cdround,gass84"
"436","Mandevilla tenuifolia",1424385092,-13.566667,-41.816667,"cdround,gass84"
"437","Mandevilla tenuifolia",1258363758,-13.89472,-60.81277,"gass84"
"438","Mandevilla tenuifolia",1258369523,-14.54305,-61.49777,"gass84"
"439","Mandevilla tenuifolia",1929286824,-13.57,-41.82,"gass84"
"440","Mandevilla tenuifolia",1095212229,-13.86667,-48.28333,"gass84"
"441","Mandevilla tenuifolia",1123827812,-20.253333,-47.479444,"gass84"
"442","Mandevilla tenuifolia",1703067744,-14.5431,-61.4978,"gass84"
"443","Mandevilla tenuifolia",1703067746,-13.8947,-60.8128,"gass84"
"444","Mandevilla tenuifolia",1090468290,-11.983333,-39.1,"gass84"
"445","Mandevilla tenuifolia",1094747221,-13.598056,-41.830556,"gass84"
"446","Mandevilla tenuifolia",1094781052,-13.795,-41.778889,"gass84"
"447","Mandevilla tenuifolia",1094781063,-13.595278,-41.834722,"gass84"
"448","Mandevilla tenuifolia",1135873209,-11.3602,-51.0456,"gass84"
"449","Mandevilla tenuifolia",1324959582,-11.600722,-51.082361,"gass84"
"450","Mandevilla tenuifolia",1138047836,-20.093056,-43.983611,""
"451","Mandevilla tenuifolia",1928991078,-13.582879880292,-41.8114683539125,"cdrep"
"452","Mandevilla tenuifolia",1137500879,-15.405556,-45.920556,""
"453","Mandevilla tenuifolia",1135858171,-19.823139,-43.6853,"gass84"
"454","Mandevilla tenuifolia",1089043595,-19.497,-43.4044,"gass84"
"455","Mandevilla tenuifolia",1077609761,-13.608428,-41.813631,"gass84"
"456","Mandevilla tenuifolia",1135859545,-20.289389,-46.8678,"gass84"
"457","Mandevilla tenuifolia",1095209860,-12.46667,-41.41667,"gass84"
"458","Mandevilla tenuifolia",1095209859,-12.95,-41.26667,"gass84"
"459","Mandevilla tenuifolia",1455388025,-8.2,-35.816667,"gass84"
"460","Mandevilla tenuifolia",1094780173,-11.579167,-41.165556,"gass84"
"461","Mandevilla tenuifolia",1094780128,-13.006944,-41.376667,"gass84"
"462","Mandevilla tenuifolia",1094780146,-11.619444,-41.174722,"gass84"
"463","Mandevilla tenuifolia",1094780162,-11.086944,-40.6725,"gass84"
"464","Mandevilla tenuifolia",1137500907,-14.163056,-47.835556,""
"465","Mandevilla tenuifolia",1090718982,-13.890556,-48.162778,"gass84"
"466","Mandevilla tenuifolia",1095212152,-13.89056,-48.16278,"gass84"
"467","Mandevilla tenuifolia",1094743356,-12.733333,-39.783333,"gass84"
"468","Mandevilla tenuifolia",1087234314,-16.75,-47.666667,"gass84"
"469","Mandevilla tenuifolia",1260158941,-14.16305,-47.83555,"gass84"
"470","Mandevilla tenuifolia",1930065733,-9.25,-36.42,"gass84"
"471","Mandevilla tenuifolia",1258148048,-9.25,-36.416667,"cdround,gass84"
"472","Mandevilla tenuifolia",1144718412,-9.25,-36.41667,"gass84"
"473","Mandevilla tenuifolia",1077597006,-12.665086,-41.204878,"gass84"
"474","Mandevilla tenuifolia",1094747113,-12.795556,-41.439722,"gass84"
"475","Mandevilla tenuifolia",1094739453,-12.45,-41.45,"gass84"
"476","Mandevilla tenuifolia",1077610138,-7.857811,-39.030297,"gass84"
"477","Mandevilla tenuifolia",1455388015,-8.616667,-37.166667,"gass84"
"478","Mandevilla tenuifolia",1095580343,-18.423833,-43.680917,"gass84"
"479","Mandevilla tenuifolia",1089062790,-18.2526,-43.4051,"gass84"
"480","Mandevilla tenuifolia",1089062787,-20.3028,-43.3818,"gass84"
"481","Mandevilla tenuifolia",1213597924,-18.183333,-44.6,"gass84"
"482","Mandevilla tenuifolia",1213597921,-18.25,-43.666667,"gass84"
"483","Mandevilla tenuifolia",1213597939,-18.333333,-43.883333,"gass84"
"484","Mandevilla tenuifolia",1455388035,-8.625,-37.154167,"gass84"
"485","Mandevilla tenuifolia",1094742979,-12.716667,-39.7,"gass84"
"486","Mandevilla tenuifolia",1077589462,-9.769575,-35.860858,"gass84"
"487","Mandevilla tenuifolia",1260159554,-18.25,-43.66666,"gass84"
"488","Mandevilla tenuifolia",1260159499,-18.33333,-43.88333,"gass84"
"489","Mandevilla tenuifolia",1260159200,-18.18333,-44.6,"gass84"
"490","Mandevilla tenuifolia",1137644601,-20.383,-46.189167,""
"491","Mandevilla tenuifolia",1042677881,-13.3,-41.85,"gass84,gdativ"
"492","Mandevilla tenuifolia",1090619245,-20.393889,-46.193056,"gass84"
"493","Mandevilla tenuifolia",1137500871,-12.462778,-41.428333,""
"494","Mandevilla tenuifolia",1930575373,-14.2664,-42.5244,"gass84"
"495","Mandevilla tenuifolia",1090618594,-14.266389,-42.524444,"gass84"
"496","Mandevilla tenuifolia",1138047783,-14.25,-42.516667,""
"497","Mandevilla tenuifolia",1090464192,-12.456944,-41.45,"gass84"
"498","Mandevilla tenuifolia",1095205279,-17.71667,-48.15,"gass84"
"499","Mandevilla tenuifolia",1095205292,-17.73333,-48.61667,"gass84"
"500","Mandevilla tenuifolia",1090463831,-12.459722,-41.440278,"gass84"
"501","Mandevilla tenuifolia",1090454833,-10.5,-40.333333,"gass84"
"502","Mandevilla tenuifolia",1929371796,-10.5,-40.33,"gass84"
"503","Mandevilla tenuifolia",1087674764,-10.4529,-37.1854,"gass84"
"504","Mandevilla tenuifolia",1077609759,-9.383219,-36.371494,"gass84"
"505","Mandevilla tenuifolia",1094731538,-12.85,-39.466667,"gass84"
"506","Mandevilla tenuifolia",1261868498,-14.55833,-60.76138,"gass84"
"507","Mandevilla tenuifolia",1261862930,-13.55,-61,"gass84"
"508","Mandevilla tenuifolia",1701751415,-16.7261,-64.435,"gass84"
"509","Mandevilla tenuifolia",1261870345,-14.82666,-60.38611,"gass84"
"510","Mandevilla tenuifolia",1261870629,-14.5,-61.51666,"gass84"
"511","Mandevilla tenuifolia",1931132924,-13.3,-41.87,"gass84"
"512","Mandevilla tenuifolia",1094734404,-13.3,-41.866667,"gass84"
"513","Mandevilla tenuifolia",1930225561,-15.88,-50.13,"gass84"
"514","Mandevilla tenuifolia",1928377228,-13.3,-41.77,"gass84"
"515","Mandevilla tenuifolia",1090618301,-13.3,-41.766667,"gass84"
"516","Mandevilla tenuifolia",1090617985,-13.266667,-41.866667,"gass84"
"517","Mandevilla tenuifolia",1051239474,-16.92,-43.05,"gass84"
"518","Mandevilla tenuifolia",1090617202,-16.916667,-43.05,"gass84"
"519","Mandevilla tenuifolia",1077588433,-12.287758,-40.491594,"gass84"
"520","Mandevilla tenuifolia",1095199401,-13.23333,-47.15,"gass84"
"521","Mandevilla tenuifolia",1434685378,-13.233333,-47.15,"gass84"
"522","Mandevilla tenuifolia",1090618278,-13.266667,-41.883333,"gass84"
"523","Mandevilla tenuifolia",1090485844,-13.25,-41.883333,"gass84,preneglat"
"524","Mandevilla tenuifolia",1929056951,-13.27,-41.88,"gass84"
"525","Mandevilla tenuifolia",1095197988,-13.8,-48.28333,"gass84"
"526","Mandevilla tenuifolia",1089052376,-13.48,-48.17,"gass84"
"527","Mandevilla tenuifolia",1929816152,-13.25,-41.88,"gass84"
"528","Mandevilla tenuifolia",1089065614,-13.15,-41.53,"gass84"
"529","Mandevilla tenuifolia",1087231544,-8.416667,-65,"gass84"
"530","Mandevilla tenuifolia",1090619054,-13.333333,-41.383333,"gass84"
"531","Mandevilla tenuifolia",1087590366,-21.083333,-44.166667,"gass84"
"532","Mandevilla tenuifolia",1703067583,-16.5833,-62.25,"gass84"
"533","Mandevilla tenuifolia",1929347989,-13.4447768317091,-40.4305779061221,"cdrep"
"534","Mandevilla tenuifolia",1090616327,-18.433333,-43.683333,"gass84"
"535","Mandevilla tenuifolia",1303201226,-14.066667,-43.3,"gass84"
"536","Mandevilla tenuifolia",1090616251,-15.95,-50.033333,"gass84"
"537","Mandevilla tenuifolia",1260161893,-13.5,-40.5,"gass84"
"538","Mandevilla tenuifolia",1089017518,-13.37,-41.49,"gass84"
"539","Mandevilla tenuifolia",1090498902,-13.616667,-41.816667,"gass84,txmatfuz"
"540","Mandevilla tenuifolia",1703067563,-13.6167,-41.8167,"gass84"
"541","Mandevilla tenuifolia",1928913101,-13.43,-42.2,"gass84"
"542","Mandevilla tenuifolia",1703067568,-13.4333,-42.2,"gass84"
"543","Mandevilla tenuifolia",1090617094,-13.433333,-42.2,"gass84"
"544","Mandevilla tenuifolia",1703067562,-13.5333,-41.95,"gass84"
"545","Mandevilla tenuifolia",1930567824,-17.07,-43.3,"gass84"
"546","Mandevilla tenuifolia",1260162463,-13.43333,-42.2,"gass84"
"547","Mandevilla tenuifolia",1090618025,-20.133333,-44.216667,"gass84"
"548","Mandevilla tenuifolia",1260162164,-14.16666,-47.61944,"gass84"
"549","Mandevilla tenuifolia",1260162226,-14.15944,-47.5925,"gass84"
"550","Mandevilla tenuifolia",1303201181,-16.766667,-47.616667,"gass84"
"551","Mandevilla tenuifolia",1087669053,-10.4583,-37.2081,"gass84"
"552","Mandevilla tenuifolia",1658212044,-10.699547,-37.333161,"cdround,gass84"
"553","Mandevilla tenuifolia",1090616225,-16.595,-42.963333,"gass84"
"554","Mandevilla tenuifolia",1929675819,-1.164599,-55.759129,"cdround"
"555","Mandevilla tenuifolia",1137443183,-13.983333,-60.716667,""
"556","Mandevilla tenuifolia",1042515903,-8.033333,-62,"gass84,gdativ"
"557","Mandevilla tenuifolia",1042515849,-7.833333,-62.25,"gass84,gdativ"
"558","Mandevilla tenuifolia",1928173850,-7.83,-62.25,"gass84"
"559","Mandevilla tenuifolia",1087568818,-19.816667,-43.666667,"gass84"
"560","Mandevilla tenuifolia",1339190627,-16.833333,-43,""
"561","Mandevilla tenuifolia",1087668494,-10.688611,-37.148333,"gass84"
"562","Mandevilla tenuifolia",1086727879,-9.25,-40.666667,"gass84"
"563","Mandevilla tenuifolia",1929544528,-6.055124,-50.173616,"cdround"
"564","Mandevilla tenuifolia",1094721516,-12.75,-39.533333,"gass84"
"565","Mandevilla tenuifolia",1086727888,-9.285278,-40.618611,"gass84"
"566","Mandevilla tenuifolia",1123789339,-13.440278,-40.436389,"gass84"
"567","Mandevilla tenuifolia",1086729219,-8.571389,-40.122778,"gass84"
"568","Mandevilla tenuifolia",1090434947,-12.25,-41.3,"gass84,preswcd"
"569","Mandevilla tenuifolia",1094720906,-12.45,-41.466667,"gass84"
"570","Mandevilla tenuifolia",1089006159,-18.36,-48.54,"gass84"
"571","Mandevilla tenuifolia",1090615498,-18.866667,-43.766667,"gass84"
"572","Mandevilla tenuifolia",1090615507,-18.833333,-43.816667,"gass84"
"573","Mandevilla tenuifolia",1077584949,-4.10075,-41.712397,"gass84"
"574","Mandevilla tenuifolia",1929463523,-3.93171856332431,-41.7092600869194,"cdrep"
"575","Mandevilla tenuifolia",1051239521,-5.92,-50.43,"gass84"
"576","Mandevilla tenuifolia",1929214939,-5.916667,-50.433333,"gass84"
"577","Mandevilla tenuifolia",1703067349,-5.91667,-50.4333,"gass84"
"578","Mandevilla tenuifolia",1090430578,-12.533333,-41.333333,"gass84"
"579","Mandevilla tenuifolia",1260161219,-5.91666,-50.43333,"gass84"
"580","Mandevilla tenuifolia",1090426095,-12.983333,-41.35,"gass84"
"581","Mandevilla tenuifolia",1137315831,-13.7,-41.266667,""
"582","Mandevilla tenuifolia",1099316609,-6.15,-37.633333,"gass84"
"583","Mandevilla tenuifolia",1090615573,-12.533333,-41.366667,"gass84"
"584","Mandevilla tenuifolia",1928805231,-12.53,-41.37,"gass84"
"585","Mandevilla tenuifolia",1077584714,-9.661072,-36.197975,"gass84"
"586","Mandevilla tenuifolia",1089006127,-13.2,-41.25,"gass84"
"587","Mandevilla tenuifolia",1928985416,-13.0092666818479,-41.3706393848679,"cdrep"
"588","Mandevilla tenuifolia",1324958390,-15.290278,-55.804167,"gass84"
"589","Mandevilla tenuifolia",1088994348,-15.3556,-56.61,"gass84"
"590","Mandevilla tenuifolia",1324958378,-15.598889,-56.100278,"gass84"
"591","Mandevilla tenuifolia",1931339744,-13.55,-41.95,"gass84"
"592","Mandevilla tenuifolia",1090420967,-12.95,-41.333333,"gass84"
"593","Mandevilla tenuifolia",1914110013,-12.57,-41.2,"gass84"
"594","Mandevilla tenuifolia",1929591878,-12.95,-41.33,"gass84"
"595","Mandevilla tenuifolia",1089137486,-6.88,-35.991111,"gass84"
"596","Mandevilla tenuifolia",1931342090,-6,-50.25,"gass84"
"597","Mandevilla tenuifolia",1928060232,-9.340659,-54.843546,"cdround"
"598","Mandevilla tenuifolia",1929737566,-9.3347,-54.9642,""
"599","Mandevilla tenuifolia",1259076305,-11.65,-40.88,"gass84"
"600","Mandevilla tenuifolia",1928128025,-10.0610745923597,-54.9337069267995,"cdrep"
"601","Mandevilla tenuifolia",1836918697,-11.226,-37.3928,"gass84"
"602","Mandevilla tenuifolia",1836918698,-10.4107,-37.253,"gass84"
"603","Mandevilla tenuifolia",1138307082,-13.533333,-41.916667,""
"604","Mandevilla tenuifolia",1928105088,-13.53,-41.92,"gass84"
"605","Mandevilla tenuifolia",1077532149,-10.45,-39.333333,"gass84,txmatfuz"
"606","Mandevilla tenuifolia",1139084310,-13.016667,-41.35,""
"607","Mandevilla tenuifolia",1930234285,-13.02,-41.35,"gass84"
"608","Mandevilla tenuifolia",1260162209,-10.45,-39.33333,"gass84"
"609","Mandevilla tenuifolia",1090414017,-10.3,-40.25,"gass84"
"610","Mandevilla tenuifolia",1930315913,-10.45,-39.33,"gass84"
"611","Mandevilla tenuifolia",1090413961,-10.366667,-41.333333,"gass84"
"612","Mandevilla tenuifolia",1929899915,-19.83305,-43.726389,"cdround"
"613","Mandevilla tenuifolia",1928923579,-20.130068,-43.508849,""
"614","Mandevilla tenuifolia",1930176224,-11.64715,-41.016111,"cdround"
"615","Mandevilla tenuifolia",1928610530,-18.6409842020454,-44.0583209658453,"cdrep"
"616","Mandevilla tenuifolia",1930110776,-18.9439,-46.9925,""
"617","Mandevilla tenuifolia",1051239498,2.33,-55.75,"gass84"
"618","Mandevilla tenuifolia",1844955004,2.333333,-55.75,"gass84"
"619","Mandevilla tenuifolia",1896087298,-18.236944,-43.428889,"cdround,elmms,gass84"
"620","Mandevilla tenuifolia",1929530705,-18.1838,-43.536667,"cdround"
"621","Mandevilla tenuifolia",1929502561,-18.27,-43.7,"gass84"
"622","Mandevilla tenuifolia",1228423281,-18,-44,"gass84"
"623","Mandevilla tenuifolia",1931055538,-18.1798,-43.5512,""
"624","Mandevilla tenuifolia",1928413842,-16.56475,-42.8944,""
"625","Mandevilla tenuifolia",1928045732,-16.6349,-42.9786,""
"626","Mandevilla tenuifolia",1051239571,-14.63,-52.23,"gass84"
"627","Mandevilla tenuifolia",1930057976,-18.87,-43.4,"gass84"
"628","Mandevilla tenuifolia",1339180391,-13.533333,-45.5,""
"629","Mandevilla tenuifolia",1929742334,-16.0611,-50.00122,""
"630","Mandevilla tenuifolia",1051239115,-14,-50,"gass84"
"631","Mandevilla tenuifolia",1931362640,-16.73193,-47.6,""
"632","Mandevilla tenuifolia",1931368845,-13.89039,-47.5,""
"633","Mandevilla tenuifolia",1930900852,-15.96917,-48.06349,""
"634","Mandevilla tenuifolia",1087308744,-20.35,-43.466667,"gass84"
"635","Mandevilla tenuifolia",1087308726,-19.283333,-43.55,"gass84"
"636","Mandevilla tenuifolia",1927784059,-15.9381184154732,-50.1409179125103,"cdrep"
"637","Mandevilla tenuifolia",1455387986,-9.333333,-54.883333,"gass84"
"638","Mandevilla tenuifolia",1090538970,-21.0167,-46.7411,"gass84"
"639","Mandevilla tenuifolia",1089161221,-7.489167,-36.287222,"gass84"
"640","Mandevilla tenuifolia",1264702257,-6.488333,-35.637222,"gass84"
"641","Mandevilla tenuifolia",1144718422,-12.18306,-41.99722,"gass84,rdativ"
"642","Mandevilla tenuifolia",1928515079,-16.2262378377523,-41.47674699828,"cdrep"
"643","Mandevilla tenuifolia",1144718413,-15.81194,-49.56972,"gass84,rdativ"
"644","Mandevilla tenuifolia",1144593622,-18.78778,-45.44222,"gass84,rdativ,txmatfuz"
"645","Mandevilla tenuifolia",1099989812,-10,-55,"rdativ"
"646","Mandevilla tenuifolia",1144718401,-10.77306,-53.08972,"gass84,rdativ"
"647","Mandevilla tenuifolia",1098494038,-15.166667,-55.083333,"gass84"
"648","Mandevilla tenuifolia",1658204260,-4.0975,-41.680833,"gass84,preneglat,preneglon"
"649","Mandevilla tenuifolia",1077219439,-13.129167,-41.776111,"gass84"
"650","Mandevilla tenuifolia",1144718397,-8.08139,-43.19639,"gass84,rdativ"
"651","Mandevilla tenuifolia",1094845303,-12.966667,-41.333333,"gass84"
"652","Mandevilla tenuifolia",1929741928,-16.77,-47.62,"gass84"
"653","Mandevilla tenuifolia",1087077140,-13.6,-41.833333,"cdround,gass84,txmatfuz"
"654","Mandevilla tenuifolia",1658204246,-4.1,-41.666667,"gass84,preneglat,preneglon"
