"","name","key","decimalLatitude","decimalLongitude","issues"
"1","Microlicia isophylla",1889166260,-20.1598,-44.143672,"gass84"
"2","Microlicia isophylla",1587065476,-20.093528,-43.683722,"cdround,gass84"
"3","Microlicia isophylla",1587067511,-20.259444,-46.424778,"cdround,gass84"
"4","Microlicia isophylla",1889166316,-20.4429,-46.713272,"gass84"
"5","Microlicia isophylla",1571707295,-20.466944,-41.813889,"cdround,gass84"
"6","Microlicia isophylla",1931786661,-21.230303,-44.499297,"gass84"
"7","Microlicia isophylla",1829083621,-20.228333,-43.57,"gass84"
"8","Microlicia isophylla",1270105771,-21.717381,-44.977222,"gass84"
"9","Microlicia isophylla",1455395531,-22.668056,-45.544167,"gass84"
"10","Microlicia isophylla",1563169506,-22.668611,-45.545,"gass84"
"11","Microlicia isophylla",1587065215,-18.309083,-43.867667,"cdround,gass84"
"12","Microlicia isophylla",1587065240,-17.60175,-44.196361,"cdround,gass84"
"13","Microlicia isophylla",1563169598,-22.671389,-45.547222,"gass84"
"14","Microlicia isophylla",1949963931,-20.264722,-43.863611,"gass84"
"15","Microlicia isophylla",1587291623,-20.412833,-43.726056,"gass84"
"16","Microlicia isophylla",1303587703,-20.147222,-43.924722,"gass84"
"17","Microlicia isophylla",1090965804,-21.717922,-44.978264,"gass84"
"18","Microlicia isophylla",1949963493,-20.143611,-43.801667,"gass84"
"19","Microlicia isophylla",1303587465,-20.445833,-43.905833,"gass84"
"20","Microlicia isophylla",1303587308,-20.175,-43.824167,"gass84"
"21","Microlicia isophylla",1208831785,-22.139167,-44.724167,"gass84"
"22","Microlicia isophylla",1303588106,-20.228611,-43.848611,"gass84"
"23","Microlicia isophylla",1455393812,-22.056549,-44.677843,"gass84"
"24","Microlicia isophylla",1424483192,-22.723056,-44.609444,"cdround,gass84"
"25","Microlicia isophylla",1424483236,-22.722222,-44.613333,"cdround,gass84"
"26","Microlicia isophylla",1135950618,-20.44,-43.801944,"gass84"
"27","Microlicia isophylla",1086915749,-23.266667,-45.95,"gass84"
"28","Microlicia isophylla",1234559440,-20.097471,-43.485211,"gass84"
"29","Microlicia isophylla",1087661393,-20.110556,-43.901944,"gass84"
"30","Microlicia isophylla",1087661886,-20.099444,-43.901389,"gass84"
"31","Microlicia isophylla",1455393748,-20.420051,-43.473533,"gass84"
"32","Microlicia isophylla",1087656506,-20.493,-43.712583,"gass84"
"33","Microlicia isophylla",1880800023,-20.493055,-43.7125,"cdround,gass84"
"34","Microlicia isophylla",1077296189,-22.140278,-44.738889,"gass84"
"35","Microlicia isophylla",1089098621,-21.1547,-44.2225,"gass84"
"36","Microlicia isophylla",1927965073,-20.5055,-43.6442,"gass84"
"37","Microlicia isophylla",1929496803,-20.44565,-43.527383,"cdround,gass84"
"38","Microlicia isophylla",1424431354,-20.749167,-43.887222,"cdround,gass84"
"39","Microlicia isophylla",1424431370,-21.507778,-45.179167,"cdround,gass84"
"40","Microlicia isophylla",1928113289,-21.298817,-44.7045,"cdround,gass84"
"41","Microlicia isophylla",1087652314,-22.580278,-45.324722,"gass84"
"42","Microlicia isophylla",1087652670,-22.619111,-45.377222,"gass84"
"43","Microlicia isophylla",1587297529,-22.619167,-45.377222,"gass84"
"44","Microlicia isophylla",1087185128,-20.374722,-43.536944,"gass84"
"45","Microlicia isophylla",1424391907,-22.76,-44.654444,"cdround,gass84"
"46","Microlicia isophylla",1135816057,-21.707889,-43.889167,"gass84"
"47","Microlicia isophylla",1086911899,-24.055,-49.073889,"gass84"
"48","Microlicia isophylla",1077292162,-22.14325,-44.736194,"gass84"
"49","Microlicia isophylla",1424398699,-21.208611,-44.201111,"cdround,gass84"
"50","Microlicia isophylla",1087643579,-20.348417,-43.938083,"gass84"
"51","Microlicia isophylla",1426453356,-22.73318,-44.61657,"gass84"
"52","Microlicia isophylla",1087646146,-21.188889,-44.340972,"gass84"
"53","Microlicia isophylla",1087646124,-20.209861,-43.574306,"gass84"
"54","Microlicia isophylla",1087185310,-20.301806,-43.932583,"gass84"
"55","Microlicia isophylla",1094858751,-20.301667,-43.9325,"gass84"
"56","Microlicia isophylla",1094834450,-20.447778,-43.609167,"gass84"
"57","Microlicia isophylla",1135824376,-15.85,-51.267,"gass84"
"58","Microlicia isophylla",1087380638,-22.833333,-44.666667,"gass84"
"59","Microlicia isophylla",1252589404,-20.249,-43.586,"gass84"
"60","Microlicia isophylla",1087646155,-20.332361,-43.937528,"gass84"
"61","Microlicia isophylla",1638347091,-20.466667,-41.816667,"cdround,gass84"
"62","Microlicia isophylla",1424246210,-22.449444,-44.896944,"cdround,gass84"
"63","Microlicia isophylla",1638347178,-20.45,-41.8,"gass84"
"64","Microlicia isophylla",1094808460,-22.133333,-48.15,"gass84"
"65","Microlicia isophylla",1424266174,-21.716667,-43.883333,"cdround,gass84"
"66","Microlicia isophylla",1099303275,-19.659333,-51.176167,"gass84"
"67","Microlicia isophylla",1087637027,-20.491672,-43.701686,"gass84"
"68","Microlicia isophylla",1135815832,-20.491722,-43.701861,"gass84"
"69","Microlicia isophylla",1135904725,-20.293,-43.4206,"gass84"
"70","Microlicia isophylla",1051229454,-22.69,-45.47,"gass84"
"71","Microlicia isophylla",1087374399,-22.688889,-45.483333,"gass84"
"72","Microlicia isophylla",1135941654,-20.05,-44.016667,"gass84"
"73","Microlicia isophylla",1424037007,-11.577778,-41.107222,"cdround,gass84"
"74","Microlicia isophylla",1213590961,-10.583333,-46.666667,"gass84"
"75","Microlicia isophylla",1089238978,-10.55,-46.633333,"gass84"
"76","Microlicia isophylla",1095220603,-10.58333,-46.66667,"gass84"
"77","Microlicia isophylla",1095220605,-10.55,-46.63333,"gass84"
"78","Microlicia isophylla",1424266055,-21.715833,-43.881667,"cdround,gass84"
"79","Microlicia isophylla",1426082668,-21.699163,-43.953888,"cdround,gass84"
"80","Microlicia isophylla",1090572848,-22.645,-44.5778,"gass84"
"81","Microlicia isophylla",1089065382,-22.1461,-42.413,"gass84"
"82","Microlicia isophylla",1929412345,-21.62,-44.92,"gass84"
"83","Microlicia isophylla",1135815400,-21.616667,-44.916667,"gass84"
"84","Microlicia isophylla",1927819796,-21.635006,-44.920046,""
"85","Microlicia isophylla",1913599676,-13.076,-41.859556,"gass84"
"86","Microlicia isophylla",1094824399,-13.076111,-41.859444,"gass84"
"87","Microlicia isophylla",1089086830,-13.04336,-41.51344,"gass84"
"88","Microlicia isophylla",1424204945,-22.25,-44.566667,"cdround,gass84,muluriiv"
"89","Microlicia isophylla",1089053700,-21.3,-44.39,"gass84"
"90","Microlicia isophylla",1571698190,-21.5,-44.65,"gass84"
"91","Microlicia isophylla",1228437176,-18,-44,"gass84"
"92","Microlicia isophylla",1930795336,-20.2494098380551,-46.3659792666644,"cdrep"
"93","Microlicia isophylla",1089065150,-21.30305,-44.35905,"gass84"
"94","Microlicia isophylla",1089065165,-21.35175,-44.39349,"gass84"
"95","Microlicia isophylla",1089065134,-21.2857,-44.39394,"gass84"
"96","Microlicia isophylla",1089065133,-21.28394,-44.42183,"gass84"
"97","Microlicia isophylla",1424448387,-20.500556,-43.629444,"cdround,gass84"
"98","Microlicia isophylla",1094768469,-20.488889,-43.663611,"gass84"
"99","Microlicia isophylla",1135815099,-20.489056,-43.663639,"gass84"
"100","Microlicia isophylla",1089266268,-20.507722,-43.638472,"gass84"
"101","Microlicia isophylla",1135815070,-20.502556,-43.6295,"gass84"
"102","Microlicia isophylla",1087615071,-20.488906,-43.663614,"gass84"
"103","Microlicia isophylla",1089034352,-20.29296,-43.39491,"gass84"
"104","Microlicia isophylla",1090559418,-21.7222,-44.9853,"gass84"
"105","Microlicia isophylla",1928555278,-19.8694005837072,-47.4401506543322,"cdrep"
"106","Microlicia isophylla",1930142855,-21.08,-44.15,"gass84"
"107","Microlicia isophylla",1135814859,-21.086389,-44.175278,"gass84"
"108","Microlicia isophylla",1135814851,-18.216667,-43.633333,"gass84"
"109","Microlicia isophylla",1563293373,-18.22,-43.63,"gass84"
"110","Microlicia isophylla",1135814773,-21.333333,-44.216667,"gass84"
"111","Microlicia isophylla",1090616958,-21.333333,-45,"gass84"
"112","Microlicia isophylla",1094729665,-22.716667,-45.566667,"gass84"
"113","Microlicia isophylla",1086884699,-22.751389,-45.5,"gass84"
"114","Microlicia isophylla",1927893904,-22.750525,-45.604903,""
"115","Microlicia isophylla",1930977810,-21.7260379383123,-44.9855887642241,"cdrep"
"116","Microlicia isophylla",1928958259,-20.3874,-43.505833,"cdround"
"117","Microlicia isophylla",1928656810,-20.3874,-43.5057,""
"118","Microlicia isophylla",1928265815,-20.1263,-43.492778,"cdround"
"119","Microlicia isophylla",1090572836,-22.7394,-45.5914,"gass84"
"120","Microlicia isophylla",1087297654,-27.8,-45.616667,"gass84"
"121","Microlicia isophylla",1930902445,-18.2531772779915,-43.6004898201051,"cdrep"
"122","Microlicia isophylla",1931032979,-22.796043,-44.622423,""
"123","Microlicia isophylla",1931117711,-22.6438537458491,-44.5699620474902,"cdrep"
"124","Microlicia isophylla",1927849346,-21.9630420559842,-44.8899826953208,"cdrep"
"125","Microlicia isophylla",1929454192,-20.2916151948885,-43.5082859302814,"cdrep"
"126","Microlicia isophylla",1929100525,-20.9574265697104,-43.8066070517348,"cdrep"
"127","Microlicia isophylla",1928944631,-19.9896094009387,-43.8469084844571,"cdrep"
"128","Microlicia isophylla",1929411228,-19.9246081193028,-43.9380145595816,"cdrep"
"129","Microlicia isophylla",1929364343,-22.687374,-45.540301,""
"130","Microlicia isophylla",1928507008,-22.368371,-44.61526,""
"131","Microlicia isophylla",1929233056,-19.8838076911196,-43.6695963577242,"cdrep"
"132","Microlicia isophylla",1055739407,-19.690239,-44.096503,"gass84"
"133","Microlicia isophylla",1929844813,-21.9796428079317,-44.6033630991796,"cdrep"
"134","Microlicia isophylla",1929043098,-21.145111,-44.302262,""
"135","Microlicia isophylla",1228452380,-10.8339,-52.8731,"gass84"
"136","Microlicia isophylla",1056886408,-10.773109,-53.08982,"gass84"
"137","Microlicia isophylla",1144634529,-10.77306,-53.08972,"gass84,rdativ"
"138","Microlicia isophylla",1099068511,-10,-55,"rdativ"
"139","Microlicia isophylla",1144634539,-18.78778,-45.44222,"gass84,rdativ"
