"","name","key","decimalLatitude","decimalLongitude","issues"
"1","Myrcia ouropretoensis",1087648029,-20.434722,-41.795833,"gass84,txmatfuz"
"2","Myrcia ouropretoensis",1087376709,-20.406944,-41.830556,"gass84"
"3","Myrcia ouropretoensis",1638349057,-20.431667,-41.8075,"cdround,gass84,txmatfuz"
"4","Myrcia ouropretoensis",1087343692,-22,-42.05,"gass84"
"5","Myrcia ouropretoensis",1930799337,-19.82237,-43.67613,""
"6","Myrcia ouropretoensis",1099075394,-10,-55,"rdativ"
"7","Myrcia ouropretoensis",1228332574,-10.8339,-52.8731,"gass84,txmatfuz"
