"","name","key","decimalLatitude","decimalLongitude","issues"
"1","Paepalanthus acantholimon",1946020413,-20.429931,-41.803697,"gass84"
"2","Paepalanthus acantholimon",1571707189,-20.466944,-41.813889,"cdround,gass84"
"3","Paepalanthus acantholimon",1499622357,-20.45,-41.816667,"gass84"
"4","Paepalanthus acantholimon",1929366731,-20.432568,-41.79956,""
"5","Paepalanthus acantholimon",1931157408,-20.5271205932992,-41.904277237838,"cdrep"
