"","name","key","decimalLatitude","decimalLongitude","issues"
"1","Paepalanthus globosus",1424396241,-20.410833,-41.834444,"cdround,gass84"
"2","Paepalanthus globosus",1228314660,-10.8339,-52.8731,"gass84"
