"","name","key","decimalLatitude","decimalLongitude","issues"
"1","Phytolacca thyrsiflora",1931786549,-21.271969,-44.518361,"gass84"
"2","Phytolacca thyrsiflora",1840929001,-25.5906,-49.3264,"gass84"
"3","Phytolacca thyrsiflora",1835736212,-22.48,-43.286389,"cdround,gass84"
"4","Phytolacca thyrsiflora",1978405516,-24.3237,-50.6047,"gass84"
"5","Phytolacca thyrsiflora",1989560846,-24.778694,-51.747417,"gass84"
"6","Phytolacca thyrsiflora",1978404595,-24.284361,-52.451139,"gass84"
"7","Phytolacca thyrsiflora",1586073642,-23.541111,-46.244444,"cdround,gass84"
"8","Phytolacca thyrsiflora",1853940166,-26.957222,-49.087222,"cdround,gass84"
"9","Phytolacca thyrsiflora",1801347809,-25.403,-49.3247,"gass84"
"10","Phytolacca thyrsiflora",1632926563,-20.3275,-40.279167,"gass84"
"11","Phytolacca thyrsiflora",1270105903,-21.627092,-44.919525,"gass84"
"12","Phytolacca thyrsiflora",1585201639,-25.1321,-48.82,"gass84"
"13","Phytolacca thyrsiflora",1944963734,-23.543278,-47.20775,"gass84"
"14","Phytolacca thyrsiflora",1658202881,-26.73,-51.03,"gass84"
"15","Phytolacca thyrsiflora",1265933270,-24.759639,-52.127056,"gass84"
"16","Phytolacca thyrsiflora",1423918284,-22.931667,-42.603333,"cdround,gass84"
"17","Phytolacca thyrsiflora",1455401325,-20.149444,-43.411111,"gass84"
"18","Phytolacca thyrsiflora",1840911975,-26.243333,-49.534444,"cdround,gass84"
"19","Phytolacca thyrsiflora",1837379983,-26.243333,-49.544444,"gass84"
"20","Phytolacca thyrsiflora",1423923607,-22.436111,-42.521944,"cdround,gass84"
"21","Phytolacca thyrsiflora",1978381789,-24.48,-50.76,"gass84"
"22","Phytolacca thyrsiflora",1099619658,-27.930278,-51.188528,"gass84"
"23","Phytolacca thyrsiflora",1499623677,-27.930278,-51.188611,"gass84"
"24","Phytolacca thyrsiflora",1585200706,-24.8559,-48.7183,"gass84"
"25","Phytolacca thyrsiflora",1095182598,-24.560444,-48.106222,"gass84"
"26","Phytolacca thyrsiflora",1423893228,-26.645,-50.751389,"cdround,gass84"
"27","Phytolacca thyrsiflora",1143431100,-23.934917,-52.646833,"gass84"
"28","Phytolacca thyrsiflora",1143417971,-20.116667,-44.233333,"gass84"
"29","Phytolacca thyrsiflora",1702645937,-26.068315,-53.769381,"gass84"
"30","Phytolacca thyrsiflora",1848112113,-4,-38.892639,"gass84"
"31","Phytolacca thyrsiflora",1676475160,-26.0052,-49.7562,"gass84"
"32","Phytolacca thyrsiflora",1424504498,-22.353611,-42.586944,"cdround,gass84"
"33","Phytolacca thyrsiflora",1077424969,-26.874444,-52.389444,"cdround,gass84"
"34","Phytolacca thyrsiflora",1077419349,-26.8675,-49.401111,"cdround,gass84"
"35","Phytolacca thyrsiflora",1135949005,-23.2192,-45.9776,"gass84,preswcd"
"36","Phytolacca thyrsiflora",1077419734,-27.056944,-49.086667,"cdround,gass84"
"37","Phytolacca thyrsiflora",1135946132,-24.020444,-47.315861,"gass84"
"38","Phytolacca thyrsiflora",1455890633,-20.456389,-43.556944,"cdround,gass84"
"39","Phytolacca thyrsiflora",1638349946,-15.866667,-47.85,"gass84"
"40","Phytolacca thyrsiflora",1829092401,-19.232389,-43.506694,"gass84"
"41","Phytolacca thyrsiflora",1077418399,-28.400278,-51.344167,"cdround,gass84"
"42","Phytolacca thyrsiflora",1699430834,-19.232222,-43.506667,"cdround,gass84"
"43","Phytolacca thyrsiflora",1913569132,-6.188889,-50.132222,"gass84"
"44","Phytolacca thyrsiflora",1420313474,-25.21491,-51.11346,"gass84"
"45","Phytolacca thyrsiflora",1077476721,-25.363639,-51.192944,"gass84"
"46","Phytolacca thyrsiflora",1090145091,-21.039778,-44.325694,"gass84"
"47","Phytolacca thyrsiflora",1802963002,-21.039722,-44.325833,"gass84"
"48","Phytolacca thyrsiflora",1087653259,-22.588778,-45.312028,"gass84"
"49","Phytolacca thyrsiflora",1090159295,-25.626306,-49.337361,"gass84"
"50","Phytolacca thyrsiflora",1802963313,-15.798611,-48.831944,"gass84"
"51","Phytolacca thyrsiflora",1090159948,-25.627806,-49.335278,"gass84"
"52","Phytolacca thyrsiflora",1424457123,-15.658889,-47.894167,"cdround,gass84"
"53","Phytolacca thyrsiflora",1090160585,-25.629222,-49.332389,"gass84"
"54","Phytolacca thyrsiflora",1086913261,-22.773333,-45.5625,"gass84"
"55","Phytolacca thyrsiflora",1802964375,-27.450556,-49.05,"gass84"
"56","Phytolacca thyrsiflora",1089182517,-8.658333,-35.9,"gass84"
"57","Phytolacca thyrsiflora",1094180039,-14.339167,-39.106111,"gass84"
"58","Phytolacca thyrsiflora",1089180878,-8.722811,-35.875025,"gass84"
"59","Phytolacca thyrsiflora",1090158595,-25.914306,-48.584361,"gass84"
"60","Phytolacca thyrsiflora",1929961095,-8.7136,-35.865,"gass84"
"61","Phytolacca thyrsiflora",1844430434,-20.181111,-40.3075,"gass84"
"62","Phytolacca thyrsiflora",1913568356,-6.314167,-49.7,"gass84"
"63","Phytolacca thyrsiflora",1086913110,-24.045833,-49.073333,"gass84"
"64","Phytolacca thyrsiflora",1424308090,-7.745278,-72.556667,"cdround,gass84"
"65","Phytolacca thyrsiflora",1090625047,-18.938333,-43.678333,"gass84"
"66","Phytolacca thyrsiflora",1087081104,-23.933333,-51.15,"cdround,gass84"
"67","Phytolacca thyrsiflora",768774516,0.2,-70.17,"gass84"
"68","Phytolacca thyrsiflora",1147303498,0.21,-70.15,"gass84"
"69","Phytolacca thyrsiflora",1802964395,-26.6375,-51.480278,"gass84"
"70","Phytolacca thyrsiflora",1587311108,-9.057206,-36.033075,"gass84"
"71","Phytolacca thyrsiflora",1090156675,-25.427667,-49.207806,"gass84"
"72","Phytolacca thyrsiflora",1077607788,-9.022778,-35.373611,"gass84"
"73","Phytolacca thyrsiflora",1090157374,-25.893333,-48.597778,"gass84"
"74","Phytolacca thyrsiflora",1949965977,-27.359722,-48.8675,"gass84"
"75","Phytolacca thyrsiflora",1087647169,-14.266111,-42.521389,"gass84"
"76","Phytolacca thyrsiflora",1077229816,-12.374444,-37.979444,"gass84"
"77","Phytolacca thyrsiflora",1089089184,-20.56,-46,"gass84,txmatfuz"
"78","Phytolacca thyrsiflora",1086670446,-26.250556,-49.378611,"gass84"
"79","Phytolacca thyrsiflora",1248891142,-20.406889,-41.093611,"gass84"
"80","Phytolacca thyrsiflora",1086957326,-24.337056,-50.58975,"gass84"
"81","Phytolacca thyrsiflora",1095247087,-21.774166,-51.193888,"gass84"
"82","Phytolacca thyrsiflora",1928388241,-15.3917,-39.5653,"gass84"
"83","Phytolacca thyrsiflora",1944970384,-14.770278,-39.536111,"gass84"
"84","Phytolacca thyrsiflora",1090573000,-23.2217,-45.31,"gass84"
"85","Phytolacca thyrsiflora",188384471,-25.8953,-50.432,"gass84"
"86","Phytolacca thyrsiflora",1275064648,-25.896333,-50.432167,"gass84"
"87","Phytolacca thyrsiflora",1090604353,-30.019139,-51.237222,"cdround,gass84"
"88","Phytolacca thyrsiflora",1042688141,-5.259444,-49.88,"gass84,gdativ"
"89","Phytolacca thyrsiflora",1260249834,-3.96666,-79.06666,"gass84"
"90","Phytolacca thyrsiflora",1424249442,-15.811667,-40.514444,"cdround,gass84"
"91","Phytolacca thyrsiflora",1087631257,-15.81175,-40.514639,"gass84"
"92","Phytolacca thyrsiflora",1944970126,-15.391667,-39.565278,"gass84"
"93","Phytolacca thyrsiflora",1077595331,-9.201389,-35.502222,"gass84"
"94","Phytolacca thyrsiflora",1077592877,-9.601667,-35.9225,"gass84"
"95","Phytolacca thyrsiflora",1089168934,-7.115,-34.863056,"gass84"
"96","Phytolacca thyrsiflora",1424054296,-15.900833,-47.945278,"cdround,gass84"
"97","Phytolacca thyrsiflora",1123801187,-19.9075,-40.553056,"gass84"
"98","Phytolacca thyrsiflora",1095219672,-10.55,-46.133333,"gass84"
"99","Phytolacca thyrsiflora",1089072992,-10.33,-46.08,"gass84"
"100","Phytolacca thyrsiflora",1095228913,-16.374166,-39.0775,"gass84"
"101","Phytolacca thyrsiflora",1094762687,-10.509722,-40.340833,"gass84"
"102","Phytolacca thyrsiflora",1087704000,-14.916111,-39.029444,"gass84"
"103","Phytolacca thyrsiflora",1090566423,-22.7553,-46.1447,"gass84"
"104","Phytolacca thyrsiflora",1090564702,-23.111861,-46.927972,"gass84"
"105","Phytolacca thyrsiflora",1424058201,-12.026111,-37.695,"cdround,gass84"
"106","Phytolacca thyrsiflora",1094758710,-13.228333,-39.056944,"gass84"
"107","Phytolacca thyrsiflora",1077379726,-27.025,-49.132778,"cdround,gass84"
"108","Phytolacca thyrsiflora",1930697769,-16.87,-39.25,"gass84"
"109","Phytolacca thyrsiflora",1090474743,-16.866667,-39.25,"gass84"
"110","Phytolacca thyrsiflora",1135872317,-11.3,-59.083333,"gass84"
"111","Phytolacca thyrsiflora",1259355307,18.23888,-89.45277,"gass84"
"112","Phytolacca thyrsiflora",1927811094,-15.26,-39.41,"gass84"
"113","Phytolacca thyrsiflora",1258338215,-25.63333,-54.81666,"gass84"
"114","Phytolacca thyrsiflora",1089057261,-23.23,-45.07,"gass84"
"115","Phytolacca thyrsiflora",1090619682,-23.389722,-45.120556,"gass84"
"116","Phytolacca thyrsiflora",1275057511,-22.916667,-48.916667,"gass84"
"117","Phytolacca thyrsiflora",1259355623,21.19777,-87.18472,"gass84"
"118","Phytolacca thyrsiflora",1086600133,-25.0036,-49.6366,"gass84"
"119","Phytolacca thyrsiflora",1087670833,-10.998333,-37.310278,"gass84"
"120","Phytolacca thyrsiflora",1258624655,10.17,-85.59,"gass84"
"121","Phytolacca thyrsiflora",1259356849,10.17305,-85.59361,"gass84"
"122","Phytolacca thyrsiflora",1930861354,-25.37,-49.22,"gass84"
"123","Phytolacca thyrsiflora",1090603002,-27.671111,-51.450667,"cdround,gass84"
"124","Phytolacca thyrsiflora",1089052702,-24.43,-48.02,"gass84"
"125","Phytolacca thyrsiflora",1095212328,-15.933333,-47.9,"gass84"
"126","Phytolacca thyrsiflora",1928436404,-15.93,-47.9,"gass84"
"127","Phytolacca thyrsiflora",1260834573,-15.93333,-47.9,"gass84"
"128","Phytolacca thyrsiflora",1930717259,-15.95,-47.92,"gass84"
"129","Phytolacca thyrsiflora",1090558046,-23.47502,-47.16288,"gass84"
"130","Phytolacca thyrsiflora",1089043727,-22.29,-45.01,"gass84"
"131","Phytolacca thyrsiflora",1259356798,17.1,-89.06666,"gass84"
"132","Phytolacca thyrsiflora",1931328538,17.1,-89.07,"gass84"
"133","Phytolacca thyrsiflora",1421386421,18.55,-89.405556,"cdround,elmms,gass84,gdativ,txmathi"
"134","Phytolacca thyrsiflora",1893309214,18.543056,-89.403333,"cdround,gass84"
"135","Phytolacca thyrsiflora",1424054569,-15.944722,-47.885278,"cdround,gass84"
"136","Phytolacca thyrsiflora",1259356227,8.86666,-82.56666,"gass84"
"137","Phytolacca thyrsiflora",1095212389,-15.95,-47.91667,"gass84"
"138","Phytolacca thyrsiflora",1077196963,-16.383333,-39.133333,"gass84"
"139","Phytolacca thyrsiflora",1090619015,-12.459722,-41.440278,"gass84"
"140","Phytolacca thyrsiflora",1094738882,-12.45,-41.433333,"gass84"
"141","Phytolacca thyrsiflora",1252592234,-12.004444,-37.733333,"gass84"
"142","Phytolacca thyrsiflora",1090618395,-20.133333,-44.216667,"gass84"
"143","Phytolacca thyrsiflora",1424054310,-12.01,-37.733333,"cdround,gass84"
"144","Phytolacca thyrsiflora",1259356698,21.38833,-104.95611,"gass84"
"145","Phytolacca thyrsiflora",1424205608,-22.25,-44.566667,"cdround,gass84,muluriiv"
"146","Phytolacca thyrsiflora",1077206723,-12.456667,-41.452778,"gass84"
"147","Phytolacca thyrsiflora",1259357273,16.71666,-88.98333,"gass84"
"148","Phytolacca thyrsiflora",1094739187,-12.45,-41.45,"gass84,txmatfuz"
"149","Phytolacca thyrsiflora",1261882954,-25.63166,-54.80527,"gass84"
"150","Phytolacca thyrsiflora",1258515148,13.816667,-89.933333,"cdround,gass84"
"151","Phytolacca thyrsiflora",1930104517,17.25,-88.95,"gass84"
"152","Phytolacca thyrsiflora",1259355502,21.183333,-104.733333,"cdround,gass84"
"153","Phytolacca thyrsiflora",1077196790,-17.516667,-39.183333,"gass84"
"154","Phytolacca thyrsiflora",1094733522,-11.466667,-37.9,"gass84"
"155","Phytolacca thyrsiflora",1929443966,-29.1722202425527,-51.1799546835515,"cdrep"
"156","Phytolacca thyrsiflora",1258565068,21.2,-87.46,"gass84"
"157","Phytolacca thyrsiflora",1421373351,21.208333,-87.466667,"cdround,gass84,gdativ,txmathi"
"158","Phytolacca thyrsiflora",1077313084,-25.166667,-49.116667,"gass84"
"159","Phytolacca thyrsiflora",1258565001,20.67,-88.53,"gass84"
"160","Phytolacca thyrsiflora",1421375948,20.658333,-88.534722,"cdround,gass84,gdativ,txmathi"
"161","Phytolacca thyrsiflora",1456085680,5.6,-53.81,"gass84"
"162","Phytolacca thyrsiflora",1089017432,-15.54,-47.54,"gass84"
"163","Phytolacca thyrsiflora",1424054302,-15.9,-47.9,"gass84"
"164","Phytolacca thyrsiflora",1090457037,-20.716667,-42.483333,"gass84"
"165","Phytolacca thyrsiflora",1259185844,-26.16666,-56.28333,"gass84"
"166","Phytolacca thyrsiflora",1260834664,-26.16666,-55.28333,"gass84"
"167","Phytolacca thyrsiflora",1258565062,13.66666,-89.21666,"gass84"
"168","Phytolacca thyrsiflora",1258515157,18.25,-88.41666,"gass84"
"169","Phytolacca thyrsiflora",1928204613,18.25,-88.42,"gass84"
"170","Phytolacca thyrsiflora",1421417784,20.642222,-88.151667,"cdround,elmms,gass84,gdativ,txmathi"
"171","Phytolacca thyrsiflora",1258515131,20.41,-88.05,"gass84"
"172","Phytolacca thyrsiflora",1141147397,5.833333,-58.333333,""
"173","Phytolacca thyrsiflora",1137917970,6.416667,-58.25,""
"174","Phytolacca thyrsiflora",1258515145,17.97,-88.93,"gass84"
"175","Phytolacca thyrsiflora",1456239523,6.41667,-58.25,"gass84"
"176","Phytolacca thyrsiflora",1095197580,-15.08333,-48,"gass84"
"177","Phytolacca thyrsiflora",1456344622,4.91,-52.3,"gass84"
"178","Phytolacca thyrsiflora",1259356098,16.755556,-92.383056,"cdround,gass84"
"179","Phytolacca thyrsiflora",1261462216,15.2,-90.20583,"gass84"
"180","Phytolacca thyrsiflora",1260834451,-13.51666,-41.96666,"gass84"
"181","Phytolacca thyrsiflora",1094768992,-13.516667,-41.966667,"gass84"
"182","Phytolacca thyrsiflora",1090616211,-13.65,-41.833333,"gass84"
"183","Phytolacca thyrsiflora",1930565433,-13.52,-41.97,"gass84"
"184","Phytolacca thyrsiflora",1455960424,6.3,-58.2333,"gass84"
"185","Phytolacca thyrsiflora",1089091495,-23.424029,-48.35196,"gass84"
"186","Phytolacca thyrsiflora",1140960828,6.3,-58.233333,""
"187","Phytolacca thyrsiflora",1090578241,-23.423889,-48.35056,"gass84"
"188","Phytolacca thyrsiflora",1087571265,-19.816667,-43.666667,"gass84"
"189","Phytolacca thyrsiflora",1424054574,-22.55,-42.5,"gass84,muluriiv"
"190","Phytolacca thyrsiflora",1077193446,-12.516667,-41.55,"gass84"
"191","Phytolacca thyrsiflora",1077593170,-12.6,-41.45,"gass84"
"192","Phytolacca thyrsiflora",1089014432,-12.36,-41.27,"gass84"
"193","Phytolacca thyrsiflora",1896220682,20.170833,-87.998333,"cdround,gass84,txmathi"
"194","Phytolacca thyrsiflora",1123787075,-19.936111,-40.616667,"gass84"
"195","Phytolacca thyrsiflora",1258515150,18.05,-91.92,"gass84"
"196","Phytolacca thyrsiflora",1421397037,20.518056,-88.829167,"cdround,gass84,gdativ,txmathi"
"197","Phytolacca thyrsiflora",1138284147,5.716667,-60.333333,""
"198","Phytolacca thyrsiflora",1456144081,5.71667,-60.3333,"gass84"
"199","Phytolacca thyrsiflora",1089011418,-22.48,-48.17,"gass84"
"200","Phytolacca thyrsiflora",1928024812,-22.2857503169645,-42.5309212652528,"cdrep"
"201","Phytolacca thyrsiflora",1123783321,-18.263889,-39.803889,"gass84"
"202","Phytolacca thyrsiflora",1927931897,-29.803623205975,-51.8650087327795,"cdrep"
"203","Phytolacca thyrsiflora",1261461478,-23.333333,-46.033333,"cdround,gass84"
"204","Phytolacca thyrsiflora",1261461590,-21.41666,-42.5,"gass84"
"205","Phytolacca thyrsiflora",1258515176,15.05,-92.14,"gass84"
"206","Phytolacca thyrsiflora",1929876198,-22.7338533001941,-45.5903324447049,"cdrep"
"207","Phytolacca thyrsiflora",1259355531,18.46666,-90.1,"gass84"
"208","Phytolacca thyrsiflora",1421352588,20.869722,-88.988333,"cdround,elmms,gass84,gdativ,txmathi"
"209","Phytolacca thyrsiflora",1261461995,4.5,-61.58333,"gass84"
"210","Phytolacca thyrsiflora",1931021214,4.5,-61.58,"gass84"
"211","Phytolacca thyrsiflora",1258565090,9.93,-84.07,"gass84"
"212","Phytolacca thyrsiflora",1123785845,-19.906111,-40.601944,"gass84"
"213","Phytolacca thyrsiflora",1123785816,-19.935833,-40.616667,"gass84"
"214","Phytolacca thyrsiflora",1090437386,-14.783333,-39.033333,"gass84"
"215","Phytolacca thyrsiflora",1421395877,18.395278,-91.024444,"cdround,elmms,gass84,gdativ,txmathi"
"216","Phytolacca thyrsiflora",45777367,20.7,-88.21,"gass84"
"217","Phytolacca thyrsiflora",1421401074,20.714722,-88.2625,"cdround,elmms,gass84,gdativ,txmathi"
"218","Phytolacca thyrsiflora",1095194256,-15.728888,-47.901944,"gass84"
"219","Phytolacca thyrsiflora",1259356716,18.41666,-90.83333,"gass84"
"220","Phytolacca thyrsiflora",1094758492,-15.083333,-47,"gass84"
"221","Phytolacca thyrsiflora",1090622728,-23.633333,-45.866667,"gass84"
"222","Phytolacca thyrsiflora",1931171479,-6.07,-50.13,"gass84"
"223","Phytolacca thyrsiflora",1090433359,-12.493056,-38.313056,"gass84"
"224","Phytolacca thyrsiflora",1094719994,-12.483333,-38.3,"gass84"
"225","Phytolacca thyrsiflora",1587303592,-9.916667,-36.041667,"gass84"
"226","Phytolacca thyrsiflora",1930900463,-23.6538636541498,-47.2204474578993,"cdrep"
"227","Phytolacca thyrsiflora",1421396094,19.144444,-90.436111,"cdround,elmms,gass84,gdativ,txmathi"
"228","Phytolacca thyrsiflora",1587303978,-9.781111,-36.093611,"gass84"
"229","Phytolacca thyrsiflora",1896220684,20.375,-87.008333,"cdround,elmms,gass84,txmathi"
"230","Phytolacca thyrsiflora",1421376379,20.394444,-87.316667,"cdround,elmms,gass84,gdativ,txmathi"
"231","Phytolacca thyrsiflora",1424054421,-18.616667,-43.383333,"cdround,gass84"
"232","Phytolacca thyrsiflora",1421379565,19.011111,-90.313611,"cdround,elmms,gass84,gdativ,txmathi"
"233","Phytolacca thyrsiflora",1896220693,19.011111,-90.314722,"cdround,elmms,gass84,txmathi"
"234","Phytolacca thyrsiflora",1087250938,-15.95,-47.916667,"gass84"
"235","Phytolacca thyrsiflora",1089010276,-12.27,-41.28,"gass84"
"236","Phytolacca thyrsiflora",1137243519,-12.45,-41.466667,""
"237","Phytolacca thyrsiflora",1258515156,14.1,-87.21666,"gass84"
"238","Phytolacca thyrsiflora",1928267587,-12.45,-41.47,"gass84"
"239","Phytolacca thyrsiflora",1260834662,-12.45,-41.46666,"gass84"
"240","Phytolacca thyrsiflora",1088996389,-2.203,-44.5,"gass84"
"241","Phytolacca thyrsiflora",1090504236,-23.166667,-44.833333,"gass84,txmatfuz"
"242","Phytolacca thyrsiflora",1087321869,-23.766667,-46.35,"gass84"
"243","Phytolacca thyrsiflora",1088994218,-21.5,-46.33,"gass84"
"244","Phytolacca thyrsiflora",1928466362,-16.38,-39.13,"gass84"
"245","Phytolacca thyrsiflora",1931306785,-23.654505,-46.621883,""
"246","Phytolacca thyrsiflora",1929284883,-24.827473986578,-49.2613934968235,"cdrep"
"247","Phytolacca thyrsiflora",1930565557,-25.197304,-47.992538,""
"248","Phytolacca thyrsiflora",1089002050,-23.06665,-55.187423,"gass84"
"249","Phytolacca thyrsiflora",1928129529,-25.4319824288048,-49.2736972819373,"cdrep"
"250","Phytolacca thyrsiflora",1929094556,-15.7834208090807,-47.9298726661488,"cdrep"
"251","Phytolacca thyrsiflora",1930779649,-23.6041637673192,-46.9101258618301,"cdrep"
"252","Phytolacca thyrsiflora",1259356220,14.085,-87.16694,"gass84"
"253","Phytolacca thyrsiflora",1259356983,17.76666,-88.65,"gass84"
"254","Phytolacca thyrsiflora",1424174350,-22.5,-42.25,"gass84,muluriiv"
"255","Phytolacca thyrsiflora",1258565042,18.11666,-88.66666,"gass84"
"256","Phytolacca thyrsiflora",1930218037,-16.2565304858771,-47.9507751562949,"cdrep"
"257","Phytolacca thyrsiflora",1087250928,-16.2525,-47.9503,"gass84"
"258","Phytolacca thyrsiflora",1090566630,-22.5647,-47.4017,"gass84"
"259","Phytolacca thyrsiflora",1077180063,-12.5,-41.333333,"gass84"
"260","Phytolacca thyrsiflora",1930498894,-18.4489,-43.351,""
"261","Phytolacca thyrsiflora",1928140499,-25.4324846429367,-48.7122581210216,"cdrep"
"262","Phytolacca thyrsiflora",1928295608,-19.83305,-43.726389,"cdround"
"263","Phytolacca thyrsiflora",1930267812,-18.1798,-43.5512,""
"264","Phytolacca thyrsiflora",1929597418,-15.75,-48.73,"gass84"
"265","Phytolacca thyrsiflora",1228375925,-12,-48,"gass84"
"266","Phytolacca thyrsiflora",1927964870,-18.53,-43.62,"gass84"
"267","Phytolacca thyrsiflora",1931224770,-18.57,-43.68,"gass84"
"268","Phytolacca thyrsiflora",1077180061,-11.166667,-40.516667,"gass84"
"269","Phytolacca thyrsiflora",1927819001,-15.73,-47.9,"gass84"
"270","Phytolacca thyrsiflora",1930928485,-14,-47,"gass84"
"271","Phytolacca thyrsiflora",1090575111,-23.5475,-46.6361,"gass84"
"272","Phytolacca thyrsiflora",1929746450,-23.646109,-46.618358,""
"273","Phytolacca thyrsiflora",1260833711,-24.71666,-47.58333,"gass84"
"274","Phytolacca thyrsiflora",1318158388,4.9333,-53,"gass84"
"275","Phytolacca thyrsiflora",1930558250,-15.60619,-47.8167,""
"276","Phytolacca thyrsiflora",1929009966,-15.6555,-47.78472,""
"277","Phytolacca thyrsiflora",1928521897,-15.98,-48.23,"gass84"
"278","Phytolacca thyrsiflora",1929168800,-15.65025,-47.79235,""
"279","Phytolacca thyrsiflora",1929510149,-16.01719,-48.0638,""
"280","Phytolacca thyrsiflora",1928911073,-23.43,-46.63,"gass84"
"281","Phytolacca thyrsiflora",1260834586,-23.6,-46.63333,"gass84"
"282","Phytolacca thyrsiflora",1260833476,-23.16666,-44.83333,"gass84"
"283","Phytolacca thyrsiflora",1927965288,-26.9120047872851,-48.6622616743931,"cdrep"
"284","Phytolacca thyrsiflora",1931370972,-20.74411,-42.8415,""
"285","Phytolacca thyrsiflora",1930124039,-26.2588707542552,-53.6403059042989,"cdrep"
"286","Phytolacca thyrsiflora",1090547518,-22.870251,-47.077171,"gass84"
"287","Phytolacca thyrsiflora",1931233883,-26.3744913658805,-50.1448631823987,"cdrep"
"288","Phytolacca thyrsiflora",1927996310,-27.903779,-49.128424,""
"289","Phytolacca thyrsiflora",1090539355,-22.694886,-46.668492,"gass84"
"290","Phytolacca thyrsiflora",1928249770,-29.7645270256347,-51.1476567522732,"cdrep"
"291","Phytolacca thyrsiflora",1928644014,-29.1181277655949,-49.6173420675454,"cdrep"
"292","Phytolacca thyrsiflora",1090536328,-23.653806,-45.889778,"gass84"
"293","Phytolacca thyrsiflora",1090535590,-22.5914,-46.5289,"gass84"
"294","Phytolacca thyrsiflora",1090535014,-23.4339,-45.0711,"gass84"
"295","Phytolacca thyrsiflora",1090535066,-23.0744,-44.9597,"gass84"
"296","Phytolacca thyrsiflora",1259355865,18.39527,-88.39055,"gass84"
"297","Phytolacca thyrsiflora",1928012841,-3.36510051541239,-42.4179052499868,"cdrep"
"298","Phytolacca thyrsiflora",1228504618,-19.9,-43.9,"gass84"
"299","Phytolacca thyrsiflora",1258565028,18.45,-90.08,"gass84"
"300","Phytolacca thyrsiflora",1930246252,-20.766686,-42.860644,""
"301","Phytolacca thyrsiflora",1259357214,18.03333,-88.43333,"gass84"
"302","Phytolacca thyrsiflora",1259724062,9.86416,-83.91,"gass84"
"303","Phytolacca thyrsiflora",1320522329,4.9333,-52.3333,"gass84"
"304","Phytolacca thyrsiflora",1929320357,-23.565521,-46.724373,""
"305","Phytolacca thyrsiflora",1259353941,20.5,-88.71,"gass84"
"306","Phytolacca thyrsiflora",1259356231,21.404167,-88.2725,"cdround,gass84"
"307","Phytolacca thyrsiflora",1931074401,-24.2549639591203,-49.7062215087586,"cdrep"
"308","Phytolacca thyrsiflora",1259353750,20.678611,-103.475278,"cdround,gass84"
"309","Phytolacca thyrsiflora",1259354830,20.637222,-103.346944,"cdround,gass84"
"310","Phytolacca thyrsiflora",1089150390,-6.838889,-35.125833,"gass84"
"311","Phytolacca thyrsiflora",1089146349,-7.096389,-35.2325,"gass84"
"312","Phytolacca thyrsiflora",1089144183,-7.230833,-35.881111,"gass84"
"313","Phytolacca thyrsiflora",1258565022,20.7,-89.09,"gass84"
"314","Phytolacca thyrsiflora",417024845,-25.63,-54.82,"gass84"
"315","Phytolacca thyrsiflora",417024796,-26,-53.98,"gass84"
"316","Phytolacca thyrsiflora",417024832,-24.1,-65.48,"gass84"
"317","Phytolacca thyrsiflora",1259355293,21.019445,-88.17,"cdround,gass84"
