"","name","key","decimalLatitude","decimalLongitude","issues"
"1","Plantago commersoniana",1932873127,-25.423056,-51.908333,"gass84"
"2","Plantago commersoniana",1913580265,-15.808055,-47.978888,"gass84"
"3","Plantago commersoniana",1089114973,-20.2515,-41.4816,"gass84"
"4","Plantago commersoniana",1090160939,-25.239583,-49.989639,"gass84"
"5","Plantago commersoniana",1095298222,-30.178333,-51.384167,"gass84"
"6","Plantago commersoniana",1095277949,-30.824444,-55.348333,"gass84"
"7","Plantago commersoniana",1228298253,-10.8339,-52.8731,"gass84"
"8","Plantago commersoniana",1946020398,-20.429931,-41.803697,"gass84"
"9","Plantago commersoniana",1913572199,-25.423333,-51.908611,"gass84"
"10","Plantago commersoniana",1899850040,-25.42333,-51.90861,""
"11","Plantago commersoniana",1913572258,-34.3675,-55.054444,"gass84"
"12","Plantago commersoniana",1899850037,-20.42167,-41.81167,""
"13","Plantago commersoniana",1090878568,-20.416667,-41.8,"gass84"
"14","Plantago commersoniana",1853940816,-20.253056,-41.486944,"cdround,gass84"
"15","Plantago commersoniana",1853947177,-34.372306,-55.054333,"gass84"
"16","Plantago commersoniana",1913572222,-34.89,-56.251944,"gass84"
"17","Plantago commersoniana",1077377227,-28.239722,-50.670556,"gass84"
"18","Plantago commersoniana",1077371072,-28.127222,-50.040833,"gass84"
"19","Plantago commersoniana",1930679272,-28.3408185419956,-49.6250378859196,"cdrep"
"20","Plantago commersoniana",1929015442,-28.2981165675879,-49.9323595700412,"cdrep"
"21","Plantago commersoniana",1928277350,-27.1005874672668,-52.6189412501881,"cdrep"
"22","Plantago commersoniana",1930130811,-30.11284,-51.153181,""
"23","Plantago commersoniana",1144751542,-25.16667,-56,"gass84,rdativ"
"24","Plantago commersoniana",1144656352,-32.79972,-56.0125,"gass84,rdativ"
