"","name","key","decimalLatitude","decimalLongitude","issues"
"1","Pleroma hieracioides",1840923408,-20.2475,-43.965278,"gass84"
"2","Pleroma hieracioides",1587291639,-20.408611,-43.927167,"gass84"
"3","Pleroma hieracioides",1270102420,-22.130306,-44.757842,"gass84"
"4","Pleroma hieracioides",1423900821,-21.216667,-43.75,"cdround,gass84"
"5","Pleroma hieracioides",1135950624,-20.437778,-43.794444,"gass84"
"6","Pleroma hieracioides",1087660435,-20.09,-43.960556,"gass84"
"7","Pleroma hieracioides",1587298193,-20.05178,-44.00616,"gass84"
"8","Pleroma hieracioides",1930279174,-20.052132,-44.004906,"gass84"
"9","Pleroma hieracioides",1087656993,-20.136319,-43.972747,"gass84"
"10","Pleroma hieracioides",1089090074,-20.3613,-46.1736,"gass84"
"11","Pleroma hieracioides",1087644944,-20.255833,-43.879722,"gass84"
"12","Pleroma hieracioides",1426077678,-21.927732,-44.443382,"cdround,gass84"
"13","Pleroma hieracioides",1424214046,-21.705833,-43.898611,"cdround,gass84"
"14","Pleroma hieracioides",1089085875,-21.55664,-44.26603,"gass84"
"15","Pleroma hieracioides",1426200542,-20.271669,-43.893341,"cdround,gass84"
"16","Pleroma hieracioides",1089107522,-20.1618,-43.5336,"gass84"
"17","Pleroma hieracioides",1456077944,-21.7222,-40.9853,"gass84"
"18","Pleroma hieracioides",1424216753,-22.685,-45.471111,"cdround,gass84"
"19","Pleroma hieracioides",1424419755,-22.516667,-43.233333,"cdround,gass84"
"20","Pleroma hieracioides",1260670984,-20.74583,-44.54805,"gass84"
"21","Pleroma hieracioides",1143410977,-20.745833,-44.548056,"gass84"
"22","Pleroma hieracioides",1456031827,-20.7458,-44.5481,"gass84"
"23","Pleroma hieracioides",912701724,-20.75,-44.55,"gass84"
"24","Pleroma hieracioides",1143410733,-21.333333,-44.216667,"gass84"
"25","Pleroma hieracioides",1087573626,-20.233333,-43.8,"gass84"
"26","Pleroma hieracioides",1089001794,-21.502,-46.3353,"gass84"
"27","Pleroma hieracioides",1135943625,-21.838889,-46.564722,"gass84"
"28","Pleroma hieracioides",1090539041,-21.0167,-46.7411,"gass84"
"29","Pleroma hieracioides",1927788738,-20.2916151948885,-43.5082859302814,"cdrep"
"30","Pleroma hieracioides",1090536851,-20.2875,-43.5081,"gass84"
"31","Pleroma hieracioides",1228487729,-10.8339,-52.8731,"gass84"
"32","Pleroma hieracioides",1144992231,-18.78778,-45.44222,"gass84,rdativ"
"33","Pleroma hieracioides",1144992230,-10.77306,-53.08972,"gass84,rdativ"
"34","Pleroma hieracioides",1099121196,-10,-55,"rdativ"
"35","Pleroma hieracioides",1228317047,-18,-44,"gass84"
