"","name","key","decimalLatitude","decimalLongitude","issues"
"1","Symplocos pentandra",1848109358,-27.687222,-49.151389,"gass84"
"2","Symplocos pentandra",1848251213,-26.0475,-52.178056,"gass84"
"3","Symplocos pentandra",1077424663,-27.901389,-49.4975,"cdround,gass84"
"4","Symplocos pentandra",1086605942,-25.4059,-49.2285,"gass84"
"5","Symplocos pentandra",1848251431,-24.5815,-50.254111,"gass84"
"6","Symplocos pentandra",1424515794,-25.243611,-50.010278,"cdround,gass84"
"7","Symplocos pentandra",1848243679,-25.243625,-50.010278,"gass84"
"8","Symplocos pentandra",1077481622,-28.496111,-50.096389,"gass84"
"9","Symplocos pentandra",1095633954,-28.496031,-50.096411,"gass84"
"10","Symplocos pentandra",1213676229,-25.241944,-50.008056,"gass84"
"11","Symplocos pentandra",1426453214,-18.39868,-43.34816,"gass84"
"12","Symplocos pentandra",1087525713,-25.480556,-49.644444,"gass84"
"13","Symplocos pentandra",1087649926,-20.134722,-43.4525,"gass84"
"14","Symplocos pentandra",1087478545,-22.871111,-46.049167,"gass84"
"15","Symplocos pentandra",1089088015,-22.5216,-46.0257,"gass84"
"16","Symplocos pentandra",1087478542,-22.866944,-46.05,"gass84"
"17","Symplocos pentandra",1089086314,-22.5201,-46.026,"gass84"
"18","Symplocos pentandra",1920861261,-20.134611,-43.452722,"cdround,gass84"
"19","Symplocos pentandra",1089083089,-20.846,-43.2798,"gass84"
"20","Symplocos pentandra",1920861296,-22.866633,-46.049533,"cdround,gass84"
"21","Symplocos pentandra",1089083091,-21.51998,-46.2972,"gass84"
"22","Symplocos pentandra",1087478526,-22.877722,-46.504167,"gass84"
"23","Symplocos pentandra",1087478548,-21.416667,-43.477222,"gass84"
"24","Symplocos pentandra",1086655293,-25.233333,-49.983333,"gass84"
"25","Symplocos pentandra",1701755705,-10.8339,-52.8731,"gass84"
"26","Symplocos pentandra",1585962814,-20.2425,-41.495,"gass84"
"27","Symplocos pentandra",1585962812,-20.2554,-41.48274,"gass84"
"28","Symplocos pentandra",1135864284,-20.431667,-41.807611,"gass84"
"29","Symplocos pentandra",1656070829,-20.431667,-41.8075,"cdround,gass84"
"30","Symplocos pentandra",1086595909,-25.4537,-49.2345,"gass84"
"31","Symplocos pentandra",1570747036,-22.75,-45.5,"gass84"
"32","Symplocos pentandra",1077332965,-26.75,-51.4,"gass84"
