"","name","key","decimalLatitude","decimalLongitude","issues"
"1","Weinmannia humilis",1946020864,-22.500833,-45.135556,"gass84"
"2","Weinmannia humilis",1077424557,-28.082778,-49.498333,"cdround,gass84"
"3","Weinmannia humilis",1848248240,-25.131667,-48.819722,"gass84"
"4","Weinmannia humilis",1585200749,-25.3275,-49.5089,"gass84"
"5","Weinmannia humilis",1801101626,-28.161111,-49.636667,"gass84"
"6","Weinmannia humilis",1585200953,-25.2409,-48.8302,"gass84"
"7","Weinmannia humilis",1585201187,-25.4687,-49.0004,"gass84"
"8","Weinmannia humilis",1585201181,-25.3948,-48.9971,"gass84"
"9","Weinmannia humilis",1585201213,-25.4685,-48.9279,"gass84"
"10","Weinmannia humilis",1086604994,-25.2842,-48.8317,"gass84"
"11","Weinmannia humilis",1095854607,-25.1376,-48.8218,"gass84"
"12","Weinmannia humilis",1086605486,-22.4273,-44.8515,"gass84"
"13","Weinmannia humilis",1503331555,-22.397778,-44.669722,"cdround,gass84"
"14","Weinmannia humilis",1913579564,-22.397777,-44.669722,"gass84"
"15","Weinmannia humilis",1095854672,-25.2324,-48.8279,"gass84"
"16","Weinmannia humilis",1086604424,-28.1277,-49.4816,"gass84"
"17","Weinmannia humilis",1086604350,-25.1377,-48.8215,"gass84"
"18","Weinmannia humilis",1086604459,-25.241,-48.8287,"gass84"
"19","Weinmannia humilis",1077475516,-25.132861,-48.820528,"gass84"
"20","Weinmannia humilis",1077475482,-25.132944,-48.8205,"gass84"
"21","Weinmannia humilis",1089114010,-25.07586,-48.49138,"gass84"
"22","Weinmannia humilis",1095369084,-29.464444,-50.630278,"gass84"
"23","Weinmannia humilis",1086604361,-25.3558,-48.8979,"gass84"
"24","Weinmannia humilis",1086672168,-25,-49,"gass84"
"25","Weinmannia humilis",1086604299,-25.3887,-49.0036,"gass84"
"26","Weinmannia humilis",1978382858,-28.080278,-49.406667,"gass84"
"27","Weinmannia humilis",1944850646,-27.992222,-49.412222,"gass84"
"28","Weinmannia humilis",1077391446,-28.015833,-49.371389,"cdround,gass84"
"29","Weinmannia humilis",1978382865,-28.013056,-49.491944,"gass84"
"30","Weinmannia humilis",1944850673,-28.102778,-49.371389,"gass84"
"31","Weinmannia humilis",1077391493,-27.9,-49.86,"gass84"
"32","Weinmannia humilis",1077389154,-26.553333,-51.027778,"cdround,gass84"
"33","Weinmannia humilis",1087676317,-25.18,-49.039,"gass84"
"34","Weinmannia humilis",1086670321,-25.305556,-49.055278,"gass84"
"35","Weinmannia humilis",1424418961,-20.134722,-43.451389,"cdround,gass84"
"36","Weinmannia humilis",1089102414,-22.26062,-44.5319,"gass84"
"37","Weinmannia humilis",1802955278,-29.433333,-50.55,"gass84"
"38","Weinmannia humilis",1077386760,-27.000278,-50.310278,"cdround,gass84"
"39","Weinmannia humilis",1077388535,-26.822222,-50.309167,"cdround,gass84"
"40","Weinmannia humilis",1094831668,-15.173611,-39.341667,"gass84"
"41","Weinmannia humilis",1089102397,-22.24506,-44.50523,"gass84"
"42","Weinmannia humilis",1089102378,-22.26314,-44.53356,"gass84"
"43","Weinmannia humilis",1089080819,-22.2227,-44.4901,"gass84"
"44","Weinmannia humilis",1424444083,-22.589444,-43.484167,"cdround,gass84"
"45","Weinmannia humilis",1086601697,-25.5096,-48.9805,"gass84"
"46","Weinmannia humilis",1089052915,-22.243,-44.5047,"gass84"
"47","Weinmannia humilis",1086600239,-25.2466,-48.8353,"gass84"
"48","Weinmannia humilis",1086599989,-25.451,-48.9167,"gass84"
"49","Weinmannia humilis",1086599978,-25.4407,-48.926,"gass84"
"50","Weinmannia humilis",1929938363,-25.3696823516563,-49.077283287881,"cdrep"
"51","Weinmannia humilis",1897706301,-14.25,-54.333333,"cdround,cuiv"
"52","Weinmannia humilis",1086596768,-25.2555,-48.8554,"gass84"
"53","Weinmannia humilis",1261367411,-3.91666,-79.15,"gass84"
"54","Weinmannia humilis",47863980,-3.916,-79.15,"gass84"
"55","Weinmannia humilis",1929910686,-22.384444,-44.658333,""
"56","Weinmannia humilis",1929880689,-25.3096815995346,-49.0558815092544,"cdrep"
"57","Weinmannia humilis",1927792928,-22.4999514234393,-44.5633613218767,"cdrep"
"58","Weinmannia humilis",1929230961,-25.339301,-48.909823,""
"59","Weinmannia humilis",1928247885,-20.433785,-41.798225,""
"60","Weinmannia humilis",1929453605,-27.8011125715835,-49.4898250929836,"cdrep"
"61","Weinmannia humilis",1928861324,-22.5738519445846,-44.9599887381784,"cdrep"
"62","Weinmannia humilis",1228537672,-10.8339,-52.8731,"gass84"
"63","Weinmannia humilis",1928138790,-23.5441635944115,-46.6304063522203,"cdrep"
"64","Weinmannia humilis",1424764669,-9.1839,-74.14,"gass84"
"65","Weinmannia humilis",1086961106,-26.5535,-51.027861,"gass84"
