"","name","key","decimalLatitude","decimalLongitude","issues","sp"
"1","Baccharis crispa",1228448343,-10.8339,-52.8731,"gass84","Baccharis crispa"
"2","Baccharis crispa",1144574056,-10.77306,-53.08972,"gass84,rdativ","Baccharis crispa"
