"","name","key","decimalLatitude","decimalLongitude","issues","sp"
"1","Lobelia camporum",1099059167,-10,-55,"rdativ","Lobelia camporum"
"2","Lobelia camporum",1228423228,-10.8339,-52.8731,"gass84","Lobelia camporum"
