"","name","key","decimalLatitude","decimalLongitude","issues","sp"
"1","Mutisia coccinea",1228439094,-10.8339,-52.8731,"gass84","Mutisia coccinea"
"2","Mutisia coccinea",1144630002,-10.77311,-53.08982,"gass84,rdativ","Mutisia coccinea"
