"","name","key","decimalLatitude","decimalLongitude","issues","sp"
"1","Nidularium innocentii",1424777131,-10.8339,-52.8731,"gass84","Nidularium innocentii"
"2","Nidularium innocentii",1099079520,-10,-55,"rdativ","Nidularium innocentii"
