"","name","key","decimalLatitude","decimalLongitude","issues","sp"
"1","Pleroma heteromalla",1228571757,-10.8339,-52.8731,"gass84","Pleroma heteromalla"
"2","Pleroma heteromalla",1099121186,-10,-55,"rdativ","Pleroma heteromalla"
"3","Pleroma heteromalla",1144992162,-10.77306,-53.08972,"gass84,rdativ","Pleroma heteromalla"
