"","name","key","decimalLatitude","decimalLongitude","issues","sp"
"1","Utricularia reniformis",1228421823,-10.8339,-52.8731,"gass84","Utricularia reniformis"
"2","Utricularia reniformis",1848918697,-10,-55,"rdativ","Utricularia reniformis"
